{
    "_id": "bi1SeBS7Af3ZisIA",
    "content": "<h1>Swordmaster</h1>\n<p><span id=\"ctl00_MainContent_DetailedOutput\">Though the ultimate goal of the Pathfinder society is to learn, knowledge cannot be spread if those who discover it fail to come back alive. The Master of Swords teaches recruits to survive, to defend other Pathfinders, and to defeat the Society’s enemies. The swordmaster embodies these skills, focusing on practicality and ignoring ideals or methods that interfere with their ability to overcome any challenge.</span></p>\n<h2 class=\"title\">Pathfinder Society Archetypes</h2>\n<p>The following archetypes are uncommon, but are available to members of the Pathfinder Society. Qualifying characters with the <a class=\"entity-link\" draggable=\"true\" data-pack=\"pf2e.archetypes\" data-id=\"o3C85NHW08Y2inAN\"><i class=\"fas fa-book-open\"></i> Pathfinder Agent</a> archetype can select one of these dedication feats even if they have not gained three feats from the Pathfinder agent archetype, and each of these archetypes’ feats fulfills the Pathfinder Agent Dedication’s special requirement despite not being from the Pathfinder agent archetype.</p>\n<h2><a class=\"entity-link\" draggable=\"true\" data-pack=\"pf2e.feats-srd\" data-id=\"SHpVHkPxtQggD9Cf\"><i class=\"fas fa-suitcase\"></i> Swordmaster Dedication</a> Feat 6</h2>\n<div><span id=\"ctl00_MainContent_DetailedOutput\"><strong>Prerequisites</strong>&nbsp;Strength, Dexterity, or Constitution 14; member of the Pathfinder Society affiliated with the School of Swords<br></span></div>\n<hr>\n<p>Your Swords training taught you to never lose hold of your weapon. You gain a +2 circumstance bonus to your Reflex DC when foes attempt to Disarm you. If you have the Deft Cooperation feat and critically succeed on a check to Aid an ally’s attack roll or skill check, you gain a +2 circumstance bonus from Deft Cooperation (instead of a +1 bonus) the first time you attempt an attack roll or attempt a skill check where the bonus would apply.</p>\n<p><strong>Special</strong>&nbsp;You cannot select another dedication feat until you have gained two other feats from the Swordmaster archetype.&nbsp;</p>\n<h2><a class=\"entity-link\" draggable=\"true\" data-pack=\"pf2e.feats-srd\" data-id=\"RcQv16RK80R6c4id\"><i class=\"fas fa-suitcase\"></i> Improvised Crafting</a> Feat 8</h2>\n<div><span id=\"ctl00_MainContent_DetailedOutput\"><strong>Prerequisites</strong> </span><span style=\"color: #191813; font-family: Roboto, system, -apple-system, sans-serif; font-size: 13px;\">Swordmaster Dedication, expert in Crafting</span></div>\n<hr style=\"box-sizing: border-box; user-select: text; color: #191813; font-family: Roboto, system, -apple-system, sans-serif; font-size: 13px;\">\n<p style=\"box-sizing: border-box; user-select: text; color: #191813; font-family: Roboto, system, -apple-system, sans-serif; font-size: 13px;\">You’ve learned to repair your equipment even in challenging circumstances, making use of what you have available. You can attempt to Repair an item without a repair kit, instead&nbsp; improvising tools out of your gear or found items. This adds 5 minutes to the time it takes to Repair the item. You can also Repair an item while on the move without needing a stable surface. This adds 10 minutes to the times it takes to Repair the item.</p>\n<h2><a class=\"entity-link\" draggable=\"true\" data-pack=\"pf2e.feats-srd\" data-id=\"8Sdw31YToKhBJ4v4\"><i class=\"fas fa-suitcase\"></i> Physical Training</a> Feat 8</h2>\n<div>\n<p style=\"box-sizing: border-box; user-select: text; color: #191813; font-family: Roboto, system, -apple-system, sans-serif; font-size: 13px;\"><strong style=\"box-sizing: border-box; user-select: text;\">Prerequisites&nbsp;</strong>Swordmaster Dedication, expert in Athletics and Acrobatics</p>\n<hr style=\"box-sizing: border-box; user-select: text; color: #191813; font-family: Roboto, system, -apple-system, sans-serif; font-size: 13px;\">\n<p style=\"box-sizing: border-box; user-select: text; color: #191813; font-family: Roboto, system, -apple-system, sans-serif; font-size: 13px;\">You spend a lot of time focusing on your physical fitness. You increase your proficiency rank in Acrobatics and Athletics from expert to master.</p>\n<h2><a class=\"entity-link\" draggable=\"true\" data-pack=\"pf2e.feats-srd\" data-id=\"ASWqQ6RB7cfCsUo0\"><i class=\"fas fa-suitcase\"></i> Protect Ally</a> Feat 8</h2>\n<div>\n<p style=\"box-sizing: border-box; user-select: text; color: #191813; font-family: Roboto, system, -apple-system, sans-serif; font-size: 13px;\"><strong style=\"box-sizing: border-box; user-select: text;\">Prerequisites&nbsp;</strong>Swordmaster Dedication</p>\n<hr style=\"box-sizing: border-box; user-select: text; color: #191813; font-family: Roboto, system, -apple-system, sans-serif; font-size: 13px;\">\n<p style=\"box-sizing: border-box; user-select: text; color: #191813; font-family: Roboto, system, -apple-system, sans-serif; font-size: 13px;\">You place your body between your friends and your enemies, protecting your allies against oncoming attacks. You choose one adjacent ally. That ally gains a +1 circumstance bonus to AC until the start of your next turn or until that ally is no longer adjacent to you, whichever comes first. You can only protect a single ally in this way. If you choose to Protect a different Ally, the previous ally loses the bonus to AC.</p>\n<h2><a class=\"entity-link\" draggable=\"true\" data-pack=\"pf2e.feats-srd\" data-id=\"i7hNUqiJsB8hgIET\"><i class=\"fas fa-suitcase\"></i> Quick Stow</a> Feat 8</h2>\n<div>\n<p style=\"box-sizing: border-box; user-select: text; color: #191813; font-family: Roboto, system, -apple-system, sans-serif; font-size: 13px;\"><strong style=\"box-sizing: border-box; user-select: text;\">Prerequisites&nbsp;</strong>Swordmaster Dedication</p>\n<hr style=\"box-sizing: border-box; user-select: text; color: #191813; font-family: Roboto, system, -apple-system, sans-serif; font-size: 13px;\">\n<p style=\"box-sizing: border-box; user-select: text; color: #191813; font-family: Roboto, system, -apple-system, sans-serif; font-size: 13px;\">You know that situations can change rapidly and might leave you needing to change equipment in the middle of combat. Your training has taught you how to swap your equipment on the fly. You Interact to stow a weapon and then Interact again to draw a readied item or weapon.</p>\n<h2><a class=\"entity-link\" draggable=\"true\" data-pack=\"pf2e.feats-srd\" data-id=\"jaekke9HomT4PZ9b\"><i class=\"fas fa-suitcase\"></i> Reflexive Grip</a> Feat 8</h2>\n<div>\n<p style=\"box-sizing: border-box; user-select: text; color: #191813; font-family: Roboto, system, -apple-system, sans-serif; font-size: 13px;\"><strong style=\"box-sizing: border-box; user-select: text;\">Prerequisites&nbsp;</strong>Swordmaster Dedication</p>\n<hr style=\"box-sizing: border-box; user-select: text; color: #191813; font-family: Roboto, system, -apple-system, sans-serif; font-size: 13px;\">\n<p style=\"box-sizing: border-box; user-select: text; color: #191813; font-family: Roboto, system, -apple-system, sans-serif; font-size: 13px;\">You keep hold of your weapons even when knocked out. You gain a +2 circumstance bonus to your Reflex DC when defending against checks to Disarm you. In addition, when you fall unconscious, you don’t drop any weapons that you’re currently wielding, though somebody else can remove them from you.</p>\n<h2><a class=\"entity-link\" draggable=\"true\" data-pack=\"pf2e.feats-srd\" data-id=\"OmjTt8eR1Q3SmkPp\"><i class=\"fas fa-suitcase\"></i> Armored Rest</a> Feat 10</h2>\n<div>\n<p style=\"box-sizing: border-box; user-select: text; color: #191813; font-family: Roboto, system, -apple-system, sans-serif; font-size: 13px;\"><strong style=\"box-sizing: border-box; user-select: text;\">Prerequisites&nbsp;</strong>Swordmaster Dedication; trained in light, medium, or heavy armor</p>\n<hr style=\"box-sizing: border-box; user-select: text; color: #191813; font-family: Roboto, system, -apple-system, sans-serif; font-size: 13px;\">\n<p style=\"box-sizing: border-box; user-select: text; color: #191813; font-family: Roboto, system, -apple-system, sans-serif; font-size: 13px;\">You’ve slept many nights in your armor and gotten used to it. You can sleep in armor overnight without being fatigued the next day. If you were already fatigued before sleeping, the armor doesn’t prevent you from recovering from being fatigued.</p>\n</div>\n</div>\n</div>\n</div>\n</div>\n<h2><a class=\"entity-link\" draggable=\"true\" data-pack=\"pf2e.feats-srd\" data-id=\"fCsIyglmpb7NYwiy\"><i class=\"fas fa-suitcase\"></i> Harrying Strike</a> Feat 10</h2>\n<p><span id=\"ctl00_MainContent_DetailedOutput\"><strong>Prerequisites</strong>&nbsp;Swordmaster Dedication&nbsp;<br></span></p>\n<hr>\n<p>Your attack prevents a foe from pursuing your allies. Make a melee Strike, adding the following effects in addition to the normal effects of the Strike.<br><br><strong>Critical Success</strong>&nbsp;The target takes a –15-foot status penalty to its Speeds until the start of your next turn.<br><strong>Success</strong>&nbsp;The target takes a –10-foot status penalty to its Speeds until the start of your next turn.<br><strong>Failure</strong>&nbsp;The target takes a –5-foot status penalty to its Speeds until the start of your next turn.&nbsp;</p>\n<h2><a class=\"entity-link\" draggable=\"true\" data-pack=\"pf2e.feats-srd\" data-id=\"lKeJruYQutWlNXyZ\"><i class=\"fas fa-suitcase\"></i> Martial Exercise</a> Feat 10</h2>\n<div>\n<p style=\"box-sizing: border-box; user-select: text; color: #191813; font-family: Roboto, system, -apple-system, sans-serif; font-size: 13px;\"><strong style=\"box-sizing: border-box; user-select: text;\">Prerequisites&nbsp;</strong>Swordmaster Dedication</p>\n<hr style=\"box-sizing: border-box; user-select: text; color: #191813; font-family: Roboto, system, -apple-system, sans-serif; font-size: 13px;\">\n<p style=\"box-sizing: border-box; user-select: text; color: #191813; font-family: Roboto, system, -apple-system, sans-serif; font-size: 13px;\">You’ve become comfortable in using weapons that you might not have picked up before training with the Swords. Choose one weapon group, such as hammer or sword. Whenever your proficiency rank in any weapon increases to expert or beyond, you also gain that new proficiency rank with both simple and martial weapons of your chosen weapon group.</p>\n<h2><a class=\"entity-link\" draggable=\"true\" data-pack=\"pf2e.feats-srd\" data-id=\"vu0R9VfRZ6RWTczZ\"><i class=\"fas fa-suitcase\"></i> Practiced Defender</a> Feat 10</h2>\n<div>\n<p style=\"box-sizing: border-box; user-select: text; color: #191813; font-family: Roboto, system, -apple-system, sans-serif; font-size: 13px;\"><strong style=\"box-sizing: border-box; user-select: text;\">Prerequisites&nbsp;</strong>Swordmaster Dedication</p>\n<hr style=\"box-sizing: border-box; user-select: text; color: #191813; font-family: Roboto, system, -apple-system, sans-serif; font-size: 13px;\">\n<p style=\"box-sizing: border-box; user-select: text; color: #191813; font-family: Roboto, system, -apple-system, sans-serif; font-size: 13px;\">After extensive practice with the Swords, you’re comfortable enough with your shield to move at a normal pace with it raised. You may use the Defend exploration activity while traveling at your full travel speed instead of half your travel speed.</p>\n<div>\n<h2><a class=\"entity-link\" draggable=\"true\" data-pack=\"pf2e.feats-srd\" data-id=\"9AZjpeeS824VsYv8\"><i class=\"fas fa-suitcase\"></i> Emergency Medical Assistance</a> Feat 12</h2>\n<div>\n<p style=\"box-sizing: border-box; user-select: text; color: #191813; font-family: Roboto, system, -apple-system, sans-serif; font-size: 13px;\"><strong style=\"box-sizing: border-box; user-select: text;\">Prerequisites&nbsp;</strong>Swordmaster Dedication</p>\n<hr style=\"box-sizing: border-box; user-select: text; color: #191813; font-family: Roboto, system, -apple-system, sans-serif; font-size: 13px;\">\n<p style=\"box-sizing: border-box; user-select: text; color: #191813; font-family: Roboto, system, -apple-system, sans-serif; font-size: 13px;\">After extensive practice with the Swords, you’re comfortable enough with your shield to move at a normal pace with it raised. You may use the Defend exploration activity while traveling at your full travel speed instead of half your travel speed.</p>\n<h2><a class=\"entity-link\" draggable=\"true\" data-pack=\"pf2e.feats-srd\" data-id=\"QoPooHpBjPh1sjRD\"><i class=\"fas fa-suitcase\"></i> Recollect Studies</a> Feat 12</h2>\n<div>\n<p style=\"box-sizing: border-box; user-select: text; color: #191813; font-family: Roboto, system, -apple-system, sans-serif; font-size: 13px;\"><strong style=\"box-sizing: border-box; user-select: text;\">Prerequisites</strong>&nbsp;Swordmaster Dedication, expert in a skill used to Recall Knowledge</p>\n<p style=\"box-sizing: border-box; user-select: text; color: #191813; font-family: Roboto, system, -apple-system, sans-serif; font-size: 13px;\"><strong style=\"box-sizing: border-box; user-select: text;\">Requirements&nbsp;</strong>You’re fighting a creature of your level or lower that could be identified by Recall Knowledge with a skill in which you’re an expert.</p>\n<hr style=\"box-sizing: border-box; user-select: text; color: #191813; font-family: Roboto, system, -apple-system, sans-serif; font-size: 13px;\">\n<p style=\"box-sizing: border-box; user-select: text; color: #191813; font-family: Roboto, system, -apple-system, sans-serif; font-size: 13px;\">You paid attention during your studies and remember the right way to attack various creatures. Choose a creature that meets the requirements. You learn the resistances, immunities, or weaknesses of the creature (your choice) without needing to successfully Recall Knowledge.</p>\n<h2><a class=\"entity-link\" draggable=\"true\" data-pack=\"pf2e.feats-srd\" data-id=\"m7AOg13xEJRHyoTt\"><i class=\"fas fa-suitcase\"></i> Rugged Survivalist</a> Feat 12</h2>\n<div>\n<p style=\"box-sizing: border-box; user-select: text; color: #191813; font-family: Roboto, system, -apple-system, sans-serif; font-size: 13px;\"><strong style=\"box-sizing: border-box; user-select: text;\">Prerequisites&nbsp;</strong>Swordmaster Dedication, master in Survival</p>\n<hr style=\"box-sizing: border-box; user-select: text; color: #191813; font-family: Roboto, system, -apple-system, sans-serif; font-size: 13px;\">\n<p style=\"box-sizing: border-box; user-select: text; color: #191813; font-family: Roboto, system, -apple-system, sans-serif; font-size: 13px;\">You’ve studied survival skills with the School of Swords experts and are comfortable spending long periods of time in the wilderness. You don’t get fatigued more quickly due to precipitation during overland travel, though you can otherwise be fatigued as normal. You can go 3 days + your Constitution modifier without water before you take damage from thirst and you can go 5 days + your Constitution modifier without food before you take damage from starvation.</p>\n</div>\n</div>\n</div>\n</div>\n</div>\n</div>\n<h2><a class=\"entity-link\" draggable=\"true\" data-pack=\"pf2e.feats-srd\" data-id=\"Oa41bfBRO36lf1aE\"><i class=\"fas fa-suitcase\"></i> Shoulder Catastrophe</a> Feat 12</h2>\n<p><span id=\"ctl00_MainContent_DetailedOutput\"><strong>Prerequisites</strong>&nbsp;Swordmaster Dedication&nbsp;<br><strong>Trigger</strong>&nbsp;An enemy critically succeeds at a Strike against an adjacent ally.<br></span></p>\n<hr>\n<p>You’ve trained to protect your allies by diverting the worst attacks to yourself. The enemy doesn’t double the damage from the triggering Strike but instead applies the normal damage to both you and your ally. Both of you take any effects that would happen on a hit that dealt damage, such as poison, but neither of you are subject to any effects that would happen only on a critical success.&nbsp;</p>\n<h2><a class=\"entity-link\" draggable=\"true\" data-pack=\"pf2e.feats-srd\" data-id=\"K5pXeeJLmdE8XuvM\"><i class=\"fas fa-suitcase\"></i> Tense Negotiator</a> Feat 12</h2>\n<div>\n<p style=\"box-sizing: border-box; user-select: text; color: #191813; font-family: Roboto, system, -apple-system, sans-serif; font-size: 13px;\"><strong style=\"box-sizing: border-box; user-select: text;\">Prerequisites&nbsp;</strong>Swordmaster Dedication, master in Diplomacy</p>\n<hr style=\"box-sizing: border-box; user-select: text; color: #191813; font-family: Roboto, system, -apple-system, sans-serif; font-size: 13px;\">\n<p style=\"box-sizing: border-box; user-select: text; color: #191813; font-family: Roboto, system, -apple-system, sans-serif; font-size: 13px;\">You often find that the best way to win a conflict means avoiding a fight in the first place. You’re good at talking to potential opponents without making things worse. If you would critically fail at a check to Make an Impression, you instead fail. You can attempt checks to make Requests of creatures who’re indifferent or unfriendly toward you.</p>\n<h2><a class=\"entity-link\" draggable=\"true\" data-pack=\"pf2e.feats-srd\" data-id=\"9zfcIXDG2mDpiypp\"><i class=\"fas fa-suitcase\"></i> Armored Exercise</a> Feat 14</h2>\n<div>\n<p style=\"box-sizing: border-box; user-select: text; color: #191813; font-family: Roboto, system, -apple-system, sans-serif; font-size: 13px;\"><strong style=\"box-sizing: border-box; user-select: text;\">Prerequisites&nbsp;</strong>Swordmaster Dedication; trained in light, medium, or heavy armor</p>\n<hr style=\"box-sizing: border-box; user-select: text; color: #191813; font-family: Roboto, system, -apple-system, sans-serif; font-size: 13px;\">\n<p style=\"box-sizing: border-box; user-select: text; color: #191813; font-family: Roboto, system, -apple-system, sans-serif; font-size: 13px;\">You’ve spent time training in your armor alongside other agents from the Swords. Your proficiency rank for light, medium, and heavy armor increases to expert for whichever of those you already had the trained proficiency rank in.</p>\n</div>\n</div>\n<h2><a class=\"entity-link\" draggable=\"true\" data-pack=\"pf2e.feats-srd\" data-id=\"PSpwdvuddC9kXONz\"><i class=\"fas fa-suitcase\"></i> Death's Door</a> Feat 14</h2>\n<p><span id=\"ctl00_MainContent_DetailedOutput\"><strong>Frequency</strong>&nbsp;once per 10 minutes<br><strong>Prerequisites</strong>&nbsp;Swordmaster Dedication&nbsp;<br><strong>Trigger</strong>&nbsp;You take damage that would reduce you to 0 Hit Points.<br></span></p>\n<hr>\n<p>You continue to fight when others would fall. Just before taking the triggering damage, you gain temporary Hit Points equal to twice your level. If you have Hit Points remaining after gaining these temporary Hit Points, you aren’t knocked unconscious, nor do you suffer the other effects of being reduced to 0 Hit Points. Any temporary Hit Points that remain after applying the damage last for up to 4 rounds.&nbsp;</p>\n<h2><a class=\"entity-link\" draggable=\"true\" data-pack=\"pf2e.feats-srd\" data-id=\"0qL4a3CarG1e0pfB\"><i class=\"fas fa-suitcase\"></i> Forceful Shot</a> Feat 14</h2>\n<div>\n<p style=\"box-sizing: border-box; user-select: text; color: #191813; font-family: Roboto, system, -apple-system, sans-serif; font-size: 13px;\"><strong style=\"box-sizing: border-box; user-select: text;\">Prerequisites&nbsp;</strong>Swordmaster Dedication</p>\n<hr style=\"box-sizing: border-box; user-select: text; color: #191813; font-family: Roboto, system, -apple-system, sans-serif; font-size: 13px;\">\n<p style=\"box-sizing: border-box; user-select: text; color: #191813; font-family: Roboto, system, -apple-system, sans-serif; font-size: 13px;\">Your ranged attacks push your foes away from your allies. Make a ranged Strike, adding the following effects in addition to the normal effects of the Strike.</p>\n<hr style=\"box-sizing: border-box; user-select: text; color: #191813; font-family: Roboto, system, -apple-system, sans-serif; font-size: 13px;\">\n<p style=\"box-sizing: border-box; user-select: text; color: #191813; font-family: Roboto, system, -apple-system, sans-serif; font-size: 13px;\"><strong style=\"box-sizing: border-box; user-select: text;\">Critical Success</strong>&nbsp;The target is pushed 10 feet away from you.</p>\n<p style=\"box-sizing: border-box; user-select: text; color: #191813; font-family: Roboto, system, -apple-system, sans-serif; font-size: 13px;\"><strong style=\"box-sizing: border-box; user-select: text;\">Success&nbsp;</strong>The target is pushed 5 feet away from you.</p>\n<p style=\"box-sizing: border-box; user-select: text; color: #191813; font-family: Roboto, system, -apple-system, sans-serif; font-size: 13px;\"><strong style=\"box-sizing: border-box; user-select: text;\">Failure&nbsp;</strong>The target is flat-footed for 1 round.</p>\n<h2><a class=\"entity-link\" draggable=\"true\" data-pack=\"pf2e.feats-srd\" data-id=\"zodscjgydZRUSOLO\"><i class=\"fas fa-suitcase\"></i> Focus Ally</a> Feat 16</h2>\n<div>\n<p style=\"box-sizing: border-box; user-select: text; color: #191813; font-family: Roboto, system, -apple-system, sans-serif; font-size: 13px;\"><strong style=\"box-sizing: border-box; user-select: text;\">Prerequisites&nbsp;</strong>Swordmaster Dedication</p>\n<p style=\"box-sizing: border-box; user-select: text; color: #191813; font-family: Roboto, system, -apple-system, sans-serif; font-size: 13px;\"><strong style=\"box-sizing: border-box; user-select: text;\">Trigger&nbsp;</strong>An adjacent ally fails, but doesn’t critically fail, a saving throw against an effect with the incapacitation trait.</p>\n<hr style=\"box-sizing: border-box; user-select: text; color: #191813; font-family: Roboto, system, -apple-system, sans-serif; font-size: 13px;\">\n<p style=\"box-sizing: border-box; user-select: text; color: #191813; font-family: Roboto, system, -apple-system, sans-serif; font-size: 13px;\">You’re so focused on your allies that you can help them to recenter when something would take them out of the fight. Your ally rerolls the failed saving throw. That ally must take the second result.</p>\n<h2><a class=\"entity-link\" draggable=\"true\" data-pack=\"pf2e.feats-srd\" data-id=\"rmO7FP410nvCjFBB\"><i class=\"fas fa-suitcase\"></i> Stave off Catastrophe</a> Feat 18</h2>\n<div>\n<p style=\"box-sizing: border-box; user-select: text; color: #191813; font-family: Roboto, system, -apple-system, sans-serif; font-size: 13px;\"><strong style=\"box-sizing: border-box; user-select: text;\">Prerequisites </strong><span style=\"box-sizing: border-box; user-select: text;\"><a class=\"entity-link\" draggable=\"true\" data-pack=\"pf2e.feats-srd\" data-id=\"Oa41bfBRO36lf1aE\"><i class=\"fas fa-suitcase\"></i> Shoulder Catastrophe</a></span></p>\n<hr style=\"box-sizing: border-box; user-select: text; color: #191813; font-family: Roboto, system, -apple-system, sans-serif; font-size: 13px;\">\n<p style=\"box-sizing: border-box; user-select: text; color: #191813; font-family: Roboto, system, -apple-system, sans-serif; font-size: 13px;\">You fully protect your allies from the worst blows. When you use the Shoulder Catastrophe reaction, you can choose to take the full critical damage and effects from the attack, including effects that apply on a critical hit, and have your ally take no damage and avoid the attack’s effects.</p>\n</div>\n</div>\n</div>",
    "flags": {},
    "name": "Swordmaster",
    "permission": {
        "default": 0
    }
}
