{
    "_id": "TkIyaNPgTZFBCCuh",
    "data": {
        "active": true,
        "alsoApplies": {
            "linked": [],
            "unlinked": []
        },
        "base": "Dazzled",
        "description": {
            "chat": "",
            "unidentified": "",
            "value": "<p>Your eyes are overstimulated. If vision is your only precise sense, all creatures and objects are <a class=\"entity-link\" draggable=\"true\" data-pack=\"pf2e.conditionitems\" data-id=\"DmAIPqOBomZ7H95W\"> Concealed</a> from you.</p>"
        },
        "duration": {
            "perpetual": true,
            "text": "",
            "value": 0
        },
        "group": "senses",
        "hud": {
            "img": {
                "useStatusName": true,
                "value": "system/pf2e/icons/conditions-2/dazzled.png"
            },
            "selectable": true,
            "statusName": "dazzled"
        },
        "modifiers": [],
        "overrides": [],
        "rarity": {
            "value": "common"
        },
        "references": {
            "children": [],
            "immunityFrom": [],
            "overriddenBy": [],
            "overrides": []
        },
        "removable": true,
        "rules": [],
        "source": {
            "value": ""
        },
        "sources": {
            "hud": false
        },
        "traits": {
            "value": []
        },
        "usage": {
            "value": "held-in-one-hand"
        },
        "value": {
            "immutable": false,
            "isValued": false,
            "modifiers": [],
            "value": 1
        }
    },
    "effects": [],
    "flags": {
        "pf2e": {
            "condition": true
        }
    },
    "img": "systems/pf2e/icons/conditions/dazzled.png",
    "name": "Dazzled",
    "permission": {
        "default": 0
    },
    "type": "condition"
}
