{
    "_id": "v44P3WUcU1j0115l",
    "data": {
        "active": true,
        "alsoApplies": {
            "linked": [],
            "unlinked": []
        },
        "base": "Helpful",
        "description": {
            "chat": "",
            "unidentified": "",
            "value": "<p>This condition reflects a creature’s disposition toward a particular character, and it affects only creatures that are not player characters. A creature that is helpful to a character wishes to actively aid that character. It will accept reasonable <a class=\"entity-link\" draggable=\"true\" data-pack=\"pf2e.actionspf2e\" data-id=\"DCb62iCBrJXy0Ik6\"> Requests</a> from that character, as long as such requests aren’t at the expense of the helpful creature’s goals or quality of life. If the character or one of their allies uses a hostile action against the creature, the creature gains a worse attitude condition depending on the severity of the hostile action, as determined by the GM.</p>"
        },
        "duration": {
            "perpetual": true,
            "text": "",
            "value": 0
        },
        "group": "attitudes",
        "hud": {
            "img": {
                "useStatusName": true,
                "value": "system/pf2e/icons/conditions-2/helpful.png"
            },
            "selectable": true,
            "statusName": "helpful"
        },
        "modifiers": [],
        "overrides": [
            "Helpful",
            "Hostile",
            "Indifferent",
            "Unfriendly"
        ],
        "rarity": {
            "value": "common"
        },
        "references": {
            "children": [],
            "immunityFrom": [],
            "overriddenBy": [],
            "overrides": []
        },
        "removable": true,
        "rules": [],
        "source": {
            "value": ""
        },
        "sources": {
            "hud": false
        },
        "traits": {
            "value": []
        },
        "usage": {
            "value": "held-in-one-hand"
        },
        "value": {
            "immutable": false,
            "isValued": false,
            "modifiers": [],
            "value": 1
        }
    },
    "effects": [],
    "flags": {
        "pf2e": {
            "condition": true
        }
    },
    "img": "systems/pf2e/icons/conditions/helpful.png",
    "name": "Helpful",
    "permission": {
        "default": 0
    },
    "type": "condition"
}
