{
    "_id": "7E3sWotW56biNttA",
    "data": {
        "description": {
            "chat": "",
            "unidentified": "",
            "value": "<div><strong>Armor</strong> leather armor</div>\n<div><strong>Weapons</strong> dagger, longbow with 20 arrows</div>\n<div><strong>Gear</strong> adventurer’s pack, sheath</div>"
        },
        "equippedBulk": {
            "value": ""
        },
        "items": {
            "07kq9": {
                "id": "MVAWttmT0QDa7LsV",
                "img": "systems/pf2e/icons/equipment/longbow.png",
                "isContainer": false,
                "items": {},
                "name": "Longbow",
                "pack": "pf2e.equipment-srd",
                "quantity": 1
            },
            "fsmqv": {
                "id": "w2ENw2VMPcsbif8g",
                "img": "systems/pf2e/icons/equipment/weapons/arrows.jpg",
                "isContainer": false,
                "items": {},
                "name": "Arrows",
                "pack": "pf2e.equipment-srd",
                "quantity": 20
            },
            "ha88j": {
                "id": "2req0jGaxz8hScdB",
                "img": "systems/pf2e/icons/equipment/adventuring-gear/adventurers-pack.jpg",
                "isContainer": true,
                "items": {},
                "name": "Adventurer's Pack",
                "pack": "pf2e.equipment-srd",
                "quantity": 1
            },
            "img9u": {
                "id": "rQWaJhI5Bko5x14Z",
                "img": "systems/pf2e/icons/equipment/dagger.png",
                "isContainer": false,
                "items": {},
                "name": "Dagger",
                "pack": "pf2e.equipment-srd",
                "quantity": 1
            },
            "izc6u": {
                "id": "Zycu6zaGvDsqLH5g",
                "img": "systems/pf2e/icons/equipment/adventuring-gear/sheath.jpg",
                "isContainer": false,
                "items": {},
                "name": "Sheath",
                "pack": "pf2e.equipment-srd",
                "quantity": 1
            },
            "jmsoi": {
                "id": "5Ew82vBF9YfaiY9f",
                "img": "systems/pf2e/icons/equipment/treasure/currency/silver-pieces.jpg",
                "isContainer": false,
                "items": {},
                "name": "Silver Pieces",
                "pack": "pf2e.equipment-srd",
                "quantity": 9
            },
            "scw2h": {
                "id": "4tIVTg9wj56RrveA",
                "img": "systems/pf2e/icons/equipment/armor/leather-armor.jpg",
                "isContainer": false,
                "items": {},
                "name": "Leather Armor",
                "pack": "pf2e.equipment-srd",
                "quantity": 1
            },
            "tnhnt": {
                "id": "B6B7tBWJSqOBz5zz",
                "img": "systems/pf2e/icons/equipment/treasure/currency/gold-pieces.jpg",
                "isContainer": false,
                "items": {},
                "name": "Gold Pieces",
                "pack": "pf2e.equipment-srd",
                "quantity": 5
            }
        },
        "price": {
            "value": "9 gp, 1 sp"
        },
        "rarity": {
            "value": "common"
        },
        "source": {
            "value": ""
        },
        "traits": {
            "custom": "",
            "rarity": {
                "value": "common"
            },
            "value": [
                "ranger"
            ]
        },
        "usage": {
            "value": "held-in-one-hand"
        },
        "weight": {
            "value": "-"
        }
    },
    "effects": [],
    "flags": {},
    "img": "systems/pf2e/icons/equipment/adventuring-gear/classkit-ranger.jpg",
    "name": "Class Kit (Ranger)",
    "permission": {
        "default": 0
    },
    "type": "kit"
}
