{
    "_id": "asQAvJXm3DSzPQtA",
    "data": {
        "description": {
            "chat": "",
            "unidentified": "",
            "value": "<div><strong>Armor </strong>studded leather armor</div>\n<div><strong>Weapons</strong> dagger, rapier, sling with 20 sling bullets</div>\n<div><strong>Gear</strong> adventurer’s pack, bandolier, handheld</div>\n<div>instrument, sheath</div>"
        },
        "equippedBulk": {
            "value": ""
        },
        "items": {
            "1zjad": {
                "id": "tH5GirEy7YB3ZgCk",
                "img": "systems/pf2e/icons/equipment/weapons/rapier.jpg",
                "isContainer": false,
                "items": {},
                "name": "Rapier",
                "pack": "pf2e.equipment-srd",
                "quantity": 1
            },
            "5ro9w": {
                "id": "2req0jGaxz8hScdB",
                "img": "systems/pf2e/icons/equipment/adventuring-gear/adventurers-pack.jpg",
                "isContainer": true,
                "items": {},
                "name": "Adventurer's Pack",
                "pack": "pf2e.equipment-srd",
                "quantity": 1
            },
            "7qjmd": {
                "id": "B6B7tBWJSqOBz5zz",
                "img": "systems/pf2e/icons/equipment/treasure/currency/gold-pieces.jpg",
                "isContainer": false,
                "items": {},
                "name": "Gold Pieces",
                "pack": "pf2e.equipment-srd",
                "quantity": 8
            },
            "cxkoq": {
                "id": "Zycu6zaGvDsqLH5g",
                "img": "systems/pf2e/icons/equipment/adventuring-gear/sheath.jpg",
                "isContainer": false,
                "items": {},
                "name": "Sheath",
                "pack": "pf2e.equipment-srd",
                "quantity": 1
            },
            "f3m24": {
                "id": "MKSeXwUm56c15MZa",
                "img": "systems/pf2e/icons/equipment/weapons/sling-bullets.jpg",
                "isContainer": false,
                "items": {},
                "name": "Sling Bullets",
                "pack": "pf2e.equipment-srd",
                "quantity": 20
            },
            "g24k7": {
                "id": "rQWaJhI5Bko5x14Z",
                "img": "systems/pf2e/icons/equipment/dagger.png",
                "isContainer": false,
                "items": {},
                "name": "Dagger",
                "pack": "pf2e.equipment-srd",
                "quantity": 1
            },
            "g5non": {
                "id": "5Ew82vBF9YfaiY9f",
                "img": "systems/pf2e/icons/equipment/treasure/currency/silver-pieces.jpg",
                "isContainer": false,
                "items": {},
                "name": "Silver Pieces",
                "pack": "pf2e.equipment-srd",
                "quantity": 2
            },
            "hgjih": {
                "id": "MPv5Yx4w7scZGj2Y",
                "img": "systems/pf2e/icons/equipment/adventuring-gear/musical-instrument-handheld.jpg",
                "isContainer": false,
                "items": {},
                "name": "Musical Instrument (Handheld)",
                "pack": "pf2e.equipment-srd",
                "quantity": 1
            },
            "k1rn7": {
                "id": "UCH4myuFnokGv0vF",
                "img": "systems/pf2e/icons/equipment/sling.png",
                "isContainer": false,
                "items": {},
                "name": "Sling",
                "pack": "pf2e.equipment-srd",
                "quantity": 1
            },
            "r09jv": {
                "id": "HamOU17sqb5ljiB5",
                "img": "systems/pf2e/icons/equipment/adventuring-gear/bandolier.jpg",
                "isContainer": true,
                "items": {},
                "name": "Bandolier",
                "pack": "pf2e.equipment-srd",
                "quantity": 1
            },
            "vg83z": {
                "id": "ewQZ0VeL38v3qFnN",
                "img": "systems/pf2e/icons/equipment/armor/studded-leather-armor.jpg",
                "isContainer": false,
                "items": {},
                "name": "Studded Leather Armor",
                "pack": "pf2e.equipment-srd",
                "quantity": 1
            }
        },
        "price": {
            "value": "6 gp, 8 sp"
        },
        "rarity": {
            "value": "common"
        },
        "source": {
            "value": ""
        },
        "traits": {
            "custom": "",
            "rarity": {
                "value": "common"
            },
            "value": [
                "bard"
            ]
        },
        "usage": {
            "value": "held-in-one-hand"
        },
        "weight": {
            "value": "-"
        }
    },
    "effects": [],
    "flags": {},
    "img": "systems/pf2e/icons/equipment/adventuring-gear/classkit-bard.jpg",
    "name": "Class Kit (Bard)",
    "permission": {
        "default": 0
    },
    "type": "kit"
}
