{
    "_id": "gCvGa77UZjhsbuOJ",
    "data": {
        "description": {
            "chat": "",
            "unidentified": "",
            "value": "<div><strong>Armor</strong> leather armor</div>\n<div><strong>Weapons </strong>4 javelins, longspear</div>\n<div><strong>Gear</strong> adventurer’s pack, bandolier, holly and mistletoe</div>\n<div><strong>Options</strong> <a class=\"entity-link\" draggable=\"true\" data-pack=\"pf2e.equipment-srd\" data-id=\"s1vB3HdXjMigYAnY\"><i class=\"fas fa-suitcase\"></i> Healer's Tools</a> (5 gp)</div>"
        },
        "equippedBulk": {
            "value": ""
        },
        "items": {
            "8wmvd": {
                "id": "HamOU17sqb5ljiB5",
                "img": "systems/pf2e/icons/equipment/adventuring-gear/bandolier.jpg",
                "isContainer": true,
                "items": {},
                "name": "Bandolier",
                "pack": "pf2e.equipment-srd",
                "quantity": 1
            },
            "bs5r8": {
                "id": "4tIVTg9wj56RrveA",
                "img": "systems/pf2e/icons/equipment/armor/leather-armor.jpg",
                "isContainer": false,
                "items": {},
                "name": "Leather Armor",
                "pack": "pf2e.equipment-srd",
                "quantity": 1
            },
            "e7bt0": {
                "id": "B6B7tBWJSqOBz5zz",
                "img": "systems/pf2e/icons/equipment/treasure/currency/gold-pieces.jpg",
                "isContainer": false,
                "items": {},
                "name": "Gold Pieces",
                "pack": "pf2e.equipment-srd",
                "quantity": 11
            },
            "iktfr": {
                "id": "2req0jGaxz8hScdB",
                "img": "systems/pf2e/icons/equipment/adventuring-gear/adventurers-pack.jpg",
                "isContainer": true,
                "items": {},
                "name": "Adventurer's Pack",
                "pack": "pf2e.equipment-srd",
                "quantity": 1
            },
            "jrno4": {
                "id": "5Ew82vBF9YfaiY9f",
                "img": "systems/pf2e/icons/equipment/treasure/currency/silver-pieces.jpg",
                "isContainer": false,
                "items": {},
                "name": "Silver Pieces",
                "pack": "pf2e.equipment-srd",
                "quantity": 3
            },
            "ps8tg": {
                "id": "QbOlqr4lSkeOEfty",
                "img": "systems/pf2e/icons/equipment/adventuring-gear/holly-and-mistletoe.jpg",
                "isContainer": false,
                "items": {},
                "name": "Holly and Mistletoe",
                "pack": "pf2e.equipment-srd",
                "quantity": 1
            },
            "rrupu": {
                "id": "aXuJh4i8HqSu6NYV",
                "img": "systems/pf2e/icons/equipment/weapons/longspear.jpg",
                "isContainer": false,
                "items": {},
                "name": "Longspear",
                "pack": "pf2e.equipment-srd",
                "quantity": 1
            },
            "wlnkn": {
                "id": "JNt7GmLCCVz5BiEI",
                "img": "systems/pf2e/icons/equipment/weapons/javelin.jpg",
                "isContainer": false,
                "items": {},
                "name": "Javelin",
                "pack": "pf2e.equipment-srd",
                "quantity": 4
            }
        },
        "price": {
            "value": "3 gp, 7 sp"
        },
        "rarity": {
            "value": "common"
        },
        "source": {
            "value": ""
        },
        "traits": {
            "custom": "",
            "rarity": {
                "value": "common"
            },
            "value": [
                "druid"
            ]
        },
        "usage": {
            "value": "held-in-one-hand"
        },
        "weight": {
            "value": "-"
        }
    },
    "effects": [],
    "flags": {},
    "img": "systems/pf2e/icons/equipment/adventuring-gear/classkit-druid.jpg",
    "name": "Class Kit (Druid)",
    "permission": {
        "default": 0
    },
    "type": "kit"
}
