{
    "_id": "j0mlvJcuYGFuMG2S",
    "data": {
        "actionCategory": {
            "value": ""
        },
        "actionType": {
            "value": "reaction"
        },
        "actions": {
            "value": ""
        },
        "description": {
            "chat": "",
            "unidentified": "",
            "value": "<p><strong>Frequency</strong> once per day</p>\n<p><strong>Trigger</strong> You attempt a saving throw while adjacent to one or more allies, but you haven't rolled yet.</p>\n<hr>\n<p>In stressful circumstances, you find strength in your allies' example. Roll the save using an adjacent ally's modifier for that type of saving throw instead of your own.&nbsp;</p>"
        },
        "featType": {
            "value": "ancestry"
        },
        "level": {
            "value": "5"
        },
        "prerequisites": {
            "value": ""
        },
        "rarity": {
            "value": "common"
        },
        "source": {
            "value": ""
        },
        "traits": {
            "rarity": {
                "value": "common"
            },
            "value": [
                "fortune",
                "kobold"
            ]
        },
        "usage": {
            "value": ""
        }
    },
    "flags": {},
    "img": "systems/pf2e/icons/features/feats/feats.jpg",
    "name": "Ally's Shelter",
    "permission": {
        "default": 0
    },
    "type": "feat"
}
