{
    "_id": "it2i6OXfGIizokpg",
    "data": {
        "actionCategory": {
            "value": ""
        },
        "actionType": {
            "value": "passive"
        },
        "actions": {
            "value": ""
        },
        "description": {
            "chat": "",
            "unidentified": "",
            "value": "<p><strong>Prerequisites </strong>warden spells</p>\n<hr>\n<p>You are so connected with the animal world that you can grant yourself an animal's features and abilities. You gain the <a class=\"entity-link\" data-pack=\"pf2e.spells-srd\" data-id=\"vGEgI8e7AW6FQ3tP\" draggable=\"true\"><i class=\"fas fa-suitcase\"></i> Animal Feature</a> warden spell. Increase the number of Focus Points in your focus pool by 1.</p>"
        },
        "featType": {
            "value": "class"
        },
        "level": {
            "value": "4"
        },
        "prerequisites": {
            "value": "warden spells"
        },
        "rarity": {
            "value": "common"
        },
        "source": {
            "value": ""
        },
        "traits": {
            "rarity": {
                "value": "common"
            },
            "value": [
                "ranger"
            ]
        },
        "usage": {
            "value": ""
        }
    },
    "flags": {},
    "img": "systems/pf2e/icons/features/feats/feats.jpg",
    "name": "Animal Feature",
    "permission": {
        "default": 0
    },
    "type": "feat"
}
