{
    "_id": "dmXd68ilbuGR6eUP",
    "data": {
        "actionCategory": {
            "value": ""
        },
        "actionType": {
            "value": "passive"
        },
        "actions": {
            "value": ""
        },
        "description": {
            "chat": "",
            "unidentified": "",
            "value": "<p><strong>Prerequisites </strong><a class=\"entity-link\" data-pack=\"pf2e.feats-srd\" data-id=\"PRKe5rWYZMZgEpFU\" draggable=\"true\"><i class=\"fas fa-suitcase\"></i> Archaeologist Dedication</a></p>\n<p><strong>Frequency</strong> once per hour</p>\n<p><strong>Trigger</strong> You fail a check against a trap, such as a Thievery check to <a class=\"entity-link\" data-pack=\"pf2e.actionspf2e\" data-id=\"cYdz2grcOcRt4jk6\" draggable=\"true\"><i class=\"fas fa-suitcase\"></i> Disable</a> the trap or a Reflex save to avoid its effects.</p>\n<hr>\n<p>You are more than just skillful; your drive to find the secrets of the past manifests as a strange kind of luck. Reroll the failed check and use the new result.</p>"
        },
        "featType": {
            "value": "archetype"
        },
        "level": {
            "value": "8"
        },
        "prerequisites": {
            "value": "Archaeologist Dedication"
        },
        "rarity": {
            "value": "common"
        },
        "source": {
            "value": ""
        },
        "traits": {
            "rarity": {
                "value": "common"
            },
            "value": [
                "archetype",
                "fortune"
            ]
        },
        "usage": {
            "value": ""
        }
    },
    "flags": {},
    "img": "systems/pf2e/icons/features/feats/feats.jpg",
    "name": "Archaeologist's Luck",
    "permission": {
        "default": 0
    },
    "type": "feat"
}
