{
    "_id": "lB9MVGCJr7aJQuIH",
    "data": {
        "actionCategory": {
            "value": ""
        },
        "actionType": {
            "value": "passive"
        },
        "actions": {
            "value": ""
        },
        "description": {
            "chat": "",
            "unidentified": "",
            "value": "<p><strong>Prerequisites </strong>expert in Stealth</p>\n<hr>\n<p>You have learned techniques to adjust and modify your armor and movements to reduce the noise you make.</p>\n<p>When you wear non-noisy armor with which you are trained, your penalty to Stealth checks is reduced by 1 (to a minimum penalty of 0). If you're a master in Stealth, reduce the penalty by 2, and if you're legendary, reduce the penalty by 3.</p>\n<p>If your armor has the noisy trait, instead of reducing the penalty to Stealth checks, you ignore the effects of the noisy trait, enabling you to remove the penalty with a sufficient Strength score as normal.</p>"
        },
        "featType": {
            "value": "skill"
        },
        "level": {
            "value": "2"
        },
        "prerequisites": {
            "value": "expert in Stealth"
        },
        "rarity": {
            "value": "common"
        },
        "source": {
            "value": ""
        },
        "traits": {
            "rarity": {
                "value": "common"
            },
            "value": [
                "general",
                "skill"
            ]
        },
        "usage": {
            "value": ""
        }
    },
    "flags": {},
    "img": "systems/pf2e/icons/features/feats/feats.jpg",
    "name": "Armored Stealth",
    "permission": {
        "default": 0
    },
    "type": "feat"
}
