{
    "_id": "iBmqKjsq4iTtoqvl",
    "data": {
        "actionCategory": {
            "value": ""
        },
        "actionType": {
            "value": "passive"
        },
        "actions": {
            "value": ""
        },
        "description": {
            "chat": "",
            "unidentified": "",
            "value": "<p><strong>Prerequisites </strong>@Compendium[pf2e.feats-srd.is3Oz9wt11lNq62K]{Alchemical Crafting}; trained in Crafting, Deception, and Stealth</p>\n<hr>\n<p>You've trained to assassinate your foes, and you do so with tenacity and precision. You gain the @Compendium[pf2e.actionspf2e.orjJjLdm4XNAcFi8]{Mark for Death} activity.</p>\n<p><strong>Special</strong> You can't select another dedication feat until you've gained two other feats from the assassin archetype.</p>"
        },
        "featType": {
            "value": "archetype"
        },
        "level": {
            "value": "2"
        },
        "prerequisites": {
            "value": "Alchemical Crafting; trained in Crafting, Deception, and Stealth"
        },
        "rarity": {
            "value": "common"
        },
        "source": {
            "value": ""
        },
        "traits": {
            "rarity": {
                "value": "common"
            },
            "value": [
                "archetype",
                "dedication"
            ]
        },
        "usage": {
            "value": ""
        }
    },
    "flags": {},
    "img": "systems/pf2e/icons/features/feats/feats.jpg",
    "name": "Assassin Dedication",
    "permission": {
        "default": 0
    },
    "type": "feat"
}
