{
    "_id": "rCnaBbk0M1gBVHjG",
    "data": {
        "actionCategory": {
            "value": ""
        },
        "actionType": {
            "label": "Action Type",
            "type": "String",
            "value": "passive"
        },
        "actions": {
            "label": "Number of Actions",
            "type": "String",
            "value": ""
        },
        "description": {
            "chat": "",
            "label": "Description",
            "type": "String",
            "unidentified": "",
            "value": "<p><strong>Prerequisites</strong> Knockback</p>\n<hr>\n<p>Your attacks are so powerful, they can flatten your opponents. When you use Knockback, you can attempt an Athletics check against your target's Fortitude DC.</p>\n<p><strong>Critical Success</strong> You gain the critical success effect of a Shove, then the critical success effect of a Trip against the target.</p>\n<p><strong>Success</strong> You gain the success effect of a Shove, then the success effect of a Trip against the target.</p>\n<p><strong>Failure</strong> You gain the normal effect of Knockback.</p>"
        },
        "featType": {
            "label": "Feat Type",
            "type": "String",
            "value": "class"
        },
        "level": {
            "label": "Feat Level",
            "type": "String",
            "value": "1"
        },
        "prerequisites": {
            "label": "Prerequisites",
            "type": "String",
            "value": "Knockback"
        },
        "rarity": {
            "value": "common"
        },
        "source": {
            "label": "Source",
            "type": "String",
            "value": ""
        },
        "traits": {
            "custom": "",
            "label": "Traits",
            "rarity": {
                "value": "common"
            },
            "type": "String",
            "value": [
                "barbarian",
                "concentrate",
                "rage"
            ]
        },
        "usage": {
            "value": "held-in-one-hand"
        }
    },
    "flags": {},
    "img": "systems/pf2e/icons/features/feats/feats.jpg",
    "name": "Awesome Blow",
    "permission": {
        "default": 0
    },
    "type": "feat"
}
