{
    "_id": "dwL0Y0P2x4pn2cft",
    "data": {
        "actionCategory": {
            "value": ""
        },
        "actionType": {
            "value": "passive"
        },
        "actions": {
            "value": ""
        },
        "description": {
            "chat": "",
            "unidentified": "",
            "value": "<div><strong>Archetype</strong> @Compendium[pf2e.archetypes.gw4J1pXYED71TPWx]{Bellflower Tiller}</div>\n<div><strong>Prerequisites</strong> Charisma 14, expert in Stealth and Survival, member of the Bellflower Network</div>\n<hr>\n<p>You dedicate yourself to freeing slaves and escorting them to freedom. You gain a +5-foot status bonus to your Speed. Choose up to six other people to be your “crop.” Members of your crop can use your Speed for overland travel if it's higher than their own. Members more than 60 feet from you lose all benefits (from this or other Bellflower tiller feats) of being part of your crop, but they regain those benefits immediately when they return. You can add or remove someone from your crop by spending 10 minutes in conversation with them.</p>\n<p><strong>Special</strong> You cannot select another dedication feat until you have gained two other feats from the Bellflower tiller archetype.</p>"
        },
        "featType": {
            "value": "archetype"
        },
        "level": {
            "value": "6"
        },
        "prerequisites": {
            "value": "Charisma 14, expert in Stealth and Survival, member of the Bellflower Network"
        },
        "rarity": {
            "value": "common"
        },
        "source": {
            "value": ""
        },
        "traits": {
            "custom": "",
            "rarity": {
                "value": "uncommon"
            },
            "value": [
                "archetype",
                "dedication"
            ]
        },
        "usage": {
            "value": "held-in-one-hand"
        }
    },
    "flags": {},
    "img": "systems/pf2e/icons/features/feats/feats.jpg",
    "name": "Bellflower Dedication",
    "permission": {
        "default": 0
    },
    "type": "feat"
}
