{
    "_id": "V3nNlrdU2OxYJAjx",
    "data": {
        "actionCategory": {
            "value": ""
        },
        "actionType": {
            "value": "action"
        },
        "actions": {
            "value": "1"
        },
        "description": {
            "chat": "",
            "unidentified": "",
            "value": "<p><strong>Prerequisites</strong> @Compendium[pf2e.feats-srd.eBdajOzs8kiJDic2]{Blessed One Dedication}, ability to cast spells from spell slots, @Compendium[pf2e.feats-srd.zilwynzk8lIujgZo]{Mercy}</p>\n<p><strong>Frequency</strong> once per 10 minutes</p>\n<hr>\n<p>When you focus your magic on an ally, you can remove harmful conditions.</p>\n<p>If your next action is to @Compendium[pf2e.actionspf2e.aBQ8ajvEBByv45yz]{Cast a Spell} from a spell slot, and that spell targets only a single ally, you can also attempt to remove a harmful condition from that ally. The condition must be one that could be removed by your Mercy feat, including those granted by later feats such as @Compendium[pf2e.feats-srd.kZdcoaTD849QalR9]{Greater Mercy}.</p>\n<p>Attempt a counteract check based on the spell's DC and level. This effect is in addition to the normal effects of your spell.</p>"
        },
        "featType": {
            "value": "archetype"
        },
        "level": {
            "value": "8"
        },
        "prerequisites": {
            "value": "Blessed One Dedication, ability to cast spells from spell slots, Mercy"
        },
        "rarity": {
            "value": "common"
        },
        "source": {
            "value": ""
        },
        "traits": {
            "rarity": {
                "value": "common"
            },
            "value": [
                "archetype",
                "concentrate",
                "metamagic"
            ]
        },
        "usage": {
            "value": ""
        }
    },
    "flags": {},
    "img": "systems/pf2e/icons/features/feats/feats.jpg",
    "name": "Blessed Spell",
    "permission": {
        "default": 0
    },
    "type": "feat"
}
