{
    "_id": "VAbfepohLNtubfi3",
    "data": {
        "actionCategory": {
            "value": ""
        },
        "actionType": {
            "label": "Action Type",
            "type": "String",
            "value": "passive"
        },
        "actions": {
            "label": "Number of Actions",
            "type": "String",
            "value": ""
        },
        "description": {
            "chat": "",
            "label": "Description",
            "type": "String",
            "unidentified": "",
            "value": "<p><strong>Prerequisites</strong> tenets of good</p>\n<hr>\n<p>You take on a celestial countenance, appearing like a type of celestial who serves your deity; for example, as an angel, you would gain a halo and feathery wings. You gain a fly Speed equal to your Speed. You gain darkvision if you don't already have it, and you gain the celestial trait and the trait appropriate to the type of servitor you've become (archon, angel, or azata, for example).</p>"
        },
        "featType": {
            "label": "Feat Type",
            "type": "String",
            "value": "class"
        },
        "level": {
            "label": "Feat Level",
            "type": "String",
            "value": "18"
        },
        "prerequisites": {
            "label": "Prerequisites",
            "type": "String",
            "value": "tenets of good"
        },
        "rarity": {
            "value": "common"
        },
        "source": {
            "label": "Source",
            "type": "String",
            "value": ""
        },
        "traits": {
            "custom": "",
            "label": "Traits",
            "rarity": {
                "value": "common"
            },
            "type": "String",
            "value": [
                "champion"
            ]
        },
        "usage": {
            "value": "held-in-one-hand"
        }
    },
    "flags": {},
    "img": "systems/pf2e/icons/features/feats/feats.jpg",
    "name": "Celestial Form",
    "permission": {
        "default": 0
    },
    "type": "feat"
}
