{
    "_id": "swsMURQBMXZpjWl8",
    "data": {
        "actionCategory": {
            "value": ""
        },
        "actionType": {
            "value": "passive"
        },
        "actions": {
            "value": ""
        },
        "description": {
            "chat": "",
            "unidentified": "",
            "value": "<p><span id=\"ctl00_MainContent_DetailedOutput\">Whether you are climbing a ship's rigging, a jungle tree, or a clock tower, you have an uncanny knack for finding footholds and handholds where larger creatures can't. You gain a climb Speed of 10 feet. You can take the Legendary Climber feat even if you don't have the @Compendium[pf2e.feats-srd.P04Hw8E6WAWARKHP]{Quick Climb} feat, provided you meet its other prerequisites.</span></p>"
        },
        "featType": {
            "value": "ancestry"
        },
        "level": {
            "value": "9"
        },
        "prerequisites": {
            "value": ""
        },
        "rarity": {
            "value": "common"
        },
        "source": {
            "value": ""
        },
        "traits": {
            "custom": "",
            "rarity": {
                "value": "common"
            },
            "value": [
                "halfling"
            ]
        },
        "usage": {
            "value": "held-in-one-hand"
        }
    },
    "flags": {},
    "img": "systems/pf2e/icons/features/feats/feats.jpg",
    "name": "Cunning Climber",
    "permission": {
        "default": 0
    },
    "type": "feat"
}
