{
    "_id": "sflJhnFzYfqZ2tDy",
    "data": {
        "actionCategory": {
            "value": ""
        },
        "actionType": {
            "value": "reaction"
        },
        "actions": {
            "value": ""
        },
        "description": {
            "chat": "",
            "unidentified": "",
            "value": "<p><strong>Prerequisites </strong><a class=\"entity-link\" data-pack=\"pf2e.feats-srd\" data-id=\"5Q69PI8jdQVkb1ZT\" draggable=\"true\"><i class=\"fas fa-suitcase\"></i> Cavalier Dedication</a></p>\n<p><strong>Trigger</strong> An enemy makes an attack roll against your mount while you're riding it.</p>\n<hr>\n<p>You interpose yourself between an attacker and your mount, defending your mount from harm.</p>\n<p>Use your own AC against the triggering attack instead your mount's AC. If the triggering attack hits, you take the effects of the attack instead of your mount.</p>"
        },
        "featType": {
            "value": "archetype"
        },
        "level": {
            "value": "6"
        },
        "prerequisites": {
            "value": "Cavalier Dedication"
        },
        "rarity": {
            "value": "common"
        },
        "source": {
            "value": ""
        },
        "traits": {
            "rarity": {
                "value": "common"
            },
            "value": [
                "archetype"
            ]
        },
        "usage": {
            "value": ""
        }
    },
    "flags": {},
    "img": "systems/pf2e/icons/features/feats/feats.jpg",
    "name": "Defend Mount",
    "permission": {
        "default": 0
    },
    "type": "feat"
}
