{
    "_id": "5AnJTAZnuWrkL8fa",
    "data": {
        "actionCategory": {
            "value": ""
        },
        "actionType": {
            "value": "passive"
        },
        "actions": {
            "value": ""
        },
        "description": {
            "chat": "",
            "unidentified": "",
            "value": "<p><span id=\"ctl00_MainContent_DetailedOutput\"><strong>Access</strong> Spiresworn elf<br></span></p>\n<hr>\n<p>You loathe the alghollthus and their mind magic, and you've been trained to be willing to die rather than give into mental manipulation. If you would start your turn <a class=\"entity-link\" data-pack=\"pf2e.conditionspf2e\" data-id=\"yblD8fOR1J8rDwEQ\" draggable=\"true\"><i class=\"fas fa-book-open\"></i> Confused</a>, <a class=\"entity-link\" data-pack=\"pf2e.conditionspf2e\" data-id=\"9qGBRpbX9NEwtAAr\" draggable=\"true\"><i class=\"fas fa-book-open\"></i> Controlled</a>, or <a class=\"entity-link\" data-pack=\"pf2e.conditionspf2e\" data-id=\"sDPxOjQ9kx2RZE8D\" draggable=\"true\"><i class=\"fas fa-book-open\"></i> Fleeing</a> due to a failed Will save, you can attempt a Will save against the same DC; on a success, you become <a class=\"entity-link\" data-pack=\"pf2e.conditionspf2e\" data-id=\"6uEgoh53GbXuHpTF\" draggable=\"true\"><i class=\"fas fa-book-open\"></i> Paralyzed</a> until your next turn, rather than act against your will.</p>"
        },
        "featType": {
            "value": "ancestry"
        },
        "level": {
            "value": "5"
        },
        "prerequisites": {
            "value": ""
        },
        "rarity": {
            "value": "common"
        },
        "source": {
            "value": ""
        },
        "traits": {
            "custom": "",
            "rarity": {
                "value": "common"
            },
            "value": [
                "uncommon",
                "elf"
            ]
        },
        "usage": {
            "value": "held-in-one-hand"
        }
    },
    "flags": {},
    "img": "systems/pf2e/icons/features/feats/feats.jpg",
    "name": "Defiance Unto Death",
    "permission": {
        "default": 0
    },
    "type": "feat"
}
