{
    "_id": "6fojN9yBJByTZ1Q9",
    "data": {
        "actionCategory": {
            "value": ""
        },
        "actionType": {
            "value": "passive"
        },
        "actions": {
            "value": ""
        },
        "description": {
            "chat": "",
            "unidentified": "",
            "value": "<p><strong>Prerequisites</strong> @Compendium[pf2e.feats-srd.N4wCUZH2KG6FoGqh]{Shared Stratagem}</p>\n<hr>\n<p>When you find a glaring weakness, you can set your allies up to annihilate your foe.</p>\n<p>When you use Shared Stratagem, you can designate up to 10 allies instead of just one. The foe is <a class=\"entity-link\" draggable=\"true\" data-pack=\"pf2e.conditionspf2e\" data-id=\"AJh5ex99aV6VTggg\"> Flat-Footed</a> against the first attack from each designated ally before your next turn, and each ally's first attack deals an extra 2d6 precision damage to the target if it hits.</p>"
        },
        "featType": {
            "value": "class"
        },
        "level": {
            "value": "16"
        },
        "prerequisites": {
            "value": "Shared Stratagem"
        },
        "rarity": {
            "value": "common"
        },
        "source": {
            "value": ""
        },
        "traits": {
            "rarity": {
                "value": "common"
            },
            "value": [
                "investigator"
            ]
        },
        "usage": {
            "value": ""
        }
    },
    "flags": {},
    "img": "systems/pf2e/icons/features/feats/feats.jpg",
    "name": "Didactic Strike",
    "permission": {
        "default": 0
    },
    "type": "feat"
}
