{
    "_id": "xoIxiRtBVHV27Rvd",
    "data": {
        "actionCategory": {
            "value": ""
        },
        "actionType": {
            "value": "reaction"
        },
        "actions": {
            "value": ""
        },
        "description": {
            "chat": "",
            "unidentified": "",
            "value": "<p><strong>Trigger</strong> You attempt a saving throw against a magical effect, but you haven't rolled yet.</p>\n<hr>\n<p>You summon divine energy to shield yourself, offering protection against other traditions but leaving you exposed to other divine effects.</p>\n<p>Until the beginning of your next turn, you gain a +1 circumstance bonus to saving throws against non-divine magical effects, but you also take a –1 circumstance penalty to saves against divine effects.</p>"
        },
        "featType": {
            "value": "class"
        },
        "level": {
            "value": "2"
        },
        "prerequisites": {
            "value": ""
        },
        "rarity": {
            "value": "common"
        },
        "source": {
            "value": ""
        },
        "traits": {
            "rarity": {
                "value": "common"
            },
            "value": [
                "abjuration",
                "divine",
                "oracle"
            ]
        },
        "usage": {
            "value": ""
        }
    },
    "flags": {},
    "img": "systems/pf2e/icons/features/feats/feats.jpg",
    "name": "Divine Aegis",
    "permission": {
        "default": 0
    },
    "type": "feat"
}
