{
    "_id": "0ihK3qYItmi8eVZs",
    "data": {
        "actionCategory": {
            "value": ""
        },
        "actionType": {
            "value": "passive"
        },
        "actions": {
            "value": ""
        },
        "description": {
            "chat": "",
            "unidentified": "",
            "value": "<p><span id=\"ctl00_MainContent_DetailedOutput\"><strong>Frequency</strong> once per day<br><strong>Prerequisites</strong> Gnome Obsession<br></span></p>\n<hr>\n<p>Your desire for stimulation has led you from one pursuit to another and granted you a smattering of expertise with myriad crafts and professions. You reflect on snippets you've learned to temporarily become trained in one Lore skill of your choice. This proficiency lasts for 10 minutes or until you critically fail a check with that skill. Since this training is temporary, you can't use it as a prerequisite for a permanent character option like a feat or a skill increase.&nbsp;</p>"
        },
        "featType": {
            "value": "ancestry"
        },
        "level": {
            "value": "5"
        },
        "prerequisites": {
            "value": "Gnome Obsession"
        },
        "rarity": {
            "value": "common"
        },
        "source": {
            "value": ""
        },
        "traits": {
            "custom": "",
            "rarity": {
                "value": "common"
            },
            "value": [
                "gnome"
            ]
        },
        "usage": {
            "value": "held-in-one-hand"
        }
    },
    "flags": {},
    "img": "systems/pf2e/icons/features/feats/feats.jpg",
    "name": "Eclectic Obsession",
    "permission": {
        "default": 0
    },
    "type": "feat"
}
