{
    "_id": "8d3QxoKmqSkB9Mcj",
    "data": {
        "actionCategory": {
            "value": ""
        },
        "actionType": {
            "value": "passive"
        },
        "actions": {
            "value": ""
        },
        "description": {
            "chat": "",
            "unidentified": "",
            "value": "<p><span id=\"ctl00_MainContent_DetailedOutput\"><strong>Prerequisites</strong> Knight Vigilant, expert in medium or heavy armor<br><strong>Requirements</strong> You are wearing medium or heavy armor in which you have expert proficiency.<br><strong>Trigger</strong> An undead hits you with an unarmed attack.<br></span></p>\n<hr>\n<p>Your conviction redirects the undead's attack through your armor and then harmlessly away. You gain resistance 5 to physical damage and resistance 10 to negative damage against the triggering attack. You gain a +2 circumstance bonus on any saving throws against effects from the undead's natural attack; if you succeed at the saving throw, you get a critical success instead.&nbsp;</p>"
        },
        "featType": {
            "value": "archetype"
        },
        "level": {
            "value": "10"
        },
        "prerequisites": {
            "value": "Knight Vigilant, expert in medium or heavy armor"
        },
        "rarity": {
            "value": "common"
        },
        "source": {
            "value": ""
        },
        "traits": {
            "custom": "",
            "rarity": {
                "value": "common"
            },
            "value": [
                "archetype"
            ]
        },
        "usage": {
            "value": "held-in-one-hand"
        }
    },
    "flags": {},
    "img": "systems/pf2e/icons/features/feats/feats.jpg",
    "name": "Endure Death's Touch",
    "permission": {
        "default": 0
    },
    "type": "feat"
}
