{
    "_id": "u3qBWp8ecalSwEk4",
    "data": {
        "actionCategory": {
            "value": ""
        },
        "actionType": {
            "value": "passive"
        },
        "actions": {
            "value": ""
        },
        "description": {
            "chat": "",
            "unidentified": "",
            "value": "<p><strong>Prerequisites </strong>tenets of good</p>\n<hr>\n<p>You've sworn an oath to slay the alien abominations that lurk in the remote corners of Golarion. Add the following tenet to your champion's code, after the other tenets. “You must slay evil aberrations you encounter as long as you have a reasonable chance of success.”</p>\n<p>Your @Compendium[pf2e.actionspf2e.EAP98XaChJEbgKcK]{Retributive Strike} gains a +4 circumstance bonus to damage against an evil aberration, or +6 if you have master proficiency with the weapon you used. The resistance you gain from Glimpse of Redemption against damage from an evil aberration is 7 + your level. If you use @Compendium[pf2e.actionspf2e.IX1VlVCL5sFTptEE]{Liberating Step} triggered by an evil aberration, your ally gains a +4 circumstance bonus to checks granted by your Liberating Step, and the ally can @Compendium[pf2e.actionspf2e.UHpkTuCtyaPqiCAB]{Step} twice afterward.</p>\n<p>You don't consider evil aberrations to be legitimate authorities, even in nations they rule.</p>"
        },
        "featType": {
            "value": "class"
        },
        "level": {
            "value": "2"
        },
        "prerequisites": {
            "value": "tenets of good"
        },
        "rarity": {
            "value": "common"
        },
        "source": {
            "value": ""
        },
        "traits": {
            "rarity": {
                "value": "common"
            },
            "value": [
                "champion",
                "oath"
            ]
        },
        "usage": {
            "value": ""
        }
    },
    "flags": {},
    "img": "systems/pf2e/icons/features/feats/feats.jpg",
    "name": "Esoteric Oath",
    "permission": {
        "default": 0
    },
    "type": "feat"
}
