{
    "_id": "x7vMKBSrxXmfs5C2",
    "data": {
        "actionCategory": {
            "value": ""
        },
        "actionType": {
            "value": "passive"
        },
        "actions": {
            "value": ""
        },
        "description": {
            "chat": "",
            "unidentified": "",
            "value": "<p><strong>Prerequisites </strong>@Compendium[pf2e.feats-srd.nU5Pow4HMzoDHa8Z]{Basic Witch Spellcasting}, master in the skill associated with your patron's tradition</p>\n<hr>\n<p>You gain the expert spellcasting benefits (page 150).</p>"
        },
        "featType": {
            "value": "archetype"
        },
        "level": {
            "value": "12"
        },
        "prerequisites": {
            "value": "Basic Witch Spellcasting, master in the skill associated with your patron's tradition"
        },
        "rarity": {
            "value": "common"
        },
        "source": {
            "value": ""
        },
        "traits": {
            "rarity": {
                "value": "common"
            },
            "value": [
                "archetype"
            ]
        },
        "usage": {
            "value": ""
        }
    },
    "flags": {},
    "img": "systems/pf2e/icons/features/feats/feats.jpg",
    "name": "Expert Witch Spellcasting",
    "permission": {
        "default": 0
    },
    "type": "feat"
}
