{
    "_id": "OtV7esAwza1U6Kwr",
    "data": {
        "actionCategory": {
            "value": ""
        },
        "actionType": {
            "value": "action"
        },
        "actions": {
            "value": "1"
        },
        "description": {
            "chat": "",
            "unidentified": "",
            "value": "<p><span id=\"ctl00_MainContent_DetailedOutput\"><strong>Frequency</strong> once per day;<br><strong>Prerequisites</strong> expert in Arcana, Arcane Sense;<br><strong>Access</strong> You are a member of the Arclords of Nex.<br></span></p>\n<hr>\n<p>You open an incandescent third eye upon your forehead. The eye can remain open for 1 minute, and you can close it before then with a single action with the concentrate trait. It can remain open for 2 minutes if you're a master in Arcana, or 5 minutes if you're legendary. While the eye is open, you gain the following benefits: you gain the effects of the detect magic arcane innate spell from your Arcane Sense at the start of each of your turns without needing to cast the spell; you gain darkvision; you gain a +2 status bonus to Perception checks to Seek undetected and hidden creatures and to your Perception DC against Hide and Sneak. After your third eye closes, you are dazzled for an amount of time equal to how long you had it open.</p>"
        },
        "featType": {
            "value": "skill"
        },
        "level": {
            "value": "2"
        },
        "prerequisites": {
            "value": "expert in Arcana, Arcane Sense"
        },
        "rarity": {
            "value": "common"
        },
        "source": {
            "value": ""
        },
        "traits": {
            "custom": "",
            "rarity": {
                "value": "common"
            },
            "value": [
                "uncommon",
                "general",
                "skill"
            ]
        },
        "usage": {
            "value": "held-in-one-hand"
        }
    },
    "flags": {},
    "img": "systems/pf2e/icons/features/feats/feats.jpg",
    "name": "Eye of the Arclords",
    "permission": {
        "default": 0
    },
    "type": "feat"
}
