{
    "_id": "jNemcS5GqH8mnjV6",
    "data": {
        "actionCategory": {
            "value": ""
        },
        "actionType": {
            "value": "action"
        },
        "actions": {
            "value": "2"
        },
        "description": {
            "chat": "",
            "unidentified": "",
            "value": "<p><strong>Frequency</strong> once per day</p>\n<hr>\n<p>You can strain to call forth bat-like or otherwise fiendish wings from your back, similar in appearance to those of your fiendish ancestors.</p>\n<p>Once manifested, these wings remain for 10 minutes. You gain a fly Speed equal to your land Speed while you've manifested your wings.</p>"
        },
        "featType": {
            "value": "ancestry"
        },
        "level": {
            "value": "9"
        },
        "prerequisites": {
            "value": ""
        },
        "rarity": {
            "value": "common"
        },
        "source": {
            "value": ""
        },
        "traits": {
            "rarity": {
                "value": "common"
            },
            "value": [
                "divine",
                "morph",
                "tiefling",
                "transmutation"
            ]
        },
        "usage": {
            "value": ""
        }
    },
    "flags": {},
    "img": "systems/pf2e/icons/features/feats/feats.jpg",
    "name": "Fiendish Wings",
    "permission": {
        "default": 0
    },
    "type": "feat"
}
