{
    "_id": "LUXBuTAuK1glHOkJ",
    "data": {
        "actionCategory": {
            "value": ""
        },
        "actionType": {
            "value": "passive"
        },
        "actions": {
            "value": ""
        },
        "description": {
            "chat": "",
            "unidentified": "",
            "value": "<p><strong>Prerequisites </strong><a class=\"entity-link\" data-pack=\"pf2e.ancestryfeatures\" data-lookup=\"DRtaqOHXTRtGRIUT\" draggable=\"true\"><i class=\"fas fa-suitcase\"></i> Low-Light Vision</a></p>\n<hr>\n<p>You can see in the darkness as easily as a fiend. You gain <a class=\"entity-link\" data-pack=\"pf2e.ancestryfeatures\" data-lookup=\"HHVQDp61ehcpdiU8\" draggable=\"true\"><i class=\"fas fa-suitcase\"></i> Darkvision</a>.</p>\n<p><strong>Special</strong> You can select this feat only at 1st level, and you can't retrain into or out of this feat.</p>"
        },
        "featType": {
            "value": "ancestry"
        },
        "level": {
            "value": "1"
        },
        "prerequisites": {
            "value": "low-light vision"
        },
        "rarity": {
            "value": "common"
        },
        "source": {
            "value": ""
        },
        "traits": {
            "rarity": {
                "value": "common"
            },
            "value": [
                "tiefling"
            ]
        },
        "usage": {
            "value": ""
        }
    },
    "flags": {},
    "img": "systems/pf2e/icons/features/feats/feats.jpg",
    "name": "Fiendish Eyes",
    "permission": {
        "default": 0
    },
    "type": "feat"
}
