{
    "_id": "tmGsnUkPv8SIhBgn",
    "data": {
        "actionCategory": {
            "value": ""
        },
        "actionType": {
            "value": "action"
        },
        "actions": {
            "value": "2"
        },
        "description": {
            "chat": "",
            "unidentified": "",
            "value": "<p><strong>Prerequisites </strong>expert in Athletics</p>\n<hr>\n<p>Your <a class=\"entity-link\" data-pack=\"pf2e.classfeatures\" data-id=\"LzYi0OuOoypNb6jd\" draggable=\"true\"><i class=\"fas fa-suitcase\"></i> Panache</a> allows you to perform incredible feats: <a class=\"entity-link\" data-pack=\"pf2e.actionspf2e\" data-id=\"pprgrYQ1QnIDGZiy\" draggable=\"true\"><i class=\"fas fa-suitcase\"></i> Climbing</a>, <a class=\"entity-link\" data-pack=\"pf2e.actionspf2e\" data-id=\"c8TGiZ48ygoSPofx\" draggable=\"true\"><i class=\"fas fa-suitcase\"></i> Swimming</a>, and <a class=\"entity-link\" data-pack=\"pf2e.actionspf2e\" data-id=\"d5I6018Mci2SWokk\" draggable=\"true\"><i class=\"fas fa-suitcase\"></i> Leaping</a> far beyond your normal capacity. While you have panache, you gain the following benefits.</p>\n<ul>\n<li>You gain climb and swim Speeds equal to half your land Speed.</li>\n<li>The DCs of your <a class=\"entity-link\" data-pack=\"pf2e.actionspf2e\" data-id=\"2HJ4yuEFY1Cast4h\" draggable=\"true\"><i class=\"fas fa-suitcase\"></i> High Jumps</a> and <a class=\"entity-link\" data-pack=\"pf2e.actionspf2e\" data-id=\"JUvAvruz7yRQXfz2\" draggable=\"true\"><i class=\"fas fa-suitcase\"></i> Long Jumps</a> decrease by 10. This doesn't combine with other abilities that reduce those DCs.</li>\n<li>The distance you can move with a vertical <a class=\"entity-link\" data-pack=\"pf2e.actionspf2e\" data-id=\"d5I6018Mci2SWokk\" draggable=\"true\"><i class=\"fas fa-suitcase\"></i> Leap</a>increases to 5 feet. Your distance for a horizontal Leap increases to 15 feet if your Speed is at least 15 feet, or to 20 feet if your Speed is at least 30 feet.</li>\n</ul>"
        },
        "featType": {
            "value": "class"
        },
        "level": {
            "value": "4"
        },
        "prerequisites": {
            "value": "master in Athletics, Flamboyant Athlete"
        },
        "rarity": {
            "value": "common"
        },
        "source": {
            "value": ""
        },
        "traits": {
            "rarity": {
                "value": "common"
            },
            "value": [
                "swashbuckler"
            ]
        },
        "usage": {
            "value": ""
        }
    },
    "flags": {},
    "img": "systems/pf2e/icons/features/feats/feats.jpg",
    "name": "Flamboyant Athlete",
    "permission": {
        "default": 0
    },
    "type": "feat"
}
