{
    "_id": "0qL4a3CarG1e0pfB",
    "data": {
        "actionCategory": {
            "value": ""
        },
        "actionType": {
            "value": "action"
        },
        "actions": {
            "value": "1"
        },
        "description": {
            "chat": "",
            "unidentified": "",
            "value": "<p><strong>Prerequisites </strong>Swordmaster Dedication</p>\n<hr>\n<p>Your ranged attacks push your foes away from your allies. Make a ranged Strike, adding the following effects in addition to the normal effects of the Strike.</p>\n<hr>\n<p><strong>Critical Success</strong> The target is pushed 10 feet away from you.</p>\n<p><strong>Success </strong>The target is pushed 5 feet away from you.</p>\n<p><strong>Failure </strong>The target is <a class=\"entity-link\" draggable=\"true\" data-pack=\"pf2e.conditionitems\" data-id=\"AJh5ex99aV6VTggg\"><i class=\"fas fa-suitcase\"></i> Flat-Footed</a> for 1 round.</p>"
        },
        "featType": {
            "value": "archetype"
        },
        "level": {
            "value": "14"
        },
        "prerequisites": {
            "value": "Swordmaster Dedication"
        },
        "rarity": {
            "value": "common"
        },
        "rules": [],
        "source": {
            "value": ""
        },
        "traits": {
            "custom": "",
            "rarity": {
                "value": "common"
            },
            "value": [
                "archetype",
                "attack",
                "press"
            ]
        },
        "usage": {
            "value": "held-in-one-hand"
        }
    },
    "effects": [],
    "flags": {
        "core": {
            "sourceId": "Item.PpYvq6a5THTe3o1v"
        }
    },
    "img": "systems/pf2e/icons/features/feats/feats.jpg",
    "name": "Forceful Shot",
    "permission": {
        "default": 0
    },
    "type": "feat"
}
