{
    "_id": "PEszRpnrcB7VPS9G",
    "data": {
        "actionCategory": {
            "value": ""
        },
        "actionType": {
            "value": "action"
        },
        "actions": {
            "value": "1"
        },
        "description": {
            "chat": "",
            "unidentified": "",
            "value": "<p><strong>Prerequisites</strong> tenets of evil, champion's reaction that grants extra damage with your @Compendium[pf2e.actionspf2e.VjxZFuUXrCU94MWR]{Strikes}</p>\n<p><strong>Requirements</strong> Your Strikes currently deal extra damage from <br>your champion's reaction.</p>\n<hr>\n<p>Make a Strike against the creature that triggered your champion's reaction. If you hit, the target takes double the extra damage from your reaction and must succeed at a Fortitude save against your class DC or be @Compendium[pf2e.conditionspf2e.4D2KBtexWXa6oUMR]{Drained} 1.</p>\n<p>Regardless of the result, the creature is temporarily immune to your Gruesome Strike for 24 hours.</p>"
        },
        "featType": {
            "value": "class"
        },
        "level": {
            "value": "12"
        },
        "prerequisites": {
            "value": "tenets of evil, champion's reaction that grants extra damage with your Strikes"
        },
        "rarity": {
            "value": "common"
        },
        "source": {
            "value": ""
        },
        "traits": {
            "rarity": {
                "value": "common"
            },
            "value": [
                "uncommon",
                "champion"
            ]
        },
        "usage": {
            "value": ""
        }
    },
    "flags": {},
    "img": "systems/pf2e/icons/features/feats/feats.jpg",
    "name": "Gruesome Strike",
    "permission": {
        "default": 0
    },
    "type": "feat"
}
