{
    "_id": "5CRt5Dy9eLv5LpRF",
    "data": {
        "actionCategory": {
            "value": ""
        },
        "actionType": {
            "value": "passive"
        },
        "actions": {
            "value": ""
        },
        "description": {
            "chat": "",
            "unidentified": "",
            "value": "<p><strong>Prerequisites</strong> trained in Nature, <a class=\"entity-link\" data-pack=\"pf2e.feats-srd\" data-id=\"WC4xLBGmBsdOdHWu\" draggable=\"true\"><i class=\"fas fa-suitcase\"></i> Natural Medicine</a></p>\n<hr>\n<p>You can create remedies and other herbal products. You gain the basic alchemy benefits (page 150), though they apply only for herbal items: alchemical items with the healing trait, plus <a class=\"entity-link\" data-pack=\"pf2e.equipment-srd\" data-id=\"ktjFOp3U0wQD9t0Z\" draggable=\"true\"><i class=\"fas fa-suitcase\"></i> Antidote</a> and <a class=\"entity-link\" data-pack=\"pf2e.equipment-srd\" data-id=\"UqinuuCWePTYGhVO\" draggable=\"true\"><i class=\"fas fa-suitcase\"></i> Antiplague</a>.</p>\n<p>You gain batches of infused reagents per day equal to your level or half your level if you didn't make your daily preparations in the wilderness. Your <a class=\"entity-link\" data-pack=\"pf2e.classfeatures\" data-id=\"Pe0zmIqyTBc2Td0I\" draggable=\"true\"><i class=\"fas fa-suitcase\"></i> Advanced Alchemy</a> level for creating these is 1 and doesn't increase on its own.</p>\n<p>You become an expert in Nature and can use Nature instead of Crafting to <a class=\"entity-link\" data-pack=\"pf2e.actionspf2e\" data-id=\"rmwa3OyhTZ2i2AHl\" draggable=\"true\"><i class=\"fas fa-suitcase\"></i> Craft</a> herbal items. You don't need to be trained in Crafting or have the <a class=\"entity-link\" data-pack=\"pf2e.feats-srd\" data-id=\"is3Oz9wt11lNq62K\" draggable=\"true\"><i class=\"fas fa-suitcase\"></i> Alchemical Crafting</a> feat to do so, and you can use <a class=\"entity-link\" data-pack=\"pf2e.equipment-srd\" data-id=\"s1vB3HdXjMigYAnY\" draggable=\"true\"><i class=\"fas fa-suitcase\"></i> Healer's Tools</a> instead of <a class=\"entity-link\" data-pack=\"pf2e.equipment-srd\" data-id=\"4ftXXUCBHcf4b0MH\" draggable=\"true\"><i class=\"fas fa-suitcase\"></i> Alchemist's Tools</a>.</p>\n<p><strong>Special</strong> You can't select another dedication feat until you have gained two other feats from the herbalist archetype.</p>"
        },
        "featType": {
            "value": "archetype"
        },
        "level": {
            "value": "2"
        },
        "prerequisites": {
            "value": "trained in Nature, Natural Medicine"
        },
        "rarity": {
            "value": "common"
        },
        "source": {
            "value": ""
        },
        "traits": {
            "rarity": {
                "value": "common"
            },
            "value": [
                "archetype",
                "dedication"
            ]
        },
        "usage": {
            "value": ""
        }
    },
    "flags": {},
    "img": "systems/pf2e/icons/features/feats/feats.jpg",
    "name": "Herbalist Dedication",
    "permission": {
        "default": 0
    },
    "type": "feat"
}
