{
    "_id": "K3Au5071pfvNwGob",
    "data": {
        "actionCategory": {
            "value": ""
        },
        "actionType": {
            "value": "passive"
        },
        "actions": {
            "value": ""
        },
        "description": {
            "chat": "",
            "unidentified": "",
            "value": "<p><strong>Prerequisites </strong>expert in Arcana, Nature, Occultism, or Religion; <a class=\"entity-link\" data-pack=\"pf2e.feats-srd\" data-id=\"uqIiSDbv80TbRwTQ\" draggable=\"true\"><i class=\"fas fa-suitcase\"></i> Vigilante Dedication</a></p>\n<hr>\n<p>You've learned to hide the magical auras of your gear. During your daily preparations, you carefully tweak any or all of your magic items to appear non-magical. Objects adjusted in this way remain so until your next preparations.</p>\n<p>A spellcaster using <a class=\"entity-link\" data-pack=\"pf2e.spells-srd\" data-id=\"gpzpAAAJ1Lza2JVl\" draggable=\"true\"><i class=\"fas fa-suitcase\"></i> Detect Magic</a> or <a class=\"entity-link\" data-pack=\"pf2e.spells-srd\" data-id=\"OhD2Z6rIGGD5ocZA\" draggable=\"true\"><i class=\"fas fa-suitcase\"></i> Read Aura</a>&nbsp;must succeed at a Perception check against your Deception DC to see through your obfuscations.</p>"
        },
        "featType": {
            "value": "archetype"
        },
        "level": {
            "value": "4"
        },
        "prerequisites": {
            "value": "expert in Arcana, Nature, Occultism, or Religion; Vigilante Dedication"
        },
        "rarity": {
            "value": "common"
        },
        "source": {
            "value": ""
        },
        "traits": {
            "rarity": {
                "value": "common"
            },
            "value": [
                "archetype",
                "skill"
            ]
        },
        "usage": {
            "value": ""
        }
    },
    "flags": {},
    "img": "systems/pf2e/icons/features/feats/feats.jpg",
    "name": "Hidden Magic",
    "permission": {
        "default": 0
    },
    "type": "feat"
}
