{
    "_id": "RqccUKf8DCPnsYXJ",
    "data": {
        "actionCategory": {
            "value": ""
        },
        "actionType": {
            "value": "passive"
        },
        "actions": {
            "value": ""
        },
        "description": {
            "chat": "",
            "unidentified": "",
            "value": "<p><strong>Prerequisites</strong> <a class=\"entity-link\" data-pack=\"pf2e.feats-srd\" data-id=\"QSuwyX84U26OLzZI\" draggable=\"true\"><i class=\"fas fa-suitcase\"></i> Predictive Purchase (Investigator)</a></p>\n<hr>\n<p>It seems impossible, but you've analyzed every angle and are able to just keep pulling out exactly the item you need, even in far-flung locations.</p>\n<p>You can use <a class=\"entity-link\" data-pack=\"pf2e.feats-srd\" data-id=\"bh2jHyyYrkLMsIdX\" draggable=\"true\"><i class=\"fas fa-suitcase\"></i> Prescient Planner</a> even if you have already used it after purchasing goods, and you can use it as a single action instead of a 2-action activity, during which you <a class=\"entity-link\" data-pack=\"pf2e.actionspf2e\" data-id=\"pvQ5rY2zrtPI614F\" draggable=\"true\"><i class=\"fas fa-suitcase\"></i> Interact</a> to draw the item.</p>\n<p>In addition, five times per day, you can use Prescient Planner to pull out a common consumable item up to 6 levels lower than your level.</p>"
        },
        "featType": {
            "value": "class"
        },
        "level": {
            "value": "16"
        },
        "prerequisites": {
            "value": "Predictive Purchase"
        },
        "rarity": {
            "value": "common"
        },
        "source": {
            "value": ""
        },
        "traits": {
            "rarity": {
                "value": "common"
            },
            "value": [
                "investigator"
            ]
        },
        "usage": {
            "value": ""
        }
    },
    "flags": {},
    "img": "systems/pf2e/icons/features/feats/feats.jpg",
    "name": "Implausible Purchase (Investigator)",
    "permission": {
        "default": 0
    },
    "type": "feat"
}
