{
    "_id": "Nxke8WzifQafSa4I",
    "data": {
        "actionCategory": {
            "value": ""
        },
        "actionType": {
            "value": "passive"
        },
        "actions": {
            "value": ""
        },
        "description": {
            "chat": "",
            "unidentified": "",
            "value": "<p><strong>Prerequisites </strong><a class=\"entity-link\" data-pack=\"pf2e.feats-srd\" data-id=\"5Q69PI8jdQVkb1ZT\" draggable=\"true\"><i class=\"fas fa-suitcase\"></i> Cavalier Dedication</a></p>\n<hr>\n<p>You've trained your mount to become a powerful force on the battlefield. The mount you gained through the Cavalier Dedication feat becomes a mature animal companion, granting it additional capabilities. During an encounter, even if you don't use the Command an Animal action, your animal companion can still use 1 action on your turn to <a class=\"entity-link\" data-pack=\"pf2e.actionspf2e\" data-id=\"Bcxarzksqt9ezrs6\" draggable=\"true\"><i class=\"fas fa-suitcase\"></i> Stride</a> or <a class=\"entity-link\" data-pack=\"pf2e.actionspf2e\" data-id=\"VjxZFuUXrCU94MWR\" draggable=\"true\"><i class=\"fas fa-suitcase\"></i> Strike</a>.</p>"
        },
        "featType": {
            "value": "archetype"
        },
        "level": {
            "value": "4"
        },
        "prerequisites": {
            "value": "Cavalier Dedication"
        },
        "rarity": {
            "value": "common"
        },
        "source": {
            "value": ""
        },
        "traits": {
            "rarity": {
                "value": "common"
            },
            "value": [
                "archetype"
            ]
        },
        "usage": {
            "value": ""
        }
    },
    "flags": {},
    "img": "systems/pf2e/icons/features/feats/feats.jpg",
    "name": "Impressive Mount",
    "permission": {
        "default": 0
    },
    "type": "feat"
}
