{
    "_id": "H86VNC6cNWhBI8Ed",
    "data": {
        "actionCategory": {
            "value": ""
        },
        "actionType": {
            "value": "passive"
        },
        "actions": {
            "value": ""
        },
        "description": {
            "chat": "",
            "unidentified": "",
            "value": "<div><span id=\"ctl00_MainContent_DetailedOutput\"><strong>Archetype</strong> <a class=\"entity-link\" data-pack=\"pf2e.archetypes\" data-id=\"WrQ2Qpv958C6cfD0\" draggable=\"true\"><i class=\"fas fa-book-open\"></i> Knight Reclaimant</a></span></div>\n<div><span id=\"ctl00_MainContent_DetailedOutput\"><strong>Prerequisites</strong> trained in Survival and Stealth, any non-evil alignment, member of the Knights of Lastwall of knight rank<br></span></div>\n<hr>\n<p>You have sworn the Crimson Oath and become a full member of the Crimson Reclaimers. You gain expert proficiency in Stealth and Survival. Whenever you roll a success on a saving throw against an undead's special ability, you get a critical success instead. This applies to any abilities that come from being undead, including an undead's innate spells (but not its prepared or spontaneous spells).</p>\n<p><strong>Special</strong> You cannot select another dedication feat until you have gained two other feats from the Knight Reclaimant archetype.&nbsp;</p>"
        },
        "featType": {
            "value": "archetype"
        },
        "level": {
            "value": "6"
        },
        "prerequisites": {
            "value": "trained in Survival and Stealth, any non-evil alignment, member of the Knights of Lastwall of knight rank"
        },
        "rarity": {
            "value": "common"
        },
        "source": {
            "value": ""
        },
        "traits": {
            "custom": "",
            "rarity": {
                "value": "uncommon"
            },
            "value": [
                "uncommon",
                "archetype",
                "dedication"
            ]
        },
        "usage": {
            "value": "held-in-one-hand"
        }
    },
    "flags": {},
    "img": "systems/pf2e/icons/features/feats/feats.jpg",
    "name": "Knight Reclaimant Dedication",
    "permission": {
        "default": 0
    },
    "type": "feat"
}
