{
    "_id": "IdKfWg48qMieuzl7",
    "data": {
        "actionCategory": {
            "value": ""
        },
        "actionType": {
            "value": "action"
        },
        "actions": {
            "value": "1"
        },
        "description": {
            "chat": "",
            "unidentified": "",
            "value": "<p><span id=\"ctl00_MainContent_DetailedOutput\"><strong>Prerequisites</strong> <a class=\"entity-link\" draggable=\"true\" data-pack=\"pf2e.feats-srd\" data-id=\"VJ3wIsfmabK02SNg\"><i class=\"fas fa-suitcase\"></i> Provocator Dedication</a><br></span></p>\n<hr>\n<p>You Strike a target within reach and then Step to any other open space adjacent to that target. Your target is then <a class=\"entity-link\" draggable=\"true\" data-pack=\"pf2e.conditionitems\" data-id=\"AJh5ex99aV6VTggg\"><i class=\"fas fa-suitcase\"></i> Flat-Footed</a>&nbsp;against your next Strike this turn.</p>"
        },
        "featType": {
            "value": "archetype"
        },
        "level": {
            "value": "14"
        },
        "prerequisites": {
            "value": "Provocator Dedication"
        },
        "rarity": {
            "value": "common"
        },
        "rules": [],
        "source": {
            "value": ""
        },
        "traits": {
            "custom": "",
            "rarity": {
                "value": "common"
            },
            "value": [
                "archetype"
            ]
        },
        "usage": {
            "value": "held-in-one-hand"
        }
    },
    "effects": [],
    "flags": {
        "core": {
            "sourceId": "Item.dLIt1RRYMSXZT3lD"
        }
    },
    "img": "systems/pf2e/icons/features/feats/feats.jpg",
    "name": "Murderer's Circle",
    "permission": {
        "default": 0
    },
    "type": "feat"
}
