{
    "_id": "k0NNa5Ko4XhDdBYB",
    "data": {
        "actionCategory": {
            "value": ""
        },
        "actionType": {
            "value": "passive"
        },
        "actions": {
            "value": ""
        },
        "description": {
            "chat": "",
            "unidentified": "",
            "value": "<p><strong>Prerequisites </strong>@Compendium[pf2e.feats-srd.dgmjiToPHC3Yf5I3]{Acute Scent}, or precise or imprecise scent and@Compendium[pf2e.ancestryfeatures.DRtaqOHXTRtGRIUT]{Low-Light Vision}.</p>\n<hr>\n<p>Your senses gain even greater clarity. While raging, you gain @Compendium[pf2e.ancestryfeatures.HHVQDp61ehcpdiU8]{Darkvision} if you don't already have it, and the range of your imprecise scent increases to 60 feet.</p>"
        },
        "featType": {
            "value": "class"
        },
        "level": {
            "value": "6"
        },
        "prerequisites": {
            "value": "Acute Scent, or precise or imprecise scent and low-light vision"
        },
        "rarity": {
            "value": "common"
        },
        "source": {
            "value": ""
        },
        "traits": {
            "rarity": {
                "value": "common"
            },
            "value": [
                "barbarian",
                "rage"
            ]
        },
        "usage": {
            "value": ""
        }
    },
    "flags": {},
    "img": "systems/pf2e/icons/features/feats/feats.jpg",
    "name": "Nocturnal Sense",
    "permission": {
        "default": 0
    },
    "type": "feat"
}
