{
    "_id": "6QOcQ8ooP1vjQACX",
    "data": {
        "actionCategory": {
            "value": ""
        },
        "actionType": {
            "value": "action"
        },
        "actions": {
            "value": "1"
        },
        "description": {
            "chat": "",
            "unidentified": "",
            "value": "<p>You can alter offensive spells to be less deadly. If your next action is to @Compendium[pf2e.actionspf2e.aBQ8ajvEBByv45yz]{Cast a Spell} that deals damage and doesn't have the death or negative trait, that spell gains the nonlethal trait.&nbsp;</p>"
        },
        "featType": {
            "value": "class"
        },
        "level": {
            "value": "2"
        },
        "prerequisites": {
            "value": ""
        },
        "rarity": {
            "value": "common"
        },
        "source": {
            "value": ""
        },
        "traits": {
            "rarity": {
                "value": "common"
            },
            "value": [
                "manipulate",
                "metamagic",
                "wizard"
            ]
        },
        "usage": {
            "value": ""
        }
    },
    "flags": {},
    "img": "systems/pf2e/icons/features/feats/feats.jpg",
    "name": "Nonlethal Spell",
    "permission": {
        "default": 0
    },
    "type": "feat"
}
