{
    "_id": "TaoV7ArAuZjxpeQB",
    "data": {
        "actionCategory": {
            "value": ""
        },
        "actionType": {
            "label": "Action Type",
            "type": "String",
            "value": "passive"
        },
        "actions": {
            "label": "Number of Actions",
            "type": "String",
            "value": ""
        },
        "description": {
            "chat": "",
            "label": "Description",
            "type": "String",
            "unidentified": "",
            "value": "<p><strong>Prerequisites</strong> Druid Dedication</p>\n<hr>\n<p>You gain the initial order spell from your order. If you don't already have one, you gain a focus pool of 1 Focus Point, which you can Refocus by being one with nature. (For more on order spells, see page 131.).</p>"
        },
        "featType": {
            "label": "Feat Type",
            "type": "String",
            "value": "archetype"
        },
        "level": {
            "label": "Feat Level",
            "type": "String",
            "value": "4"
        },
        "prerequisites": {
            "label": "Prerequisites",
            "type": "String",
            "value": "Druid Dedication"
        },
        "rarity": {
            "value": "common"
        },
        "source": {
            "label": "Source",
            "type": "String",
            "value": ""
        },
        "traits": {
            "custom": "",
            "label": "Traits",
            "rarity": {
                "value": "common"
            },
            "type": "String",
            "value": [
                "archetype"
            ]
        },
        "usage": {
            "value": "held-in-one-hand"
        }
    },
    "flags": {},
    "img": "systems/pf2e/icons/features/feats/feats.jpg",
    "name": "Order Spell",
    "permission": {
        "default": 0
    },
    "type": "feat"
}
