{
    "_id": "C0ozuEhrKh9A1wMO",
    "data": {
        "actionCategory": {
            "value": ""
        },
        "actionType": {
            "value": "passive"
        },
        "actions": {
            "value": ""
        },
        "description": {
            "chat": "",
            "unidentified": "",
            "value": "<p><strong>Prerequisites </strong>@Compendium[pf2e.feats-srd.to6s7QanfhHukW5r]{Barreling Charge}</p>\n<hr>\n<p>You trample your foes as you charge past them. When you use Barreling Charge and successfully move through a creature's space, that creature takes bludgeoning damage equal to your Strength modifier. If you critically succeed, the creature takes twice this amount of damage and becomes @Compendium[pf2e.conditionspf2e.AJh5ex99aV6VTggg]{Flat-Footed} until the end of your next turn.</p>"
        },
        "featType": {
            "value": "class"
        },
        "level": {
            "value": "10"
        },
        "prerequisites": {
            "value": "Barreling Charge"
        },
        "rarity": {
            "value": "common"
        },
        "source": {
            "value": ""
        },
        "traits": {
            "custom": "",
            "rarity": {
                "value": "common"
            },
            "value": [
                "barbarian",
                "fighter"
            ]
        },
        "usage": {
            "value": ""
        }
    },
    "flags": {},
    "img": "systems/pf2e/icons/features/feats/feats.jpg",
    "name": "Overpowering Charge",
    "permission": {
        "default": 0
    },
    "type": "feat"
}
