{
    "_id": "LLrGafdJij7qiWZi",
    "data": {
        "actionCategory": {
            "value": ""
        },
        "actionType": {
            "value": "passive"
        },
        "actions": {
            "value": ""
        },
        "description": {
            "chat": "",
            "unidentified": "",
            "value": "<section class=\"details\">\n<p><strong>Prerequisites</strong> @Compendium[pf2e.feats-srd.a1TSGGsA6b5gjP3H]{Reprepare Spell}</p>\n<hr></section>\n<section class=\"content\">\n<p>You have learned to manipulate reflections of magic, similar to the resonant reflections. You reclaim the magic of an ongoing spell, using it reprepare a spell with a duration. You Dismiss a Spell of 4th level or lower that you cast today from a spell slot with at least half its duration remaining, even if that spell can't normally be Dismissed. You can then spend 10 minutes to reprepare the spell in that spell slot, as Reprepare Spell.</p>\n</section>"
        },
        "featType": {
            "value": "class"
        },
        "level": {
            "value": "20"
        },
        "prerequisites": {
            "value": "Reprepare Spell"
        },
        "rarity": {
            "value": "common"
        },
        "rules": [],
        "source": {
            "value": ""
        },
        "traits": {
            "custom": "",
            "rarity": {
                "value": "uncommon"
            },
            "selected": {
                "wizard": "Wizard"
            },
            "value": [
                "wizard"
            ]
        },
        "usage": {
            "value": "held-in-one-hand"
        }
    },
    "flags": {},
    "img": "systems/pf2e/icons/features/feats/feats.jpg",
    "name": "Reclaim Spell",
    "permission": {
        "default": 0
    },
    "type": "feat"
}
