{
    "_id": "iRztLGEK5OfjZTPg",
    "data": {
        "actionCategory": {
            "value": ""
        },
        "actionType": {
            "value": "passive"
        },
        "actions": {
            "value": ""
        },
        "description": {
            "chat": "",
            "unidentified": "",
            "value": "<p><span id=\"ctl00_MainContent_DetailedOutput\">You're skilled at beating a foe when their morale is already breaking. When you succeed at a melee weapon Strike against a @Compendium[pf2e.conditionspf2e.TBSHQspnbcqxsmjL]{Frightened} foe, that foe can't reduce their frightened condition below 1 until the beginning of your next turn.</span></p>"
        },
        "featType": {
            "value": "ancestry"
        },
        "level": {
            "value": "1"
        },
        "prerequisites": {
            "value": ""
        },
        "rarity": {
            "value": "common"
        },
        "rules": [],
        "source": {
            "value": ""
        },
        "traits": {
            "custom": "",
            "rarity": {
                "value": "common"
            },
            "value": [
                "hobgoblin"
            ]
        },
        "usage": {
            "value": "held-in-one-hand"
        }
    },
    "flags": {},
    "img": "systems/pf2e/icons/features/feats/feats.jpg",
    "name": "Remorseless Lash",
    "permission": {
        "default": 0
    },
    "type": "feat"
}
