{
    "_id": "RsNvCSrCN7czHC0G",
    "data": {
        "actionCategory": {
            "value": ""
        },
        "actionType": {
            "value": "action"
        },
        "actions": {
            "value": "1"
        },
        "description": {
            "chat": "",
            "unidentified": "",
            "value": "<p>You adopt a stance (page 150) to rebound your thrown weapons toward you. While you are in this stance, any thrown weapons you use as part of a ranged @Compendium[pf2e.actionspf2e.VjxZFuUXrCU94MWR]{Strike} to deal bludgeoning or slashing damage immediately return to your hand, enabling you to use them for additional Strikes.</p>\n<p>You must be within the weapon's listed range increment and have a hand free to catch the weapon. If you make a ranged Strike with a thrown weapon outside of its listed range increment, it instead flies back toward you a number of feet equal to its listed range increment and then falls to the ground.</p>"
        },
        "featType": {
            "value": "class"
        },
        "level": {
            "value": "8"
        },
        "prerequisites": {
            "value": ""
        },
        "rarity": {
            "value": "common"
        },
        "rules": [],
        "source": {
            "value": ""
        },
        "traits": {
            "rarity": {
                "value": "common"
            },
            "value": [
                "rogue",
                "stance"
            ]
        },
        "usage": {
            "value": ""
        }
    },
    "flags": {},
    "img": "systems/pf2e/icons/features/feats/feats.jpg",
    "name": "Ricochet Stance (Rogue)",
    "permission": {
        "default": 0
    },
    "type": "feat"
}
