{
    "_id": "hYu6XxARNJYdf8Qe",
    "data": {
        "actionCategory": {
            "value": ""
        },
        "actionType": {
            "value": "passive"
        },
        "actions": {
            "value": ""
        },
        "description": {
            "chat": "",
            "unidentified": "",
            "value": "<p><strong>Prerequisites </strong><a class=\"entity-link\" data-pack=\"pf2e.classfeatures\" data-id=\"O3IX7rTxXWWvDVM3\" draggable=\"true\"><i class=\"fas fa-suitcase\"></i> Forensic Medicine Methodology</a></p>\n<hr>\n<p>Your stratagems benefit from your precise knowledge of anatomy. When you critically hit with an attack on which you substituted your attack roll due to <a class=\"entity-link\" data-pack=\"pf2e.actionspf2e\" data-id=\"m0f2B7G9eaaTmhFL\" draggable=\"true\"><i class=\"fas fa-suitcase\"></i> Devising a Strategem</a>, if your attack dealt piercing or slashing damage, you also deal <a class=\"inline-roll roll\" data-mode=\"roll\" data-flavor=\"persistent bleed\" data-formula=\"1d6\" title=\"persistent bleed\"><i class=\"fas fa-dice-d20\"></i> 1d6</a> persistent bleed damage to your target.</p>"
        },
        "featType": {
            "value": "class"
        },
        "level": {
            "value": "4"
        },
        "prerequisites": {
            "value": "forensic medicine methodology"
        },
        "rarity": {
            "value": "common"
        },
        "rules": [],
        "source": {
            "value": ""
        },
        "traits": {
            "rarity": {
                "value": "common"
            },
            "value": [
                "investigator"
            ]
        },
        "usage": {
            "value": ""
        }
    },
    "flags": {},
    "img": "systems/pf2e/icons/features/feats/feats.jpg",
    "name": "Scalpel's Point",
    "permission": {
        "default": 0
    },
    "type": "feat"
}
