{
    "_id": "jvQoupE76OeUpjZp",
    "data": {
        "actionCategory": {
            "value": ""
        },
        "actionType": {
            "value": "action"
        },
        "actions": {
            "value": "2"
        },
        "description": {
            "chat": "",
            "unidentified": "",
            "value": "<p><strong>Prerequisites</strong> @Compendium[pf2e.feats-srd.qMa2fIP2nqrFzHrq]{Scout Dedication}</p>\n<p><strong>Requirements</strong> You are @Compendium[pf2e.conditionspf2e.iU0fEDdBp3rXpTMC]{Hidden} from or @Compendium[pf2e.conditionspf2e.VRSef5y1LmL2Hkjf]{Undetected} by all <br>of your opponents, and you aren't within 10 feet of any <br>enemy.</p>\n<hr>\n<p>You leap from the shadows to strike your foes. @Compendium[pf2e.actionspf2e.Bcxarzksqt9ezrs6]{Stride} up to your Speed, then @Compendium[pf2e.actionspf2e.VjxZFuUXrCU94MWR]{Strike} twice. If you were hidden or unnoticed by the target of these Strikes, your foe is @Compendium[pf2e.conditionspf2e.AJh5ex99aV6VTggg]{Flat-Footed} against both attacks.</p>\n<p>Your multiple attack penalty applies normally for both attacks.</p>"
        },
        "featType": {
            "value": "archetype"
        },
        "level": {
            "value": "10"
        },
        "prerequisites": {
            "value": "Scout Dedication"
        },
        "rarity": {
            "value": "common"
        },
        "rules": [],
        "source": {
            "value": ""
        },
        "traits": {
            "rarity": {
                "value": "common"
            },
            "value": [
                "archetype",
                "flourish"
            ]
        },
        "usage": {
            "value": ""
        }
    },
    "flags": {},
    "img": "systems/pf2e/icons/features/feats/feats.jpg",
    "name": "Scout's Pounce",
    "permission": {
        "default": 0
    },
    "type": "feat"
}
