{
    "_id": "zytTsipimVTmPc5U",
    "data": {
        "actionCategory": {
            "value": ""
        },
        "actionType": {
            "value": "passive"
        },
        "actions": {
            "value": ""
        },
        "description": {
            "chat": "",
            "unidentified": "",
            "value": "<p><strong>Prerequisites </strong>@Compendium[pf2e.feats-srd.7sso1g3AAejpZ8ar]{Dueling Parry}, @Compendium[pf2e.feats-srd.r72qcTupGzyRDiGe]{Duelist Dedication}</p>\n<hr>\n<p>You protect those near you with a flash of steel. When you're benefiting from Dueling Parry, allies adjacent to you gain a +1 circumstance bonus to AC.&nbsp;</p>\n<p>If you have @Compendium[pf2e.feats-srd.mf2cdCRV8uowOMOm]{Dueling Riposte}, you can use it when an enemy within your reach critically fails a @Compendium[pf2e.actionspf2e.VjxZFuUXrCU94MWR]{Strike} against an ally adjacent to you, not just against yourself.</p>"
        },
        "featType": {
            "value": "archetype"
        },
        "level": {
            "value": "8"
        },
        "prerequisites": {
            "value": "Dueling Parry, Duelist Dedication"
        },
        "rarity": {
            "value": "common"
        },
        "rules": [],
        "source": {
            "value": ""
        },
        "traits": {
            "rarity": {
                "value": "common"
            },
            "value": [
                "archetype"
            ]
        },
        "usage": {
            "value": ""
        }
    },
    "flags": {},
    "img": "systems/pf2e/icons/features/feats/feats.jpg",
    "name": "Selfless Parry",
    "permission": {
        "default": 0
    },
    "type": "feat"
}
