{
    "_id": "DM9rjXZrmx2MFX7k",
    "data": {
        "actionCategory": {
            "value": ""
        },
        "actionType": {
            "value": "reaction"
        },
        "actions": {
            "value": ""
        },
        "description": {
            "chat": "",
            "unidentified": "",
            "value": "<p><strong>Trigger</strong> You fail a check to @Compendium[pf2e.actionspf2e.BlAOM2X92SI6HMtJ]{Seek}</p>\n<hr>\n<p>When you look for foes, you notice the slightest of cues. Even though you failed at the triggering check, you automatically sense any @Compendium[pf2e.conditionspf2e.VRSef5y1LmL2Hkjf]{Undetected} creatures in the area where you're Seeking, making them merely @Compendium[pf2e.conditionspf2e.iU0fEDdBp3rXpTMC]{Hidden} to you.</p>"
        },
        "featType": {
            "value": "class"
        },
        "level": {
            "value": "14"
        },
        "prerequisites": {
            "value": ""
        },
        "rarity": {
            "value": "common"
        },
        "source": {
            "value": ""
        },
        "traits": {
            "rarity": {
                "value": "common"
            },
            "value": [
                "investigator"
            ]
        },
        "usage": {
            "value": ""
        }
    },
    "flags": {},
    "img": "systems/pf2e/icons/features/feats/feats.jpg",
    "name": "Sense The Unseen",
    "permission": {
        "default": 0
    },
    "type": "feat"
}
