{
    "_id": "bCAvo59b5RyW12iI",
    "data": {
        "actionCategory": {
            "value": ""
        },
        "actionType": {
            "label": "Action Type",
            "type": "String",
            "value": "passive"
        },
        "actions": {
            "label": "Number of Actions",
            "type": "String",
            "value": ""
        },
        "description": {
            "chat": "",
            "label": "Description",
            "type": "String",
            "unidentified": "",
            "value": "<p><strong>Prerequisites</strong> Rogue Dedication</p>\n<hr>\n<p>You gain the sneak attack class feature (page 181), except it deals 1d4 damage, increasing to 1d6 at 6th level. You don't increase the number of dice as you gain levels.</p>"
        },
        "featType": {
            "label": "Feat Type",
            "type": "String",
            "value": "archetype"
        },
        "level": {
            "label": "Feat Level",
            "type": "String",
            "value": "4"
        },
        "prerequisites": {
            "label": "Prerequisites",
            "type": "String",
            "value": "Rogue Dedication"
        },
        "rarity": {
            "value": "common"
        },
        "rules": [],
        "source": {
            "label": "Source",
            "type": "String",
            "value": ""
        },
        "traits": {
            "custom": "",
            "label": "Traits",
            "rarity": {
                "value": "common"
            },
            "type": "String",
            "value": [
                "archetype"
            ]
        },
        "usage": {
            "value": "held-in-one-hand"
        }
    },
    "flags": {},
    "img": "systems/pf2e/icons/features/feats/feats.jpg",
    "name": "Sneak Attacker",
    "permission": {
        "default": 0
    },
    "type": "feat"
}
