{
    "_id": "ehvHedIwPcxq9cRt",
    "data": {
        "actionCategory": {
            "value": ""
        },
        "actionType": {
            "label": "Action Type",
            "type": "String",
            "value": "passive"
        },
        "actions": {
            "label": "Number of Actions",
            "type": "String",
            "value": ""
        },
        "description": {
            "chat": "",
            "label": "Description",
            "type": "String",
            "unidentified": "",
            "value": "<p>Whether keeping your balance or scrambling up a tricky climb, your hairy, calloused feet easily find purchase. If you roll a success on an Acrobatics check to Balance or an Athletics check to Climb, you get a critical success instead. You're not flat-footed when you attempt to Balance or Climb.</p>"
        },
        "featType": {
            "label": "Feat Type",
            "type": "String",
            "value": "ancestry"
        },
        "level": {
            "label": "Feat Level",
            "type": "String",
            "value": "1"
        },
        "prerequisites": {
            "label": "Prerequisites",
            "type": "String",
            "value": ""
        },
        "rarity": {
            "value": "common"
        },
        "rules": [],
        "source": {
            "label": "Source",
            "type": "String",
            "value": ""
        },
        "traits": {
            "custom": "",
            "label": "Traits",
            "rarity": {
                "value": "common"
            },
            "type": "String",
            "value": [
                "halfling"
            ]
        },
        "usage": {
            "value": "held-in-one-hand"
        }
    },
    "flags": {},
    "img": "systems/pf2e/icons/features/feats/feats.jpg",
    "name": "Sure Feet",
    "permission": {
        "default": 0
    },
    "type": "feat"
}
