{
    "_id": "uPikeCzrTrgzEJT8",
    "data": {
        "actionCategory": {
            "value": ""
        },
        "actionType": {
            "value": "passive"
        },
        "actions": {
            "value": ""
        },
        "description": {
            "chat": "",
            "unidentified": "",
            "value": "<p><strong>Prerequisites </strong>@Compendium[pf2e.feats-srd.1t5479E6bdvFs4E7]{Talisman Dabbler Dedication}</p>\n<hr>\n<p>You have forgotten more about talismans than lesser warriors have ever known. Normally, affixing more than one talisman to an item causes the talismans to be suppressed, but when you @Compendium[pf2e.actionspf2e.UAaQk93a30nx0nYY]{Affix a Talisman}, you can specially treat one item you're working on, allowing it to have two active talismans at once.</p>\n<p>This special treatment ends if you use Affix a Talisman to treat a new item for this ability.</p>"
        },
        "featType": {
            "value": "archetype"
        },
        "level": {
            "value": "14"
        },
        "prerequisites": {
            "value": "Talisman Dabbler Dedication"
        },
        "rarity": {
            "value": "common"
        },
        "rules": [],
        "source": {
            "value": ""
        },
        "traits": {
            "rarity": {
                "value": "common"
            },
            "value": [
                "archetype"
            ]
        },
        "usage": {
            "value": ""
        }
    },
    "flags": {},
    "img": "systems/pf2e/icons/features/feats/feats.jpg",
    "name": "Talismanic Sage",
    "permission": {
        "default": 0
    },
    "type": "feat"
}
