{
    "_id": "UlCbjWWVEmfvaf5a",
    "data": {
        "actionCategory": {
            "value": ""
        },
        "actionType": {
            "value": "passive"
        },
        "actions": {
            "value": ""
        },
        "description": {
            "chat": "",
            "unidentified": "",
            "value": "<section class=\"details\">\n<p><strong>Frequency</strong> once per minute</p>\n<p><strong>Trigger</strong> You apply an effect from your blood magic that lasts for 1 round.</p>\n<hr></section>\n<section class=\"content\">\n<p>You have learned how to invest magic more deeply by witnessing Aroden's works. The triggering blood magic effect lasts for 1 minute instead of 1 round.</p>\n</section>"
        },
        "featType": {
            "value": "class"
        },
        "level": {
            "value": "20"
        },
        "prerequisites": {
            "value": ""
        },
        "rarity": {
            "value": "common"
        },
        "rules": [],
        "source": {
            "value": ""
        },
        "traits": {
            "custom": "",
            "rarity": {
                "value": "uncommon"
            },
            "selected": {
                "sorcerer": "Sorcerer"
            },
            "value": [
                "sorcerer"
            ]
        },
        "usage": {
            "value": "held-in-one-hand"
        }
    },
    "flags": {},
    "img": "systems/pf2e/icons/features/feats/feats.jpg",
    "name": "Tenacious Blood Magic",
    "permission": {
        "default": 0
    },
    "type": "feat"
}
