{
    "_id": "FrzskqwNWexKY5BA",
    "data": {
        "actionCategory": {
            "value": ""
        },
        "actionType": {
            "value": "passive"
        },
        "actions": {
            "value": ""
        },
        "description": {
            "chat": "",
            "unidentified": "",
            "value": "<p><span id=\"ctl00_MainContent_DetailedOutput\">You can take advantage of the terrain to bypass foes' defenses. Non-lizardfolk creatures in difficult terrain are <a class=\"entity-link\" data-pack=\"pf2e.conditionspf2e\" data-id=\"AJh5ex99aV6VTggg\" draggable=\"true\"><i class=\"fas fa-book-open\"></i> Flat-Footed</a> to you. If you have a swim Speed, non-lizardfolk creatures that are in water and lack a swim Speed are also flat-footed to you.</span></p>"
        },
        "featType": {
            "value": "ancestry"
        },
        "level": {
            "value": "9"
        },
        "prerequisites": {
            "value": ""
        },
        "rarity": {
            "value": "common"
        },
        "rules": [],
        "source": {
            "value": ""
        },
        "traits": {
            "custom": "",
            "rarity": {
                "value": "common"
            },
            "value": [
                "lizardfolk"
            ]
        },
        "usage": {
            "value": "held-in-one-hand"
        }
    },
    "flags": {},
    "img": "systems/pf2e/icons/features/feats/feats.jpg",
    "name": "Terrain Advantage",
    "permission": {
        "default": 0
    },
    "type": "feat"
}
