{
    "_id": "oL6f86dy4yyx5N54",
    "data": {
        "actionCategory": {
            "value": ""
        },
        "actionType": {
            "value": "passive"
        },
        "actions": {
            "value": ""
        },
        "description": {
            "chat": "",
            "unidentified": "",
            "value": "<p><span id=\"ctl00_MainContent_DetailedOutput\"><strong>Prerequisites</strong> death warden dwarf heritage<br></span></p>\n<hr>\n<p>When you critically hit an undead creature, or an undead creature critically fails a saving throw against one of your abilities, you drive your divine wrath home in your enemy's heart. The undead is <a class=\"entity-link\" data-pack=\"pf2e.conditionspf2e\" data-id=\"MIRkyAjyBeXivMa7\" draggable=\"true\"><i class=\"fas fa-book-open\"></i> Enfeebled</a> 1 for 1 round.</p>"
        },
        "featType": {
            "value": "ancestry"
        },
        "level": {
            "value": "5"
        },
        "prerequisites": {
            "value": "death warden dwarf heritage"
        },
        "rarity": {
            "value": "common"
        },
        "rules": [],
        "source": {
            "value": ""
        },
        "traits": {
            "custom": "",
            "rarity": {
                "value": "common"
            },
            "value": [
                "dwarf",
                "divine"
            ]
        },
        "usage": {
            "value": "held-in-one-hand"
        }
    },
    "flags": {},
    "img": "systems/pf2e/icons/features/feats/feats.jpg",
    "name": "Tomb-Watcher's Glare",
    "permission": {
        "default": 0
    },
    "type": "feat"
}
