{
    "_id": "l78KwojlT0AWvS4l",
    "data": {
        "actionCategory": {
            "value": ""
        },
        "actionType": {
            "value": "passive"
        },
        "actions": {
            "value": ""
        },
        "description": {
            "chat": "",
            "unidentified": "",
            "value": "<p><strong>Prerequisites </strong><a class=\"entity-link\" data-pack=\"pf2e.feats-srd\" data-id=\"O9z1MJpEaf6Y1Acd\" draggable=\"true\"><i class=\"fas fa-suitcase\"></i> Dance Underfoot</a></p>\n<hr>\n<p>While sharing a creature's space using Dance Underfoot, your weapons and unarmed attacks gain the trip trait, but only against the creature whose space you share. You can be in the same space as a Large or larger prone creature, even if it's not your ally.</p>"
        },
        "featType": {
            "value": "ancestry"
        },
        "level": {
            "value": "13"
        },
        "prerequisites": {
            "value": "Dance Underfoot"
        },
        "rarity": {
            "value": "common"
        },
        "rules": [],
        "source": {
            "value": ""
        },
        "traits": {
            "rarity": {
                "value": "common"
            },
            "value": [
                "halfling"
            ]
        },
        "usage": {
            "value": ""
        }
    },
    "flags": {},
    "img": "systems/pf2e/icons/features/feats/feats.jpg",
    "name": "Toppling Dance",
    "permission": {
        "default": 0
    },
    "type": "feat"
}
