{
    "_id": "tY3Zg0l14CdoKPpt",
    "data": {
        "actionCategory": {
            "value": ""
        },
        "actionType": {
            "value": "passive"
        },
        "actions": {
            "value": ""
        },
        "description": {
            "chat": "",
            "unidentified": "",
            "value": "<p>You can create extraordinary—albeit volatile—alchemical wonders, though they have an unfortunate tendency to violently explode when you use them.</p>\n<p>When you use <a class=\"entity-link\" data-pack=\"pf2e.feats-srd\" data-id=\"NlEZ0piDxg9buXCL\" draggable=\"true\"><i class=\"fas fa-suitcase\"></i> Quick Alchemy</a>, you can create an alchemical item from your formula book whose level is up to 2 higher than your advanced alchemy level. You can spend up to 3 additional batches of <a class=\"entity-link\" data-pack=\"pf2e.classfeatures\" data-id=\"wySB9VHOW1v3TX1L\" draggable=\"true\"><i class=\"fas fa-suitcase\"></i> Infused Reagents</a> when creating this item to stabilize it.</p>\n<p>Upon activating the item, attempt a DC 10 flat check; for every additional batch of <a class=\"entity-link\" data-pack=\"pf2e.classfeatures\" data-id=\"wySB9VHOW1v3TX1L\" draggable=\"true\"><i class=\"fas fa-suitcase\"></i> Infused Reagents</a> you spent to create the item, reduce this DC by 2. On a success, the item functions normally. On a failure, the item explodes, dealing force damage to the user equal to twice the item's level (doubled on a critical failure).</p>"
        },
        "featType": {
            "value": "class"
        },
        "level": {
            "value": "10"
        },
        "prerequisites": {
            "value": ""
        },
        "rarity": {
            "value": "common"
        },
        "rules": [],
        "source": {
            "value": ""
        },
        "traits": {
            "rarity": {
                "value": "common"
            },
            "value": [
                "alchemist"
            ]
        },
        "usage": {
            "value": ""
        }
    },
    "flags": {},
    "img": "systems/pf2e/icons/features/feats/feats.jpg",
    "name": "Unstable Concoction",
    "permission": {
        "default": 0
    },
    "type": "feat"
}
