{
    "_id": "0kkiE74cyHyxdPe6",
    "data": {
        "actionCategory": {
            "value": ""
        },
        "actionType": {
            "label": "Action Type",
            "type": "String",
            "value": "reaction"
        },
        "actions": {
            "label": "Number of Actions",
            "type": "String",
            "value": ""
        },
        "description": {
            "chat": "",
            "label": "Description",
            "type": "String",
            "unidentified": "",
            "value": "<p><strong>Prerequisites</strong> Come and Get Me</p>\n<p><strong>Trigger</strong> A creature within your reach succeeds or critically succeeds at an attack against you.</p>\n<p><strong>Requirements</strong> You're under the effect of Come and Get Me</p>\n<hr>\n<p>When struck by an enemy, you respond in turn. Make a melee Strike against the triggering creature. This Strike doesn't count toward your multiple attack penalty, and your multiple attack penalty doesn't apply to this Strike.</p>"
        },
        "featType": {
            "label": "Feat Type",
            "type": "String",
            "value": "class"
        },
        "level": {
            "label": "Feat Level",
            "type": "String",
            "value": "14"
        },
        "prerequisites": {
            "label": "Prerequisites",
            "type": "String",
            "value": "Come and Get Me"
        },
        "rarity": {
            "value": "common"
        },
        "rules": [],
        "source": {
            "label": "Source",
            "type": "String",
            "value": ""
        },
        "traits": {
            "custom": "",
            "label": "Traits",
            "rarity": {
                "value": "common"
            },
            "type": "String",
            "value": [
                "barbarian",
                "rage"
            ]
        },
        "usage": {
            "value": "held-in-one-hand"
        }
    },
    "flags": {},
    "img": "systems/pf2e/icons/features/feats/feats.jpg",
    "name": "Vengeful Strike",
    "permission": {
        "default": 0
    },
    "type": "feat"
}
