{
    "_id": "ww5AM2yFs0lqQhmD",
    "data": {
        "actionCategory": {
            "value": ""
        },
        "actionType": {
            "value": "passive"
        },
        "actions": {
            "value": ""
        },
        "description": {
            "chat": "",
            "unidentified": "",
            "value": "<p>You can call upon divine insights to single out your foes' weak points. You learn the <a class=\"entity-link\" data-pack=\"pf2e.spells-srd\" data-id=\"NhNKzq1DvFxkvTEc\" draggable=\"true\"><i class=\"fas fa-suitcase\"></i> Vision of Weakness</a> revelation spell. Increase the number of Focus Points in your focus pool by 1.</p>"
        },
        "featType": {
            "value": "class"
        },
        "level": {
            "value": "4"
        },
        "prerequisites": {
            "value": ""
        },
        "rarity": {
            "value": "common"
        },
        "rules": [],
        "source": {
            "value": ""
        },
        "traits": {
            "rarity": {
                "value": "common"
            },
            "value": [
                "oracle"
            ]
        },
        "usage": {
            "value": ""
        }
    },
    "flags": {},
    "img": "systems/pf2e/icons/features/feats/feats.jpg",
    "name": "Vision Of Weakness",
    "permission": {
        "default": 0
    },
    "type": "feat"
}
