{
    "_id": "S8Hda5OtajS9gpqM",
    "data": {
        "actionCategory": {
            "value": ""
        },
        "actionType": {
            "value": "reaction"
        },
        "actions": {
            "value": null
        },
        "description": {
            "chat": "",
            "unidentified": "",
            "value": "<p><strong>Prerequisites </strong>Scrollmaster Dedication</p>\n<p><strong>Requirements </strong>You're currently affected by a mental effect that you gained by failing, but not critically failing, a saving throw.</p>\n<p><strong>Trigger </strong>Your turn ends.</p>\n<hr>\n<p>To protect the knowledge within your mind from intrusion or erasure, you ward yourself against a mental attack, temporarily delaying its effects. Until the end of your next turn, you ignore a single mental effect that meets the requirement. You can suppress a particular effect using Ward Mind or Cognitive Loophole (Core Rulebook 188) only once, even if you have both feats.</p>\n<hr>\n<p><strong>Special </strong>You can use this reaction even if the mental effect prevents you from using reactions.</p>"
        },
        "featType": {
            "value": "archetype"
        },
        "level": {
            "value": "16"
        },
        "prerequisites": {
            "value": "Scrollmaster Dedication"
        },
        "rarity": {
            "value": "common"
        },
        "rules": [],
        "source": {
            "value": ""
        },
        "traits": {
            "custom": "",
            "rarity": {
                "value": "common"
            },
            "value": [
                "archetype"
            ]
        },
        "usage": {
            "value": "held-in-one-hand"
        }
    },
    "effects": [],
    "flags": {
        "core": {
            "sourceId": "Item.FFyPZFTwZ7ii8hT9"
        }
    },
    "img": "systems/pf2e/icons/features/feats/feats.jpg",
    "name": "Ward Mind",
    "permission": {
        "default": 0
    },
    "type": "feat"
}
