{
    "_id": "UyMQ1X8KLSZvm7AT",
    "data": {
        "actionCategory": {
            "value": ""
        },
        "actionType": {
            "value": "passive"
        },
        "actions": {
            "value": null
        },
        "description": {
            "chat": "",
            "unidentified": "",
            "value": "<p><span id=\"ctl00_MainContent_DetailedOutput\"><strong>Prerequisites</strong> Pathfinder Agent Dedication<br></span></p>\n<hr>\n<p>You can use the unusual resonance of your wayfinder to grant it additional effects. Choose one cantrip from the arcane, divine, occult, or primal list. You can activate your wayfinder to cast that cantrip at will. Additionally, you can Activate your wayfinder with a Single Action (envision) activation to transform it into a nondescript pin or brooch to hide your affiliation with the Pathfinder Society. This transformation lasts for 1 hour.&nbsp; &nbsp;</p>"
        },
        "featType": {
            "value": "archetype"
        },
        "level": {
            "value": "4"
        },
        "prerequisites": {
            "value": "Pathfinder Agent Dedication"
        },
        "rarity": {
            "value": "common"
        },
        "rules": [],
        "source": {
            "value": ""
        },
        "traits": {
            "custom": "",
            "rarity": {
                "value": "common"
            },
            "value": [
                "archetype"
            ]
        },
        "usage": {
            "value": "held-in-one-hand"
        }
    },
    "effects": [],
    "flags": {},
    "img": "systems/pf2e/icons/features/feats/feats.jpg",
    "name": "Wayfinder Resonance Tinkerer",
    "permission": {
        "default": 0
    },
    "type": "feat"
}
