{
    "_id": "BV5jpSifVJsTwoO7",
    "data": {
        "actionCategory": {
            "value": ""
        },
        "actionType": {
            "label": "Action Type",
            "type": "String",
            "value": "passive"
        },
        "actions": {
            "label": "Number of Actions",
            "type": "String",
            "value": ""
        },
        "description": {
            "chat": "",
            "label": "Description",
            "type": "String",
            "unidentified": "",
            "value": "<p><strong>Prerequisites</strong> expert in Survival</p>\n<hr>\n<p><span id=\"ctl00_MainContent_DetailedOutput\">Select one type of terrain from the following list: aquatic, arctic, desert, forest, mountain, plains, sky, swamp, or underground. You can use Survival in place of Perception to roll initiative when in the selected terrain in a natural location (not a structure) even if you weren't tracking or otherwise using&nbsp;</span>Survival before the encounter. You can also use Survival instead of Perception to notice traps in natural locations in the chosen terrain; if you find a snare in this way, you can also use Survival instead of Thivery to Disable the Device.</p>\n<p><span id=\"ctl00_MainContent_DetailedOutput\"><strong>Special</strong> You can select this feat more than once. Each time you select it, the feat applies to a new type of terrain.</span></p>"
        },
        "featType": {
            "label": "Feat Type",
            "type": "String",
            "value": "skill"
        },
        "level": {
            "label": "Feat Level",
            "type": "String",
            "value": "2"
        },
        "prerequisites": {
            "label": "Prerequisites",
            "type": "String",
            "value": "expert in Survival"
        },
        "rarity": {
            "value": "common"
        },
        "rules": [],
        "source": {
            "label": "Source",
            "type": "String",
            "value": ""
        },
        "traits": {
            "custom": "",
            "label": "Traits",
            "rarity": {
                "value": "common"
            },
            "type": "String",
            "value": [
                "general",
                "skill"
            ]
        },
        "usage": {
            "value": "held-in-one-hand"
        }
    },
    "flags": {},
    "img": "systems/pf2e/icons/features/feats/feats.jpg",
    "name": "Wilderness Spotter",
    "permission": {
        "default": 0
    },
    "type": "feat"
}
