{
    "_id": "PXTQ8wTvnd5qF1hW",
    "data": {
        "abilities": {
            "cha": {
                "min": 3,
                "mod": 6,
                "value": 22
            },
            "con": {
                "min": 3,
                "mod": 5,
                "value": 20
            },
            "dex": {
                "min": 3,
                "mod": 2,
                "value": 14
            },
            "int": {
                "min": 3,
                "mod": 3,
                "value": 16
            },
            "str": {
                "min": 3,
                "mod": "+7",
                "value": 24
            },
            "wis": {
                "min": 3,
                "mod": 5,
                "value": 20
            }
        },
        "attributes": {
            "ac": {
                "check": 0,
                "details": "",
                "dex": 0,
                "item": 0,
                "min": 0,
                "value": "33"
            },
            "allSaves": {
                "value": "+1 status to all saves vs. magic"
            },
            "ancestryhp": 0,
            "bonusEncumbranceBulk": 0,
            "bonusLimitBulk": 0,
            "classDC": {
                "ability": "str",
                "breakdown": "",
                "item": 0,
                "rank": 0,
                "value": 0
            },
            "classhp": 0,
            "flatbonushp": 0,
            "flatbonussp": 0,
            "hp": {
                "details": "",
                "max": "222",
                "min": 0,
                "temp": 0,
                "tempmax": 0,
                "value": "222"
            },
            "init": {
                "bonus": 0,
                "value": 0
            },
            "initiative": {
                "ability": "",
                "circumstance": 0,
                "status": 0
            },
            "levelbonushp": 0,
            "levelbonussp": 0,
            "perception": {
                "ability": "wis",
                "breakdown": "",
                "item": 0,
                "rank": 0,
                "value": 23
            },
            "resolve": {
                "value": 0
            },
            "shield": {
                "ac": 0,
                "brokenThreshold": 0,
                "hardness": 0,
                "max": 0,
                "min": 0,
                "value": 0
            },
            "sp": {
                "details": "",
                "max": 0,
                "min": 0,
                "value": 0
            },
            "speed": {
                "otherSpeeds": [
                    {
                        "type": "Fly",
                        "value": "120 feet"
                    },
                    {
                        "type": "Swim",
                        "value": "60 feet"
                    }
                ],
                "special": "",
                "value": "40 feet"
            }
        },
        "currency": {
            "cp": {
                "value": 0
            },
            "gp": {
                "value": 0
            },
            "pp": {
                "value": 0
            },
            "sp": {
                "value": 0
            }
        },
        "details": {
            "alignment": {
                "value": "LN"
            },
            "ancestry": {
                "value": "Dragon, Brine"
            },
            "biography": {
                "public": "",
                "value": ""
            },
            "class": {
                "value": ""
            },
            "creatureType": "Dragon, Elemental",
            "deity": {
                "image": "systems/pf2e/assets/sheet/deity.png",
                "value": ""
            },
            "flavorText": "Brine dragons are usually blue-green in color, with shiny scales, crests that help them glide through the water, and sweeping neck frills. They care little for either good or evil. As they are both opinionated and willing to impose their sense of order on others, many brine dragons eventually seek to rule over a meticulously crafted community. These communities are orderly and well-planned, with rigid standards of courtesy and unchanging laws set down by the dragon themself. A settlement seeded by a brine dragon can be made of members of almost any ancestry, but the most common inhabitants are humans, merfolk, tengus, or sahuagin.<br><br>Depending on the dragon's personality, their community members might view their brine dragon ruler as anything from a benevolent force of order to a fearful tyrant. Regardless, the typical brine dragon has little patience for kindness or philanthropy, and the strength and health of their settlement as a whole are of greater concern than individuals' well-being. A notable exception to this dispassion rises when an outside force encroaches on their lands. In these cases, the brine dragon is quick to step in and aid in the defense of their community.<br><br>Although brine dragons enjoy cultivating settlements, they rarely make their lairs within the city limits, instead preferring to dwell in sea caves or cliffside grottoes overlooking the coastline. Here they can retreat for privacy as needed, or can accumulate and display their gathered wealth in a place where they feel safe spreading out their treasures. Brine dragon hoards often consist of a mix of offerings and taxes paid by those they rule over and strange discoveries salvaged from sunken ships.<br><br>",
            "flavourText": "",
            "heritage": {
                "value": ""
            },
            "keyability": {
                "value": "str"
            },
            "level": {
                "min": 1,
                "value": "12"
            },
            "nethysUrl": "https://2e.aonprd.com/Monsters.aspx?ID=622",
            "recallKnowledgeText": "Recall Knowledge - Dragon : DC 32<br>Recall Knowledge - Elemental : DC 32",
            "sidebarText": "",
            "source": {
                "value": "Bestiary 2 pg. 87"
            }
        },
        "martial": {
            "advanced": {
                "breakdown": "",
                "rank": 0,
                "value": 0
            },
            "heavy": {
                "breakdown": "",
                "rank": 0,
                "value": 0
            },
            "light": {
                "breakdown": "",
                "rank": 0,
                "value": 0
            },
            "martial": {
                "breakdown": "",
                "rank": 0,
                "value": 0
            },
            "medium": {
                "breakdown": "",
                "rank": 0,
                "value": 0
            },
            "simple": {
                "breakdown": "",
                "rank": 0,
                "value": 0
            },
            "unarmed": {
                "breakdown": "",
                "rank": 0,
                "value": 0
            },
            "unarmored": {
                "breakdown": "",
                "rank": 0,
                "value": 0
            }
        },
        "saves": {
            "fortitude": {
                "ability": "con",
                "breakdown": "",
                "item": 0,
                "rank": 0,
                "saveDetail": "",
                "value": 25
            },
            "reflex": {
                "ability": "dex",
                "breakdown": "",
                "item": 0,
                "rank": 0,
                "saveDetail": "",
                "value": 20
            },
            "will": {
                "ability": "wis",
                "breakdown": "",
                "item": 0,
                "rank": 0,
                "saveDetail": "",
                "value": 21
            }
        },
        "schema": {
            "version": {
                "value": ""
            }
        },
        "skills": {
            "acr": {
                "ability": "dex",
                "armor": 1,
                "breakdown": "",
                "item": 0,
                "mod": 0,
                "rank": 0,
                "value": 0
            },
            "arc": {
                "ability": "int",
                "breakdown": "",
                "item": 0,
                "mod": 0,
                "rank": 0,
                "value": 0
            },
            "ath": {
                "ability": "str",
                "armor": 1,
                "breakdown": "",
                "item": 0,
                "mod": 0,
                "rank": 0,
                "value": 0
            },
            "cra": {
                "ability": "int",
                "breakdown": "",
                "item": 0,
                "mod": 0,
                "rank": 0,
                "value": 0
            },
            "dec": {
                "ability": "cha",
                "breakdown": "",
                "item": 0,
                "mod": 0,
                "rank": 0,
                "value": 0
            },
            "dip": {
                "ability": "cha",
                "breakdown": "",
                "item": 0,
                "mod": 0,
                "rank": 0,
                "value": 0
            },
            "itm": {
                "ability": "cha",
                "breakdown": "",
                "item": 0,
                "mod": 0,
                "rank": 0,
                "value": 0
            },
            "med": {
                "ability": "wis",
                "breakdown": "",
                "item": 0,
                "mod": 0,
                "rank": 0,
                "value": 0
            },
            "nat": {
                "ability": "wis",
                "breakdown": "",
                "item": 0,
                "mod": 0,
                "rank": 0,
                "value": 0
            },
            "occ": {
                "ability": "int",
                "breakdown": "",
                "item": 0,
                "mod": 0,
                "rank": 0,
                "value": 0
            },
            "prf": {
                "ability": "cha",
                "breakdown": "",
                "item": 0,
                "mod": 0,
                "rank": 0,
                "value": 0
            },
            "rel": {
                "ability": "wis",
                "breakdown": "",
                "item": 0,
                "mod": 0,
                "rank": 0,
                "value": 0
            },
            "soc": {
                "ability": "int",
                "breakdown": "",
                "item": 0,
                "mod": 0,
                "rank": 0,
                "value": 0
            },
            "ste": {
                "ability": "dex",
                "armor": 1,
                "breakdown": "",
                "item": 0,
                "mod": 0,
                "rank": 0,
                "value": 0
            },
            "sur": {
                "ability": "wis",
                "breakdown": "",
                "item": 0,
                "mod": 0,
                "rank": 0,
                "value": 0
            },
            "thi": {
                "ability": "dex",
                "armor": 1,
                "breakdown": "",
                "item": 0,
                "mod": 0,
                "rank": 0,
                "value": 0
            }
        },
        "spells": {
            "spell0": {
                "max": 0
            },
            "spell1": {
                "max": 0
            },
            "spell10": {
                "max": 0
            },
            "spell11": {
                "max": 0
            },
            "spell2": {
                "max": 0
            },
            "spell3": {
                "max": 0
            },
            "spell4": {
                "max": 0
            },
            "spell5": {
                "max": 0
            },
            "spell6": {
                "max": 0
            },
            "spell7": {
                "max": 0
            },
            "spell8": {
                "max": 0
            },
            "spell9": {
                "max": 0
            }
        },
        "statusEffects": [],
        "traits": {
            "ci": [],
            "di": {
                "custom": "acid, paralyzed, sleep",
                "value": [
                    "custom"
                ]
            },
            "dr": [],
            "dv": [],
            "languages": {
                "custom": "",
                "selected": [],
                "value": [
                    "aquan",
                    "common",
                    "draconic",
                    "sylvan"
                ]
            },
            "rarity": {
                "value": "uncommon"
            },
            "senses": {
                "value": "darkvision, scent (imprecise) 60 feet"
            },
            "size": {
                "value": "huge"
            },
            "traits": {
                "custom": "",
                "value": [
                    "amphibious",
                    "dragon",
                    "elemental",
                    "water"
                ]
            }
        }
    },
    "flags": {
        "pf2e_updatednpcsheet": {}
    },
    "img": "icons/svg/mystery-man.svg",
    "items": [
        {
            "_id": "zhHzZbCi9Wd6r7hj",
            "data": {
                "ability": {
                    "value": ""
                },
                "description": {
                    "chat": "",
                    "unidentified": "",
                    "value": ""
                },
                "displayLevel": {},
                "displayLevels": {},
                "focus": {
                    "points": 1,
                    "pool": 1
                },
                "item": {
                    "value": 0
                },
                "prepared": {
                    "value": "Innate"
                },
                "proficiency": {
                    "value": 0
                },
                "rarity": {
                    "value": "common"
                },
                "showUnpreparedSpells": {
                    "value": false
                },
                "slots": {
                    "slot0": {
                        "max": 0,
                        "prepared": [],
                        "value": 0
                    },
                    "slot1": {
                        "max": 0,
                        "prepared": [],
                        "value": 0
                    },
                    "slot10": {
                        "max": 0,
                        "prepared": [],
                        "value": 0
                    },
                    "slot11": {
                        "max": 0,
                        "prepared": [],
                        "value": 0
                    },
                    "slot2": {
                        "max": 0,
                        "prepared": [],
                        "value": 0
                    },
                    "slot3": {
                        "max": 0,
                        "prepared": [],
                        "value": 0
                    },
                    "slot4": {
                        "max": 0,
                        "prepared": [],
                        "value": 0
                    },
                    "slot5": {
                        "max": 0,
                        "prepared": [],
                        "value": 0
                    },
                    "slot6": {
                        "max": 0,
                        "prepared": [],
                        "value": 0
                    },
                    "slot7": {
                        "max": 0,
                        "prepared": [],
                        "value": 0
                    },
                    "slot8": {
                        "max": 0,
                        "prepared": [],
                        "value": 0
                    },
                    "slot9": {
                        "max": 0,
                        "prepared": [],
                        "value": 0
                    }
                },
                "source": {
                    "value": ""
                },
                "spelldc": {
                    "dc": "32",
                    "item": 0,
                    "mod": 0,
                    "value": 24
                },
                "tradition": {
                    "value": "primal"
                },
                "traits": {
                    "value": []
                },
                "usage": {
                    "value": "held-in-one-hand"
                }
            },
            "flags": {},
            "img": "icons/svg/mystery-man.svg",
            "name": "Primal Innate Spells",
            "sort": 100000,
            "type": "spellcastingEntry"
        },
        {
            "_id": "9Kj1po0GjteHnIyP",
            "data": {
                "ability": {
                    "label": "Spellcasting Ability",
                    "type": "String",
                    "value": ""
                },
                "area": {
                    "areaType": "",
                    "label": "Area",
                    "type": "String",
                    "value": null
                },
                "components": {
                    "label": "Spell Components",
                    "type": "String",
                    "value": "somatic, verbal"
                },
                "cost": {
                    "label": "Cost",
                    "type": "String",
                    "value": ""
                },
                "damage": {
                    "applyMod": false,
                    "label": "Spell Damage",
                    "type": "String",
                    "value": "8d6"
                },
                "damageType": {
                    "label": "Damage Type",
                    "type": "String",
                    "value": ""
                },
                "description": {
                    "chat": "",
                    "label": "Description",
                    "type": "String",
                    "unidentified": "",
                    "value": "<p>A swirling torrent of water manifests along a straight line, battering those that are its path and possibly pushing them away from you. The torrent deals 8d6 bludgeoning damage. Each creature in the area must attempt a basic Fortitude save. Creatures that fail the save are also knocked back 5 feet (10 feet on a critical failure).</p>\n<hr>\n<p><strong>Heightened </strong> The damage increases by 2d6.</p>"
                },
                "duration": {
                    "label": "Duration",
                    "type": "String",
                    "value": ""
                },
                "level": {
                    "label": "Spell Level",
                    "type": "Number",
                    "value": 4
                },
                "location": {
                    "value": "zhHzZbCi9Wd6r7hj"
                },
                "materials": {
                    "label": "Materials",
                    "type": "String",
                    "value": ""
                },
                "prepared": {
                    "label": "Prepared Spell",
                    "type": "String",
                    "value": ""
                },
                "range": {
                    "label": "Range",
                    "type": "String",
                    "value": ""
                },
                "rarity": {
                    "value": "common"
                },
                "save": {
                    "basic": "",
                    "label": "Saving Throw",
                    "type": "String",
                    "value": ""
                },
                "scaling": {
                    "formula": "",
                    "mode": "none"
                },
                "school": {
                    "label": "Spell School",
                    "type": "String",
                    "value": "evo"
                },
                "source": {
                    "label": "Source",
                    "type": "String",
                    "value": "https://2e.aonprd.com/Spells.aspx?ID=155"
                },
                "spellCategory": {
                    "value": ""
                },
                "spellType": {
                    "label": "Spell Type",
                    "type": "String",
                    "value": "save"
                },
                "sustained": {
                    "label": "Can be Sustained",
                    "type": "Boolean",
                    "value": false
                },
                "target": {
                    "label": "Target",
                    "type": "String",
                    "value": ""
                },
                "time": {
                    "label": "Casting Time",
                    "type": "String",
                    "value": "2"
                },
                "traditions": {
                    "label": "Spell Traditions",
                    "type": "String",
                    "value": [
                        "primal"
                    ]
                },
                "traits": {
                    "label": "Spell Traits",
                    "type": "String",
                    "value": [
                        "evocation",
                        "water"
                    ]
                },
                "usage": {
                    "value": "held-in-one-hand"
                }
            },
            "flags": {},
            "img": "systems/pf2e/icons/spells/hydraulic-torrent.jpg",
            "name": "Hydraulic Torrent",
            "sort": 200000,
            "type": "spell"
        },
        {
            "_id": "kOPgfFw83xETk4J3",
            "data": {
                "ability": {
                    "label": "Spellcasting Ability",
                    "type": "String",
                    "value": ""
                },
                "area": {
                    "areaType": "",
                    "label": "Area",
                    "type": "String",
                    "value": null
                },
                "components": {
                    "label": "Spell Components",
                    "type": "String",
                    "value": "somatic, verbal"
                },
                "cost": {
                    "label": "Cost",
                    "type": "String",
                    "value": ""
                },
                "damage": {
                    "applyMod": false,
                    "label": "Spell Damage",
                    "type": "String",
                    "value": "6d6"
                },
                "damageType": {
                    "label": "Damage Type",
                    "type": "String",
                    "value": ""
                },
                "description": {
                    "chat": "",
                    "label": "Description",
                    "type": "String",
                    "unidentified": "",
                    "value": "<p>You call forth a powerful blast of pressurized water that bludgeons the target and knocks it back. Make a ranged spell attack roll.</p>\r<p>\n<hr><b>Critical Success</b> The target takes 6d6 bludgeoning damage and is knocked back 10 feet.</p>\r<p>\n<b>Success</b> The target takes 3d6 bludgeoning damage and is knocked back 5 feet.</p>\r<p>\n<hr><b>Heightened </b> The damage increases by 2d6.</p>"
                },
                "duration": {
                    "label": "Duration",
                    "type": "String",
                    "value": ""
                },
                "level": {
                    "label": "Spell Level",
                    "type": "Number",
                    "value": "3"
                },
                "location": {
                    "value": "zhHzZbCi9Wd6r7hj"
                },
                "materials": {
                    "label": "Materials",
                    "type": "String",
                    "value": ""
                },
                "prepared": {
                    "label": "Prepared Spell",
                    "type": "String",
                    "value": ""
                },
                "range": {
                    "label": "Range",
                    "type": "String",
                    "value": "60 feet"
                },
                "rarity": {
                    "value": "common"
                },
                "save": {
                    "basic": "",
                    "label": "Saving Throw",
                    "type": "String",
                    "value": ""
                },
                "scaling": {
                    "formula": "",
                    "mode": "none"
                },
                "school": {
                    "label": "Spell School",
                    "type": "String",
                    "value": "evo"
                },
                "source": {
                    "label": "Source",
                    "type": "String",
                    "value": "https://2e.aonprd.com/Spells.aspx?ID=154"
                },
                "spellCategory": {
                    "value": ""
                },
                "spellType": {
                    "label": "Spell Type",
                    "type": "String",
                    "value": "attack"
                },
                "sustained": {
                    "label": "Can be Sustained",
                    "type": "Boolean",
                    "value": false
                },
                "target": {
                    "label": "Target",
                    "type": "String",
                    "value": "1 creature or object"
                },
                "time": {
                    "label": "Casting Time",
                    "type": "String",
                    "value": "2"
                },
                "traditions": {
                    "label": "Spell Traditions",
                    "type": "String",
                    "value": [
                        "arcane",
                        "primal"
                    ]
                },
                "traits": {
                    "label": "Spell Traits",
                    "type": "String",
                    "value": [
                        "attack",
                        "evocation",
                        "water"
                    ]
                },
                "usage": {
                    "value": "held-in-one-hand"
                }
            },
            "flags": {},
            "img": "systems/pf2e/icons/spells/hydraulic-push.jpg",
            "name": "Hydraulic Push",
            "sort": 300000,
            "type": "spell"
        },
        {
            "_id": "GSTLaq9f23dhPHfR",
            "data": {
                "ability": {
                    "label": "Spellcasting Ability",
                    "type": "String",
                    "value": ""
                },
                "area": {
                    "areaType": "",
                    "label": "Area",
                    "type": "String",
                    "value": null
                },
                "components": {
                    "label": "Spell Components",
                    "type": "String",
                    "value": "somatic, verbal"
                },
                "cost": {
                    "label": "Cost",
                    "type": "String",
                    "value": ""
                },
                "damage": {
                    "applyMod": false,
                    "label": "Spell Damage",
                    "type": "String",
                    "value": "6d6"
                },
                "damageType": {
                    "label": "Damage Type",
                    "type": "String",
                    "value": ""
                },
                "description": {
                    "chat": "",
                    "label": "Description",
                    "type": "String",
                    "unidentified": "",
                    "value": "<p>You call forth a powerful blast of pressurized water that bludgeons the target and knocks it back. Make a ranged spell attack roll.</p>\r<p>\n<hr><b>Critical Success</b> The target takes 6d6 bludgeoning damage and is knocked back 10 feet.</p>\r<p>\n<b>Success</b> The target takes 3d6 bludgeoning damage and is knocked back 5 feet.</p>\r<p>\n<hr><b>Heightened </b> The damage increases by 2d6.</p>"
                },
                "duration": {
                    "label": "Duration",
                    "type": "String",
                    "value": ""
                },
                "level": {
                    "label": "Spell Level",
                    "type": "Number",
                    "value": "3"
                },
                "location": {
                    "value": "zhHzZbCi9Wd6r7hj"
                },
                "materials": {
                    "label": "Materials",
                    "type": "String",
                    "value": ""
                },
                "prepared": {
                    "label": "Prepared Spell",
                    "type": "String",
                    "value": ""
                },
                "range": {
                    "label": "Range",
                    "type": "String",
                    "value": "60 feet"
                },
                "rarity": {
                    "value": "common"
                },
                "save": {
                    "basic": "",
                    "label": "Saving Throw",
                    "type": "String",
                    "value": ""
                },
                "scaling": {
                    "formula": "",
                    "mode": "none"
                },
                "school": {
                    "label": "Spell School",
                    "type": "String",
                    "value": "evo"
                },
                "source": {
                    "label": "Source",
                    "type": "String",
                    "value": "https://2e.aonprd.com/Spells.aspx?ID=154"
                },
                "spellCategory": {
                    "value": ""
                },
                "spellType": {
                    "label": "Spell Type",
                    "type": "String",
                    "value": "attack"
                },
                "sustained": {
                    "label": "Can be Sustained",
                    "type": "Boolean",
                    "value": false
                },
                "target": {
                    "label": "Target",
                    "type": "String",
                    "value": "1 creature or object"
                },
                "time": {
                    "label": "Casting Time",
                    "type": "String",
                    "value": "2"
                },
                "traditions": {
                    "label": "Spell Traditions",
                    "type": "String",
                    "value": [
                        "arcane",
                        "primal"
                    ]
                },
                "traits": {
                    "label": "Spell Traits",
                    "type": "String",
                    "value": [
                        "attack",
                        "evocation",
                        "water"
                    ]
                },
                "usage": {
                    "value": "held-in-one-hand"
                }
            },
            "flags": {},
            "img": "systems/pf2e/icons/spells/hydraulic-push.jpg",
            "name": "Hydraulic Push",
            "sort": 400000,
            "type": "spell"
        },
        {
            "_id": "7ZN9B10meXB9DIao",
            "data": {
                "ability": {
                    "label": "Spellcasting Ability",
                    "type": "String",
                    "value": ""
                },
                "area": {
                    "areaType": "",
                    "label": "Area",
                    "type": "String",
                    "value": null
                },
                "components": {
                    "label": "Spell Components",
                    "type": "String",
                    "value": "somatic, verbal"
                },
                "cost": {
                    "label": "Cost",
                    "type": "String",
                    "value": ""
                },
                "damage": {
                    "applyMod": false,
                    "label": "Spell Damage",
                    "type": "String",
                    "value": "6d6"
                },
                "damageType": {
                    "label": "Damage Type",
                    "type": "String",
                    "value": ""
                },
                "description": {
                    "chat": "",
                    "label": "Description",
                    "type": "String",
                    "unidentified": "",
                    "value": "<p>You call forth a powerful blast of pressurized water that bludgeons the target and knocks it back. Make a ranged spell attack roll.</p>\r<p>\n<hr><b>Critical Success</b> The target takes 6d6 bludgeoning damage and is knocked back 10 feet.</p>\r<p>\n<b>Success</b> The target takes 3d6 bludgeoning damage and is knocked back 5 feet.</p>\r<p>\n<hr><b>Heightened </b> The damage increases by 2d6.</p>"
                },
                "duration": {
                    "label": "Duration",
                    "type": "String",
                    "value": ""
                },
                "level": {
                    "label": "Spell Level",
                    "type": "Number",
                    "value": "3"
                },
                "location": {
                    "value": "zhHzZbCi9Wd6r7hj"
                },
                "materials": {
                    "label": "Materials",
                    "type": "String",
                    "value": ""
                },
                "prepared": {
                    "label": "Prepared Spell",
                    "type": "String",
                    "value": ""
                },
                "range": {
                    "label": "Range",
                    "type": "String",
                    "value": "60 feet"
                },
                "rarity": {
                    "value": "common"
                },
                "save": {
                    "basic": "",
                    "label": "Saving Throw",
                    "type": "String",
                    "value": ""
                },
                "scaling": {
                    "formula": "",
                    "mode": "none"
                },
                "school": {
                    "label": "Spell School",
                    "type": "String",
                    "value": "evo"
                },
                "source": {
                    "label": "Source",
                    "type": "String",
                    "value": "https://2e.aonprd.com/Spells.aspx?ID=154"
                },
                "spellCategory": {
                    "value": ""
                },
                "spellType": {
                    "label": "Spell Type",
                    "type": "String",
                    "value": "attack"
                },
                "sustained": {
                    "label": "Can be Sustained",
                    "type": "Boolean",
                    "value": false
                },
                "target": {
                    "label": "Target",
                    "type": "String",
                    "value": "1 creature or object"
                },
                "time": {
                    "label": "Casting Time",
                    "type": "String",
                    "value": "2"
                },
                "traditions": {
                    "label": "Spell Traditions",
                    "type": "String",
                    "value": [
                        "arcane",
                        "primal"
                    ]
                },
                "traits": {
                    "label": "Spell Traits",
                    "type": "String",
                    "value": [
                        "attack",
                        "evocation",
                        "water"
                    ]
                },
                "usage": {
                    "value": "held-in-one-hand"
                }
            },
            "flags": {},
            "img": "systems/pf2e/icons/spells/hydraulic-push.jpg",
            "name": "Hydraulic Push",
            "sort": 500000,
            "type": "spell"
        },
        {
            "_id": "P9WcNJw2YLADkzul",
            "data": {
                "ability": {
                    "label": "Spellcasting Ability",
                    "type": "String",
                    "value": ""
                },
                "area": {
                    "areaType": "burst",
                    "label": "Area",
                    "type": "String",
                    "value": 20
                },
                "components": {
                    "label": "Spell Components",
                    "type": "String",
                    "value": "material, somatic, verbal"
                },
                "cost": {
                    "label": "Cost",
                    "type": "String",
                    "value": ""
                },
                "damage": {
                    "applyMod": false,
                    "label": "Spell Damage",
                    "type": "String",
                    "value": ""
                },
                "damageType": {
                    "label": "Damage Type",
                    "type": "String",
                    "value": ""
                },
                "description": {
                    "chat": "",
                    "label": "Description",
                    "type": "String",
                    "unidentified": "",
                    "value": "<p>You call forth a cloud of mist. All creatures within the mist become @Compendium[pf2e.conditionspf2e.DmAIPqOBomZ7H95W]{Concealed}, and all creatures outside the mist become @Compendium[pf2e.conditionspf2e.DmAIPqOBomZ7H95W]{Concealed} to creatures within it. You can Dismiss the cloud.</p>"
                },
                "duration": {
                    "label": "Duration",
                    "type": "String",
                    "value": "1 minute"
                },
                "level": {
                    "label": "Spell Level",
                    "type": "Number",
                    "value": 2
                },
                "location": {
                    "value": "zhHzZbCi9Wd6r7hj"
                },
                "materials": {
                    "label": "Materials",
                    "type": "String",
                    "value": ""
                },
                "prepared": {
                    "label": "Prepared Spell",
                    "type": "String",
                    "value": ""
                },
                "range": {
                    "label": "Range",
                    "type": "String",
                    "value": "120 feet"
                },
                "rarity": {
                    "value": "common"
                },
                "save": {
                    "basic": "",
                    "label": "Saving Throw",
                    "type": "String",
                    "value": ""
                },
                "scaling": {
                    "formula": "",
                    "mode": "none"
                },
                "school": {
                    "label": "Spell School",
                    "type": "String",
                    "value": "con"
                },
                "source": {
                    "label": "Source",
                    "type": "String",
                    "value": "https://2e.aonprd.com/Spells.aspx?ID=210"
                },
                "spellCategory": {
                    "value": ""
                },
                "spellType": {
                    "label": "Spell Type",
                    "type": "String",
                    "value": "utility"
                },
                "sustained": {
                    "label": "Can be Sustained",
                    "type": "Boolean",
                    "value": false
                },
                "target": {
                    "label": "Target",
                    "type": "String",
                    "value": ""
                },
                "time": {
                    "label": "Casting Time",
                    "type": "String",
                    "value": "3"
                },
                "traditions": {
                    "label": "Spell Traditions",
                    "type": "String",
                    "value": [
                        "arcane",
                        "primal"
                    ]
                },
                "traits": {
                    "label": "Spell Traits",
                    "type": "String",
                    "value": [
                        "conjuration",
                        "water"
                    ]
                },
                "usage": {
                    "value": "held-in-one-hand"
                }
            },
            "flags": {
                "_sheetTab": "details"
            },
            "img": "systems/pf2e/icons/spells/obscuring-mist.jpg",
            "name": "Obscuring Mist",
            "sort": 600000,
            "type": "spell"
        },
        {
            "_id": "6Sms9YOa60rjevVP",
            "data": {
                "attack": {
                    "value": ""
                },
                "attackEffects": {
                    "value": []
                },
                "bonus": {
                    "total": 26,
                    "value": 26
                },
                "brokenThreshold": {
                    "value": 0
                },
                "bulkCapacity": {
                    "value": ""
                },
                "collapsed": {
                    "value": false
                },
                "containerId": {
                    "value": ""
                },
                "damage": {
                    "damageType": "piercing",
                    "die": "3d10+12"
                },
                "damageRolls": [
                    {
                        "damage": "3d10+12",
                        "damageType": "piercing"
                    },
                    {
                        "damage": "3d4",
                        "damageType": "acid"
                    }
                ],
                "description": {
                    "chat": "",
                    "unidentified": "",
                    "value": ""
                },
                "equipped": {
                    "value": false
                },
                "equippedBulk": {
                    "value": ""
                },
                "hardness": {
                    "value": 0
                },
                "hp": {
                    "value": 0
                },
                "identified": {
                    "value": false
                },
                "invested": {
                    "value": false
                },
                "maxHp": {
                    "value": 0
                },
                "negateBulk": {
                    "value": "0"
                },
                "preciousMaterial": {
                    "value": ""
                },
                "preciousMaterialGrade": {
                    "value": ""
                },
                "price": {
                    "value": 0
                },
                "property1": {
                    "critDamage": "",
                    "critDamageType": "",
                    "critDice": 0,
                    "critDie": "",
                    "damageType": "",
                    "dice": 0,
                    "die": "",
                    "value": ""
                },
                "property2": {
                    "critDamage": "",
                    "critDamageType": "",
                    "critDice": 0,
                    "critDie": "",
                    "damageType": "",
                    "dice": 0,
                    "die": "",
                    "value": ""
                },
                "property3": {
                    "critDamage": "",
                    "critDamageType": "",
                    "critDice": 0,
                    "critDie": "",
                    "damageType": "",
                    "dice": 0,
                    "die": "",
                    "value": ""
                },
                "quantity": {
                    "value": 1
                },
                "rarity": {
                    "value": "common"
                },
                "source": {
                    "value": ""
                },
                "stackGroup": {
                    "value": ""
                },
                "traits": {
                    "value": [
                        "acid",
                        "magical",
                        "reach 15 feet"
                    ]
                },
                "usage": {
                    "value": "held-in-one-hand"
                },
                "weight": {
                    "value": 0
                }
            },
            "flags": {
                "pf2e_updatednpcsheet": {}
            },
            "img": "icons/svg/mystery-man.svg",
            "name": "Jaws",
            "sort": 700000,
            "type": "melee"
        },
        {
            "_id": "20d4bCP4x4uHaNkd",
            "data": {
                "attack": {
                    "value": ""
                },
                "attackEffects": {
                    "value": []
                },
                "bonus": {
                    "total": 26,
                    "value": 26
                },
                "brokenThreshold": {
                    "value": 0
                },
                "bulkCapacity": {
                    "value": ""
                },
                "collapsed": {
                    "value": false
                },
                "containerId": {
                    "value": ""
                },
                "damage": {
                    "damageType": "slashing",
                    "die": "3d8+12"
                },
                "damageRolls": [
                    {
                        "damage": "3d8+12",
                        "damageType": "slashing"
                    }
                ],
                "description": {
                    "chat": "",
                    "unidentified": "",
                    "value": ""
                },
                "equipped": {
                    "value": false
                },
                "equippedBulk": {
                    "value": ""
                },
                "hardness": {
                    "value": 0
                },
                "hp": {
                    "value": 0
                },
                "identified": {
                    "value": false
                },
                "invested": {
                    "value": false
                },
                "maxHp": {
                    "value": 0
                },
                "negateBulk": {
                    "value": "0"
                },
                "preciousMaterial": {
                    "value": ""
                },
                "preciousMaterialGrade": {
                    "value": ""
                },
                "price": {
                    "value": 0
                },
                "property1": {
                    "critDamage": "",
                    "critDamageType": "",
                    "critDice": 0,
                    "critDie": "",
                    "damageType": "",
                    "dice": 0,
                    "die": "",
                    "value": ""
                },
                "property2": {
                    "critDamage": "",
                    "critDamageType": "",
                    "critDice": 0,
                    "critDie": "",
                    "damageType": "",
                    "dice": 0,
                    "die": "",
                    "value": ""
                },
                "property3": {
                    "critDamage": "",
                    "critDamageType": "",
                    "critDice": 0,
                    "critDie": "",
                    "damageType": "",
                    "dice": 0,
                    "die": "",
                    "value": ""
                },
                "quantity": {
                    "value": 1
                },
                "rarity": {
                    "value": "common"
                },
                "source": {
                    "value": ""
                },
                "stackGroup": {
                    "value": ""
                },
                "traits": {
                    "value": [
                        "agile",
                        "magical",
                        "reach 10 feet"
                    ]
                },
                "usage": {
                    "value": "held-in-one-hand"
                },
                "weight": {
                    "value": 0
                }
            },
            "flags": {
                "pf2e_updatednpcsheet": {}
            },
            "img": "icons/svg/mystery-man.svg",
            "name": "Claw",
            "sort": 800000,
            "type": "melee"
        },
        {
            "_id": "1w9sOvRdSaIEpLNe",
            "data": {
                "attack": {
                    "value": ""
                },
                "attackEffects": {
                    "value": []
                },
                "bonus": {
                    "total": 24,
                    "value": 24
                },
                "brokenThreshold": {
                    "value": 0
                },
                "bulkCapacity": {
                    "value": ""
                },
                "collapsed": {
                    "value": false
                },
                "containerId": {
                    "value": ""
                },
                "damage": {
                    "damageType": "bludgeoning",
                    "die": "3d12+12"
                },
                "damageRolls": [
                    {
                        "damage": "3d12+12",
                        "damageType": "bludgeoning"
                    }
                ],
                "description": {
                    "chat": "",
                    "unidentified": "",
                    "value": ""
                },
                "equipped": {
                    "value": false
                },
                "equippedBulk": {
                    "value": ""
                },
                "hardness": {
                    "value": 0
                },
                "hp": {
                    "value": 0
                },
                "identified": {
                    "value": false
                },
                "invested": {
                    "value": false
                },
                "maxHp": {
                    "value": 0
                },
                "negateBulk": {
                    "value": "0"
                },
                "preciousMaterial": {
                    "value": ""
                },
                "preciousMaterialGrade": {
                    "value": ""
                },
                "price": {
                    "value": 0
                },
                "property1": {
                    "critDamage": "",
                    "critDamageType": "",
                    "critDice": 0,
                    "critDie": "",
                    "damageType": "",
                    "dice": 0,
                    "die": "",
                    "value": ""
                },
                "property2": {
                    "critDamage": "",
                    "critDamageType": "",
                    "critDice": 0,
                    "critDie": "",
                    "damageType": "",
                    "dice": 0,
                    "die": "",
                    "value": ""
                },
                "property3": {
                    "critDamage": "",
                    "critDamageType": "",
                    "critDice": 0,
                    "critDie": "",
                    "damageType": "",
                    "dice": 0,
                    "die": "",
                    "value": ""
                },
                "quantity": {
                    "value": 1
                },
                "rarity": {
                    "value": "common"
                },
                "source": {
                    "value": ""
                },
                "stackGroup": {
                    "value": ""
                },
                "traits": {
                    "value": [
                        "magical",
                        "reach 20 feet"
                    ]
                },
                "usage": {
                    "value": "held-in-one-hand"
                },
                "weight": {
                    "value": 0
                }
            },
            "flags": {
                "pf2e_updatednpcsheet": {}
            },
            "img": "icons/svg/mystery-man.svg",
            "name": "Tail",
            "sort": 900000,
            "type": "melee"
        },
        {
            "_id": "tFkVmhokDW1zCny4",
            "data": {
                "attack": {
                    "value": ""
                },
                "attackEffects": {
                    "value": []
                },
                "bonus": {
                    "total": 24,
                    "value": 24
                },
                "brokenThreshold": {
                    "value": 0
                },
                "bulkCapacity": {
                    "value": ""
                },
                "collapsed": {
                    "value": false
                },
                "containerId": {
                    "value": ""
                },
                "damage": {
                    "damageType": "piercing",
                    "die": "1d12+12"
                },
                "damageRolls": [
                    {
                        "damage": "1d12+12",
                        "damageType": "piercing"
                    }
                ],
                "description": {
                    "chat": "",
                    "unidentified": "",
                    "value": ""
                },
                "equipped": {
                    "value": false
                },
                "equippedBulk": {
                    "value": ""
                },
                "hardness": {
                    "value": 0
                },
                "hp": {
                    "value": 0
                },
                "identified": {
                    "value": false
                },
                "invested": {
                    "value": false
                },
                "maxHp": {
                    "value": 0
                },
                "negateBulk": {
                    "value": "0"
                },
                "preciousMaterial": {
                    "value": ""
                },
                "preciousMaterialGrade": {
                    "value": ""
                },
                "price": {
                    "value": 0
                },
                "property1": {
                    "critDamage": "",
                    "critDamageType": "",
                    "critDice": 0,
                    "critDie": "",
                    "damageType": "",
                    "dice": 0,
                    "die": "",
                    "value": ""
                },
                "property2": {
                    "critDamage": "",
                    "critDamageType": "",
                    "critDice": 0,
                    "critDie": "",
                    "damageType": "",
                    "dice": 0,
                    "die": "",
                    "value": ""
                },
                "property3": {
                    "critDamage": "",
                    "critDamageType": "",
                    "critDice": 0,
                    "critDie": "",
                    "damageType": "",
                    "dice": 0,
                    "die": "",
                    "value": ""
                },
                "quantity": {
                    "value": 1
                },
                "rarity": {
                    "value": "common"
                },
                "source": {
                    "value": ""
                },
                "stackGroup": {
                    "value": ""
                },
                "traits": {
                    "value": [
                        "magical",
                        "reach 15 feet"
                    ]
                },
                "usage": {
                    "value": "held-in-one-hand"
                },
                "weight": {
                    "value": 0
                }
            },
            "flags": {
                "pf2e_updatednpcsheet": {}
            },
            "img": "icons/svg/mystery-man.svg",
            "name": "Wing",
            "sort": 1000000,
            "type": "melee"
        },
        {
            "_id": "uBNZL9tzwyku01lA",
            "data": {
                "actionCategory": {
                    "value": "defensive"
                },
                "actionType": {
                    "value": "passive"
                },
                "actions": {
                    "value": ""
                },
                "description": {
                    "chat": "",
                    "unidentified": "",
                    "value": "90 feet, DC 30<br>A creature that first enters the area must attempt a Will save. Regardless of the result of the saving throw, the creature is temporarily immune to this monster’s Frightful Presence for 1 minute.<br><br> <b>Critical Success</b> The creature is unaffected by the presence.<br> <b>Success</b> The creature is @Compendium[pf2e.conditionspf2e.Frightened] 1.<br> <b>Failure</b> The creature is @Compendium[pf2e.conditionspf2e.Frightened] 2.<br> <b>Critical Failure</b> The creature is @Compendium[pf2e.conditionspf2e.Frightened] 4."
                },
                "rarity": {
                    "value": "common"
                },
                "requirements": {
                    "value": ""
                },
                "skill_requirements": {
                    "rank": "",
                    "skill": ""
                },
                "source": {
                    "value": ""
                },
                "traits": {
                    "value": [
                        "aura",
                        "emotion",
                        "fear",
                        "mental"
                    ]
                },
                "trigger": {
                    "value": ""
                },
                "usage": {
                    "value": "held-in-one-hand"
                },
                "weapon": {
                    "value": ""
                }
            },
            "flags": {},
            "img": "icons/svg/mystery-man.svg",
            "name": "Frightful Presence",
            "sort": 1100000,
            "type": "action"
        },
        {
            "_id": "uJuFK46gaxSPryGB",
            "data": {
                "actionCategory": {
                    "value": "defensive"
                },
                "actionType": {
                    "value": "passive"
                },
                "actions": {
                    "value": ""
                },
                "description": {
                    "chat": "",
                    "unidentified": "",
                    "value": "<b>Trigger </b>A creature the brine dragon observes within 30 feet uses a concentrate action; <b>Effect </b>The dragon spits a glob of caustic salt water at the creature. The creature takes [[/r 5d6 # acid damage]] acid damage (DC 30 basic Reflex save). On a failure, the concentrate action is disrupted."
                },
                "rarity": {
                    "value": "common"
                },
                "requirements": {
                    "value": ""
                },
                "skill_requirements": {
                    "rank": "",
                    "skill": ""
                },
                "source": {
                    "value": ""
                },
                "traits": {
                    "value": [
                        "concentrate"
                    ]
                },
                "trigger": {
                    "value": ""
                },
                "usage": {
                    "value": "held-in-one-hand"
                },
                "weapon": {
                    "value": ""
                }
            },
            "flags": {},
            "img": "icons/svg/mystery-man.svg",
            "name": "Brine Spit ",
            "sort": 1200000,
            "type": "action"
        },
        {
            "_id": "h68Rp5GCPIpGGeyq",
            "data": {
                "actionCategory": {
                    "value": "offensive"
                },
                "actionType": {
                    "value": "action"
                },
                "actions": {
                    "value": 2
                },
                "description": {
                    "chat": "",
                    "unidentified": "",
                    "value": "The dragon breathes a spray of acidic salt water that deals [[/r 13d6 # acid damage]] acid damage in a 100-foot line (DC 32 basic Reflex save). They can't use Breath Weapon again for 1d4 rounds."
                },
                "rarity": {
                    "value": "common"
                },
                "requirements": {
                    "value": ""
                },
                "skill_requirements": {
                    "rank": "",
                    "skill": ""
                },
                "source": {
                    "value": ""
                },
                "traits": {
                    "value": [
                        "acid",
                        "evocation",
                        "primal"
                    ]
                },
                "trigger": {
                    "value": ""
                },
                "usage": {
                    "value": "held-in-one-hand"
                },
                "weapon": {
                    "value": ""
                }
            },
            "flags": {},
            "img": "icons/svg/mystery-man.svg",
            "name": "Breath Weapon",
            "sort": 1300000,
            "type": "action"
        },
        {
            "_id": "ax8IJyIaesSgfUVD",
            "data": {
                "actionCategory": {
                    "value": "offensive"
                },
                "actionType": {
                    "value": "action"
                },
                "actions": {
                    "value": 2
                },
                "description": {
                    "chat": "",
                    "unidentified": "",
                    "value": "The dragon makes two claw Strikes and one wing Strike in any order."
                },
                "rarity": {
                    "value": "common"
                },
                "requirements": {
                    "value": ""
                },
                "skill_requirements": {
                    "rank": "",
                    "skill": ""
                },
                "source": {
                    "value": ""
                },
                "traits": {
                    "value": []
                },
                "trigger": {
                    "value": ""
                },
                "usage": {
                    "value": "held-in-one-hand"
                },
                "weapon": {
                    "value": ""
                }
            },
            "flags": {},
            "img": "icons/svg/mystery-man.svg",
            "name": "Draconic Frenzy",
            "sort": 1400000,
            "type": "action"
        },
        {
            "_id": "V5Py4m6Gm8m9Z8I2",
            "data": {
                "actionCategory": {
                    "value": "offensive"
                },
                "actionType": {
                    "value": "passive"
                },
                "actions": {
                    "value": ""
                },
                "description": {
                    "chat": "",
                    "unidentified": "",
                    "value": "The dragon recharges their Breath Weapon whenever they score a critical hit with a Strike."
                },
                "rarity": {
                    "value": "common"
                },
                "requirements": {
                    "value": ""
                },
                "skill_requirements": {
                    "rank": "",
                    "skill": ""
                },
                "source": {
                    "value": ""
                },
                "traits": {
                    "value": []
                },
                "trigger": {
                    "value": ""
                },
                "usage": {
                    "value": "held-in-one-hand"
                },
                "weapon": {
                    "value": ""
                }
            },
            "flags": {},
            "img": "icons/svg/mystery-man.svg",
            "name": "Draconic Momentum",
            "sort": 1500000,
            "type": "action"
        },
        {
            "_id": "GcxVApKgeD5WO9Wh",
            "data": {
                "actionCategory": {
                    "value": "offensive"
                },
                "actionType": {
                    "value": "action"
                },
                "actions": {
                    "value": 2
                },
                "description": {
                    "chat": "",
                    "unidentified": "",
                    "value": "The dragon makes a jaws Strike. On a hit, the target takes 4d6 @Compendium[pf2e.conditionspf2e.Persistent Damage], and is @Compendium[pf2e.conditionspf2e.Sickened] 2 from the pain of salt and brine in its wounds."
                },
                "rarity": {
                    "value": "common"
                },
                "requirements": {
                    "value": ""
                },
                "skill_requirements": {
                    "rank": "",
                    "skill": ""
                },
                "source": {
                    "value": ""
                },
                "traits": {
                    "value": []
                },
                "trigger": {
                    "value": ""
                },
                "usage": {
                    "value": "held-in-one-hand"
                },
                "weapon": {
                    "value": ""
                }
            },
            "flags": {},
            "img": "icons/svg/mystery-man.svg",
            "name": "Desiccating Bite",
            "sort": 1600000,
            "type": "action"
        },
        {
            "_id": "Rpbd4Ykv6diHLrf5",
            "data": {
                "description": {
                    "chat": "",
                    "unidentified": "",
                    "value": ""
                },
                "featType": "",
                "item": {
                    "value": 0
                },
                "mod": {
                    "value": 20
                },
                "proficient": {
                    "value": 0
                },
                "rarity": {
                    "value": "common"
                },
                "source": {
                    "value": ""
                },
                "traits": {
                    "value": []
                },
                "usage": {
                    "value": "held-in-one-hand"
                }
            },
            "flags": {},
            "img": "icons/svg/mystery-man.svg",
            "name": "Acrobatics",
            "sort": 1700000,
            "type": "lore"
        },
        {
            "_id": "2EOC06RSbprOpEHs",
            "data": {
                "description": {
                    "chat": "",
                    "unidentified": "",
                    "value": ""
                },
                "featType": "",
                "item": {
                    "value": 0
                },
                "mod": {
                    "value": 25
                },
                "proficient": {
                    "value": 0
                },
                "rarity": {
                    "value": "common"
                },
                "source": {
                    "value": ""
                },
                "traits": {
                    "value": []
                },
                "usage": {
                    "value": "held-in-one-hand"
                }
            },
            "flags": {},
            "img": "icons/svg/mystery-man.svg",
            "name": "Athletics",
            "sort": 1800000,
            "type": "lore"
        },
        {
            "_id": "AXHyP0hP6B2Mumbk",
            "data": {
                "description": {
                    "chat": "",
                    "unidentified": "",
                    "value": ""
                },
                "featType": "",
                "item": {
                    "value": 0
                },
                "mod": {
                    "value": 24
                },
                "proficient": {
                    "value": 0
                },
                "rarity": {
                    "value": "common"
                },
                "source": {
                    "value": ""
                },
                "traits": {
                    "value": []
                },
                "usage": {
                    "value": "held-in-one-hand"
                }
            },
            "flags": {},
            "img": "icons/svg/mystery-man.svg",
            "name": "Deception",
            "sort": 1900000,
            "type": "lore"
        },
        {
            "_id": "1wberxj26wb1JuAo",
            "data": {
                "description": {
                    "chat": "",
                    "unidentified": "",
                    "value": ""
                },
                "featType": "",
                "item": {
                    "value": 0
                },
                "mod": {
                    "value": 24
                },
                "proficient": {
                    "value": 0
                },
                "rarity": {
                    "value": "common"
                },
                "source": {
                    "value": ""
                },
                "traits": {
                    "value": []
                },
                "usage": {
                    "value": "held-in-one-hand"
                }
            },
            "flags": {},
            "img": "icons/svg/mystery-man.svg",
            "name": "Intimidation",
            "sort": 2000000,
            "type": "lore"
        },
        {
            "_id": "NN1FgljoT95lIODZ",
            "data": {
                "description": {
                    "chat": "",
                    "unidentified": "",
                    "value": ""
                },
                "featType": "",
                "item": {
                    "value": 0
                },
                "mod": {
                    "value": 21
                },
                "proficient": {
                    "value": 0
                },
                "rarity": {
                    "value": "common"
                },
                "source": {
                    "value": ""
                },
                "traits": {
                    "value": []
                },
                "usage": {
                    "value": "held-in-one-hand"
                }
            },
            "flags": {},
            "img": "icons/svg/mystery-man.svg",
            "name": "Nature",
            "sort": 2100000,
            "type": "lore"
        },
        {
            "_id": "g7vfS8I0ZtZJg1r2",
            "data": {
                "description": {
                    "chat": "",
                    "unidentified": "",
                    "value": ""
                },
                "featType": "",
                "item": {
                    "value": 0
                },
                "mod": {
                    "value": 21
                },
                "proficient": {
                    "value": 0
                },
                "rarity": {
                    "value": "common"
                },
                "source": {
                    "value": ""
                },
                "traits": {
                    "value": []
                },
                "usage": {
                    "value": "held-in-one-hand"
                }
            },
            "flags": {},
            "img": "icons/svg/mystery-man.svg",
            "name": "Society",
            "sort": 2200000,
            "type": "lore"
        },
        {
            "_id": "79FfloQ5Ofa9ABvK",
            "data": {
                "description": {
                    "chat": "",
                    "unidentified": "",
                    "value": ""
                },
                "featType": "",
                "item": {
                    "value": 0
                },
                "mod": {
                    "value": 21
                },
                "proficient": {
                    "value": 0
                },
                "rarity": {
                    "value": "common"
                },
                "source": {
                    "value": ""
                },
                "traits": {
                    "value": []
                },
                "usage": {
                    "value": "held-in-one-hand"
                }
            },
            "flags": {},
            "img": "icons/svg/mystery-man.svg",
            "name": "Survival",
            "sort": 2300000,
            "type": "lore"
        }
    ],
    "name": "Adult Brine Dragon",
    "permission": {
        "default": 0
    },
    "token": {
        "actorData": {},
        "actorId": "PXTQ8wTvnd5qF1hW",
        "actorLink": false,
        "bar1": {
            "attribute": "attributes.hp"
        },
        "bar2": {},
        "brightLight": 0,
        "brightSight": 0,
        "dimLight": 0,
        "dimSight": 0,
        "displayBars": 20,
        "displayName": 20,
        "disposition": -1,
        "flags": {},
        "height": 3,
        "img": "icons/svg/mystery-man.svg",
        "lightAlpha": 1,
        "lightAngle": 360,
        "lockRotation": false,
        "name": "Adult Brine Dragon",
        "randomImg": false,
        "rotation": 0,
        "scale": 1,
        "sightAngle": 360,
        "tint": null,
        "vision": false,
        "width": 3
    },
    "type": "npc"
}
