{
    "_id": "nF5NUinK23fOLn5u",
    "data": {
        "actionCategory": {
            "value": ""
        },
        "actionType": {
            "value": "passive"
        },
        "actions": {
            "value": null
        },
        "description": {
            "chat": "",
            "unidentified": "",
            "value": "<p>Your scales are especially colorful, possessing some of the same resistance a dragon possesses. You gain resistance equal to half your level (minimum 1) to the damage type associated with your <a class=\"entity-link\" draggable=\"true\" data-pack=\"pf2e.ancestryfeatures\" data-id=\"egpiSWBrNBb1Fmig\"> Draconic Exemplar</a>. Double this resistance against dragons’ Breath Weapons.</p>"
        },
        "featType": {
            "value": "ancestryfeature"
        },
        "level": {
            "value": "1"
        },
        "prerequisites": {
            "value": null
        },
        "rarity": {
            "value": "common"
        },
        "rules": [],
        "source": {
            "value": ""
        },
        "traits": {
            "custom": "",
            "rarity": {
                "value": "common"
            },
            "value": [
                "kobold"
            ]
        },
        "usage": {
            "value": "held-in-one-hand"
        }
    },
    "effects": [],
    "flags": {},
    "img": "systems/pf2e/icons/features/ancestry/dragonscaled-kobold.jpg",
    "name": "Dragonscaled Kobold",
    "permission": {
        "default": 0
    },
    "type": "feat"
}
