{
    "_id": "8wGUh9RsMUamOKjh",
    "data": {
        "actionCategory": {
            "value": ""
        },
        "actionType": {
            "value": "passive"
        },
        "actions": {
            "value": null
        },
        "description": {
            "chat": "",
            "unidentified": "",
            "value": "<p><span id=\"ctl00_MainContent_DetailedOutput\">You have a powerful tail, likely because you descend from a community of monkey goblins. You gain a +2 circumstance bonus to Athletics checks to <a class=\"entity-link\" draggable=\"true\" data-pack=\"pf2e.actionspf2e\" data-id=\"pprgrYQ1QnIDGZiy\"> Climb</a>, you gain <a class=\"entity-link\" draggable=\"true\" data-pack=\"pf2e.feats-srd\" data-id=\"09PurtIanNUPfNRq\"> Combat Climber</a> as a bonus feat, and you reduce the number of free hands required to climb or <a class=\"entity-link\" draggable=\"true\" data-pack=\"pf2e.actionspf2e\" data-id=\"ge56Lu1xXVFYUnLP\"> Trip</a> by one.&nbsp;</span></p>"
        },
        "featType": {
            "value": "ancestryfeature"
        },
        "level": {
            "value": "1"
        },
        "prerequisites": {
            "value": null
        },
        "rarity": {
            "value": "common"
        },
        "rules": [],
        "source": {
            "value": ""
        },
        "traits": {
            "custom": "",
            "rarity": {
                "value": "common"
            },
            "value": [
                "goblin"
            ]
        },
        "usage": {
            "value": "held-in-one-hand"
        }
    },
    "effects": [],
    "flags": {},
    "img": "systems/pf2e/icons/features/ancestry/tailed-goblin.jpg",
    "name": "Tailed Goblin",
    "permission": {
        "default": 0
    },
    "type": "feat"
}
