{
    "_id": "K124fCpU03SJvmeP",
    "data": {
        "actionCategory": {
            "value": ""
        },
        "actionType": {
            "value": "passive"
        },
        "actions": {
            "value": null
        },
        "description": {
            "chat": "",
            "unidentified": "",
            "value": "<p>You come from a line of wandering mercenaries, constantly on the march and scavenging food on the trail. If you fail, but not critically fail, to <a class=\"entity-link\" draggable=\"true\" data-pack=\"pf2e.actionspf2e\" data-id=\"49y9Ec4bDii8pcD3\"> Subsist</a> in the wilderness, you can still keep yourself fed with poor meals. When exploring, you can <a class=\"entity-link\" draggable=\"true\" data-pack=\"pf2e.actionspf2e\" data-id=\"JuqmIAnkL9hVGai8\"> Hustle</a> twice as long before you have to stop.</p>"
        },
        "featType": {
            "value": "ancestryfeature"
        },
        "level": {
            "value": "1"
        },
        "prerequisites": {
            "value": null
        },
        "rarity": {
            "value": "common"
        },
        "rules": [],
        "source": {
            "value": ""
        },
        "traits": {
            "custom": "",
            "rarity": {
                "value": "common"
            },
            "value": [
                "hobgoblin"
            ]
        },
        "usage": {
            "value": "held-in-one-hand"
        }
    },
    "effects": [],
    "flags": {},
    "img": "systems/pf2e/icons/features/ancestry/warmarch-hobgoblin.jpg",
    "name": "Warmarch Hobgoblin",
    "permission": {
        "default": 0
    },
    "type": "feat"
}
