{
    "_id": "ySXw00WW2LJoDhZ6",
    "data": {
        "abilities": {
            "cha": {
                "min": 3,
                "mod": 3,
                "value": 16
            },
            "con": {
                "min": 3,
                "mod": 0,
                "value": 10
            },
            "dex": {
                "min": 3,
                "mod": 3,
                "value": 16
            },
            "int": {
                "min": 3,
                "mod": 0,
                "value": 10
            },
            "str": {
                "min": 3,
                "mod": 1,
                "value": 12
            },
            "wis": {
                "min": 3,
                "mod": 1,
                "value": 12
            }
        },
        "attributes": {
            "ac": {
                "_modifiers": [
                    {
                        "custom": false,
                        "enabled": true,
                        "ignored": false,
                        "modifier": 3,
                        "name": "PF2E.BaseModifier",
                        "type": "untyped"
                    },
                    {
                        "custom": false,
                        "enabled": true,
                        "ignored": false,
                        "modifier": 3,
                        "name": "PF2E.AbilityDex",
                        "type": "ability"
                    }
                ],
                "base": 16,
                "breakdown": "Base Armor Class 10, Base Modifier +3, Dexterity +3",
                "check": 0,
                "details": "",
                "dex": 0,
                "item": 0,
                "min": 0,
                "name": "ac",
                "totalModifier": 6,
                "value": 16
            },
            "allSaves": {
                "value": ""
            },
            "ancestryhp": 0,
            "bonusEncumbranceBulk": 0,
            "bonusLimitBulk": 0,
            "classDC": {
                "ability": "str",
                "breakdown": "",
                "item": 0,
                "rank": 0,
                "value": 0
            },
            "classhp": 0,
            "flatbonushp": 0,
            "flatbonussp": 0,
            "hp": {
                "details": "",
                "max": 7,
                "min": 0,
                "temp": 0,
                "tempmax": 0,
                "value": 7
            },
            "init": {
                "bonus": 0,
                "value": 0
            },
            "initiative": {
                "ability": "",
                "circumstance": 0,
                "status": 0
            },
            "levelbonushp": 0,
            "levelbonussp": 0,
            "perception": {
                "_modifiers": [
                    {
                        "custom": false,
                        "enabled": true,
                        "ignored": false,
                        "modifier": 3,
                        "name": "PF2E.BaseModifier",
                        "type": "untyped"
                    },
                    {
                        "custom": false,
                        "enabled": true,
                        "ignored": false,
                        "modifier": 1,
                        "name": "PF2E.AbilityWis",
                        "type": "ability"
                    }
                ],
                "ability": "wis",
                "base": 4,
                "breakdown": "Base Modifier +3, Wisdom +1",
                "item": 0,
                "name": "perception",
                "rank": 0,
                "totalModifier": 4,
                "value": 4
            },
            "resolve": {
                "value": 0
            },
            "shield": {
                "ac": 0,
                "brokenThreshold": "0",
                "hardness": 0,
                "max": "0",
                "min": 0,
                "value": 0
            },
            "sp": {
                "details": "",
                "max": 0,
                "min": 0,
                "value": 0
            },
            "speed": {
                "otherSpeeds": [],
                "special": "",
                "value": "25 feet"
            }
        },
        "currency": {
            "cp": {
                "value": 0
            },
            "gp": {
                "value": 0
            },
            "pp": {
                "value": 0
            },
            "sp": {
                "value": 0
            }
        },
        "customModifiers": {},
        "damageDice": {},
        "details": {
            "alignment": {
                "value": "N"
            },
            "ancestry": {
                "value": ""
            },
            "biography": {
                "public": "",
                "value": ""
            },
            "class": {
                "value": ""
            },
            "creatureType": "",
            "deity": {
                "image": "systems/pf2e/assets/sheet/deity.png",
                "value": ""
            },
            "flavourText": "",
            "heritage": {
                "value": ""
            },
            "keyability": {
                "value": "str"
            },
            "level": {
                "min": 1,
                "value": -1
            },
            "nethysUrl": "",
            "recallKnowledgeText": "",
            "sidebarText": "",
            "source": {
                "value": ""
            }
        },
        "martial": {
            "advanced": {
                "breakdown": "",
                "rank": 0,
                "value": 0
            },
            "heavy": {
                "breakdown": "",
                "rank": 0,
                "value": 0
            },
            "light": {
                "breakdown": "",
                "rank": 0,
                "value": 0
            },
            "martial": {
                "breakdown": "",
                "rank": 0,
                "value": 0
            },
            "medium": {
                "breakdown": "",
                "rank": 0,
                "value": 0
            },
            "simple": {
                "breakdown": "",
                "rank": 0,
                "value": 0
            },
            "unarmed": {
                "breakdown": "",
                "rank": 0,
                "value": 0
            },
            "unarmored": {
                "breakdown": "",
                "rank": 0,
                "value": 0
            }
        },
        "saves": {
            "fortitude": {
                "_modifiers": [
                    {
                        "custom": false,
                        "enabled": true,
                        "ignored": false,
                        "modifier": 5,
                        "name": "PF2E.BaseModifier",
                        "type": "untyped"
                    },
                    {
                        "custom": false,
                        "enabled": true,
                        "ignored": false,
                        "modifier": 0,
                        "name": "PF2E.AbilityCon",
                        "type": "ability"
                    }
                ],
                "ability": "con",
                "base": 5,
                "breakdown": "Base Modifier +5, Constitution +0",
                "item": 0,
                "name": "fortitude",
                "rank": 0,
                "saveDetail": "",
                "totalModifier": 5,
                "value": 5
            },
            "reflex": {
                "_modifiers": [
                    {
                        "custom": false,
                        "enabled": true,
                        "ignored": false,
                        "modifier": 3,
                        "name": "PF2E.BaseModifier",
                        "type": "untyped"
                    },
                    {
                        "custom": false,
                        "enabled": true,
                        "ignored": false,
                        "modifier": 3,
                        "name": "PF2E.AbilityDex",
                        "type": "ability"
                    }
                ],
                "ability": "dex",
                "base": 6,
                "breakdown": "Base Modifier +3, Dexterity +3",
                "item": 0,
                "name": "reflex",
                "rank": 0,
                "saveDetail": "",
                "totalModifier": 6,
                "value": 6
            },
            "will": {
                "_modifiers": [
                    {
                        "custom": false,
                        "enabled": true,
                        "ignored": false,
                        "modifier": 2,
                        "name": "PF2E.BaseModifier",
                        "type": "untyped"
                    },
                    {
                        "custom": false,
                        "enabled": true,
                        "ignored": false,
                        "modifier": 1,
                        "name": "PF2E.AbilityWis",
                        "type": "ability"
                    }
                ],
                "ability": "wis",
                "base": 3,
                "breakdown": "Base Modifier +2, Wisdom +1",
                "item": 0,
                "name": "will",
                "rank": 0,
                "saveDetail": "",
                "totalModifier": 3,
                "value": 3
            }
        },
        "schema": {
            "version": {
                "value": ""
            }
        },
        "skills": {
            "acr": {
                "ability": "dex",
                "armor": 1,
                "breakdown": "",
                "item": 0,
                "mod": 0,
                "rank": 0,
                "value": 0
            },
            "arc": {
                "ability": "int",
                "breakdown": "",
                "item": 0,
                "mod": 0,
                "rank": 0,
                "value": 0
            },
            "ath": {
                "ability": "str",
                "armor": 1,
                "breakdown": "",
                "item": 0,
                "mod": 0,
                "rank": 0,
                "value": 0
            },
            "cra": {
                "_modifiers": [
                    {
                        "custom": false,
                        "enabled": true,
                        "ignored": false,
                        "modifier": 2,
                        "name": "PF2E.BaseModifier",
                        "type": "untyped"
                    },
                    {
                        "custom": false,
                        "enabled": true,
                        "ignored": false,
                        "modifier": 0,
                        "name": "PF2E.AbilityInt",
                        "type": "ability"
                    }
                ],
                "ability": "int",
                "base": 2,
                "breakdown": "Base Modifier +2, Intelligence +0",
                "expanded": "crafting",
                "item": 0,
                "label": "Crafting",
                "mod": 0,
                "name": "Crafting",
                "rank": 0,
                "totalModifier": 2,
                "value": 2,
                "visible": true
            },
            "dec": {
                "_modifiers": [
                    {
                        "custom": false,
                        "enabled": true,
                        "ignored": false,
                        "modifier": 2,
                        "name": "PF2E.BaseModifier",
                        "type": "untyped"
                    },
                    {
                        "custom": false,
                        "enabled": true,
                        "ignored": false,
                        "modifier": 3,
                        "name": "PF2E.AbilityCha",
                        "type": "ability"
                    }
                ],
                "ability": "cha",
                "base": 5,
                "breakdown": "Base Modifier +2, Charisma +3",
                "expanded": "deception",
                "item": 0,
                "label": "Deception",
                "mod": 0,
                "name": "Deception",
                "rank": 0,
                "totalModifier": 5,
                "value": 5,
                "visible": true
            },
            "dip": {
                "_modifiers": [
                    {
                        "custom": false,
                        "enabled": true,
                        "ignored": false,
                        "modifier": 2,
                        "name": "PF2E.BaseModifier",
                        "type": "untyped"
                    },
                    {
                        "custom": false,
                        "enabled": true,
                        "ignored": false,
                        "modifier": 3,
                        "name": "PF2E.AbilityCha",
                        "type": "ability"
                    }
                ],
                "ability": "cha",
                "base": 5,
                "breakdown": "Base Modifier +2, Charisma +3",
                "expanded": "diplomacy",
                "item": 0,
                "label": "Diplomacy",
                "mod": 0,
                "name": "Diplomacy",
                "rank": 0,
                "totalModifier": 5,
                "value": 5,
                "visible": true
            },
            "intimidate": {
                "_modifiers": [
                    {
                        "custom": false,
                        "enabled": true,
                        "ignored": false,
                        "modifier": 5,
                        "name": "PF2E.BaseModifier",
                        "type": "untyped"
                    },
                    {
                        "custom": false,
                        "enabled": true,
                        "ignored": false,
                        "modifier": 0,
                        "name": "PF2E.AbilityInt",
                        "type": "ability"
                    }
                ],
                "base": 5,
                "breakdown": "Base Modifier +5, Intelligence +0",
                "expanded": "intimidate",
                "label": "Intimidate",
                "name": "Intimidate",
                "totalModifier": 5,
                "value": 5,
                "visible": true
            },
            "itm": {
                "ability": "cha",
                "breakdown": "",
                "item": 0,
                "mod": 0,
                "rank": 0,
                "value": 0
            },
            "med": {
                "ability": "wis",
                "breakdown": "",
                "item": 0,
                "mod": 0,
                "rank": 0,
                "value": 0
            },
            "nat": {
                "ability": "wis",
                "breakdown": "",
                "item": 0,
                "mod": 0,
                "rank": 0,
                "value": 0
            },
            "occ": {
                "ability": "int",
                "breakdown": "",
                "item": 0,
                "mod": 0,
                "rank": 0,
                "value": 0
            },
            "prf": {
                "ability": "cha",
                "breakdown": "",
                "item": 0,
                "mod": 0,
                "rank": 0,
                "value": 0
            },
            "rel": {
                "ability": "wis",
                "breakdown": "",
                "item": 0,
                "mod": 0,
                "rank": 0,
                "value": 0
            },
            "soc": {
                "ability": "int",
                "breakdown": "",
                "item": 0,
                "mod": 0,
                "rank": 0,
                "value": 0
            },
            "ste": {
                "ability": "dex",
                "armor": 1,
                "breakdown": "",
                "item": 0,
                "mod": 0,
                "rank": 0,
                "value": 0
            },
            "sur": {
                "ability": "wis",
                "breakdown": "",
                "item": 0,
                "mod": 0,
                "rank": 0,
                "value": 0
            },
            "thi": {
                "ability": "dex",
                "armor": 1,
                "breakdown": "",
                "item": 0,
                "mod": 0,
                "rank": 0,
                "value": 0
            }
        },
        "spells": {
            "spell0": {
                "max": 0
            },
            "spell1": {
                "max": 0
            },
            "spell10": {
                "max": 0
            },
            "spell11": {
                "max": 0
            },
            "spell2": {
                "max": 0
            },
            "spell3": {
                "max": 0
            },
            "spell4": {
                "max": 0
            },
            "spell5": {
                "max": 0
            },
            "spell6": {
                "max": 0
            },
            "spell7": {
                "max": 0
            },
            "spell8": {
                "max": 0
            },
            "spell9": {
                "max": 0
            }
        },
        "statusEffects": [],
        "traits": {
            "ci": [],
            "di": {
                "custom": "",
                "value": []
            },
            "dr": [],
            "dv": [],
            "languages": {
                "custom": "",
                "selected": [],
                "value": [
                    "common"
                ]
            },
            "rarity": {
                "value": "common"
            },
            "senses": {
                "value": ""
            },
            "size": {
                "value": "med"
            },
            "traits": {
                "custom": "",
                "value": [
                    "humanoid",
                    "human"
                ]
            }
        }
    },
    "flags": {
        "pf2e": {
            "editNPC": {
                "value": false
            }
        },
        "pf2e_updatednpcsheet": {
            "npcNotes": {
                "value": ""
            }
        }
    },
    "img": "icons/svg/mystery-man.svg",
    "items": [
        {
            "_id": "4hdUlGSdpdozflFo",
            "data": {
                "brokenThreshold": {
                    "value": 0
                },
                "bulkCapacity": {
                    "value": ""
                },
                "collapsed": {
                    "value": false
                },
                "containerId": {
                    "value": ""
                },
                "description": {
                    "chat": "",
                    "label": "Description",
                    "type": "String",
                    "unidentified": "",
                    "value": ""
                },
                "equipped": {
                    "value": false
                },
                "equippedBulk": {
                    "value": ""
                },
                "hardness": {
                    "value": 0
                },
                "hp": {
                    "value": 0
                },
                "identified": {
                    "value": false
                },
                "invested": {
                    "value": false
                },
                "level": {
                    "value": 0
                },
                "maxHp": {
                    "value": 0
                },
                "negateBulk": {
                    "value": "0"
                },
                "preciousMaterial": {
                    "value": ""
                },
                "preciousMaterialGrade": {
                    "value": ""
                },
                "price": {
                    "value": 0
                },
                "quantity": {
                    "value": 1
                },
                "rarity": {
                    "value": "common"
                },
                "rules": [],
                "source": {
                    "value": ""
                },
                "stackGroup": {
                    "value": ""
                },
                "traits": {
                    "value": []
                },
                "usage": {
                    "value": "held-in-one-hand"
                },
                "weight": {
                    "value": 0
                }
            },
            "flags": {},
            "img": "icons/svg/mystery-man.svg",
            "name": "daggers (3)",
            "sort": 100000,
            "type": "equipment"
        },
        {
            "_id": "7Azx4NhaO93fbmBd",
            "data": {
                "brokenThreshold": {
                    "value": 0
                },
                "bulkCapacity": {
                    "value": ""
                },
                "collapsed": {
                    "value": false
                },
                "containerId": {
                    "value": ""
                },
                "description": {
                    "chat": "",
                    "label": "Description",
                    "type": "String",
                    "unidentified": "",
                    "value": ""
                },
                "equipped": {
                    "value": false
                },
                "equippedBulk": {
                    "value": ""
                },
                "hardness": {
                    "value": 0
                },
                "hp": {
                    "value": 0
                },
                "identified": {
                    "value": false
                },
                "invested": {
                    "value": false
                },
                "level": {
                    "value": 0
                },
                "maxHp": {
                    "value": 0
                },
                "negateBulk": {
                    "value": "0"
                },
                "preciousMaterial": {
                    "value": ""
                },
                "preciousMaterialGrade": {
                    "value": ""
                },
                "price": {
                    "value": 0
                },
                "quantity": {
                    "value": 1
                },
                "rarity": {
                    "value": "common"
                },
                "rules": [],
                "source": {
                    "value": ""
                },
                "stackGroup": {
                    "value": ""
                },
                "traits": {
                    "value": []
                },
                "usage": {
                    "value": "held-in-one-hand"
                },
                "weight": {
                    "value": 0
                }
            },
            "flags": {},
            "img": "icons/svg/mystery-man.svg",
            "name": "studded leather",
            "sort": 200000,
            "type": "equipment"
        },
        {
            "_id": "USPAWEeOMYFynVHm",
            "data": {
                "attack": {
                    "value": ""
                },
                "attackEffects": {
                    "value": []
                },
                "bonus": {
                    "total": 8,
                    "value": 8
                },
                "brokenThreshold": {
                    "value": 0
                },
                "bulkCapacity": {
                    "value": ""
                },
                "collapsed": {
                    "value": false
                },
                "containerId": {
                    "value": ""
                },
                "damage": {
                    "damageType": "piercing",
                    "die": "1d4+1"
                },
                "damageRolls": [
                    {
                        "damage": "1d4+1",
                        "damageType": "piercing"
                    }
                ],
                "description": {
                    "chat": "",
                    "unidentified": "",
                    "value": "(agile, finesse, versatile S)"
                },
                "equipped": {
                    "value": false
                },
                "equippedBulk": {
                    "value": ""
                },
                "hardness": {
                    "value": 0
                },
                "hp": {
                    "value": 0
                },
                "identified": {
                    "value": false
                },
                "invested": {
                    "value": false
                },
                "maxHp": {
                    "value": 0
                },
                "negateBulk": {
                    "value": "0"
                },
                "preciousMaterial": {
                    "value": ""
                },
                "preciousMaterialGrade": {
                    "value": ""
                },
                "price": {
                    "value": 0
                },
                "property1": {
                    "critDamage": "",
                    "critDamageType": "",
                    "critDice": 0,
                    "critDie": "",
                    "damageType": "",
                    "dice": 0,
                    "die": "",
                    "value": ""
                },
                "property2": {
                    "critDamage": "",
                    "critDamageType": "",
                    "critDice": 0,
                    "critDie": "",
                    "damageType": "",
                    "dice": 0,
                    "die": "",
                    "value": ""
                },
                "property3": {
                    "critDamage": "",
                    "critDamageType": "",
                    "critDice": 0,
                    "critDie": "",
                    "damageType": "",
                    "dice": 0,
                    "die": "",
                    "value": ""
                },
                "quantity": {
                    "value": 1
                },
                "rarity": {
                    "value": "common"
                },
                "rules": [],
                "source": {
                    "value": ""
                },
                "stackGroup": {
                    "value": ""
                },
                "traits": {
                    "value": [
                        "agile",
                        "finesse",
                        "versatile S"
                    ]
                },
                "usage": {
                    "value": "held-in-one-hand"
                },
                "weight": {
                    "value": 0
                }
            },
            "flags": {
                "pf2e_updatednpcsheet": {}
            },
            "img": "icons/svg/mystery-man.svg",
            "name": "Dagger",
            "sort": 300000,
            "type": "melee"
        },
        {
            "_id": "rjsotRgiCHo9vmk7",
            "data": {
                "attack": {
                    "value": ""
                },
                "attackEffects": {
                    "value": []
                },
                "bonus": {
                    "total": 8,
                    "value": 8
                },
                "brokenThreshold": {
                    "value": 0
                },
                "bulkCapacity": {
                    "value": ""
                },
                "collapsed": {
                    "value": false
                },
                "containerId": {
                    "value": ""
                },
                "damage": {
                    "damageType": "piercing",
                    "die": "1d4+1"
                },
                "damageRolls": [
                    {
                        "damage": "1d4+1",
                        "damageType": "piercing"
                    }
                ],
                "description": {
                    "chat": "",
                    "unidentified": "",
                    "value": "(agile, finesse, thrown 10 ft., versatile S)"
                },
                "equipped": {
                    "value": false
                },
                "equippedBulk": {
                    "value": ""
                },
                "hardness": {
                    "value": 0
                },
                "hp": {
                    "value": 0
                },
                "identified": {
                    "value": false
                },
                "invested": {
                    "value": false
                },
                "maxHp": {
                    "value": 0
                },
                "negateBulk": {
                    "value": "0"
                },
                "preciousMaterial": {
                    "value": ""
                },
                "preciousMaterialGrade": {
                    "value": ""
                },
                "price": {
                    "value": 0
                },
                "property1": {
                    "critDamage": "",
                    "critDamageType": "",
                    "critDice": 0,
                    "critDie": "",
                    "damageType": "",
                    "dice": 0,
                    "die": "",
                    "value": ""
                },
                "property2": {
                    "critDamage": "",
                    "critDamageType": "",
                    "critDice": 0,
                    "critDie": "",
                    "damageType": "",
                    "dice": 0,
                    "die": "",
                    "value": ""
                },
                "property3": {
                    "critDamage": "",
                    "critDamageType": "",
                    "critDice": 0,
                    "critDie": "",
                    "damageType": "",
                    "dice": 0,
                    "die": "",
                    "value": ""
                },
                "quantity": {
                    "value": 1
                },
                "rarity": {
                    "value": "common"
                },
                "rules": [],
                "source": {
                    "value": ""
                },
                "stackGroup": {
                    "value": ""
                },
                "traits": {
                    "value": [
                        "agile",
                        "finesse",
                        "thrown 10 ft.",
                        "versatile S"
                    ]
                },
                "usage": {
                    "value": "held-in-one-hand"
                },
                "weaponType": {
                    "value": "ranged"
                },
                "weight": {
                    "value": 0
                }
            },
            "flags": {
                "pf2e_updatednpcsheet": {}
            },
            "img": "icons/svg/mystery-man.svg",
            "name": "Dagger",
            "sort": 400000,
            "type": "melee"
        },
        {
            "_id": "jlEPZD4gjnNtd69G",
            "data": {
                "actionCategory": {
                    "value": "offensive"
                },
                "actionType": {
                    "value": "passive"
                },
                "actions": {
                    "value": ""
                },
                "description": {
                    "chat": "",
                    "unidentified": "",
                    "value": "The crowd leader ignores difficult terrain caused by friendly crowds. Creatures within or adjacent to friendly crowds are flat-footed against the crowd leader’s attacks."
                },
                "rarity": {
                    "value": "common"
                },
                "requirements": {
                    "value": ""
                },
                "rules": [],
                "skill_requirements": {
                    "rank": "",
                    "skill": ""
                },
                "source": {
                    "value": ""
                },
                "traits": {
                    "value": []
                },
                "trigger": {
                    "value": ""
                },
                "usage": {
                    "value": "held-in-one-hand"
                },
                "weapon": {
                    "value": ""
                }
            },
            "flags": {},
            "img": "icons/svg/mystery-man.svg",
            "name": "Crowd Aid",
            "sort": 500000,
            "type": "action"
        },
        {
            "_id": "J8yU2C1I9dLZjzPS",
            "data": {
                "description": {
                    "chat": "",
                    "unidentified": "",
                    "value": ""
                },
                "featType": "",
                "item": {
                    "value": 0
                },
                "mod": {
                    "value": 2
                },
                "proficient": {
                    "value": 0
                },
                "rarity": {
                    "value": "common"
                },
                "rules": [],
                "source": {
                    "value": ""
                },
                "traits": {
                    "value": []
                },
                "usage": {
                    "value": "held-in-one-hand"
                }
            },
            "flags": {},
            "img": "icons/svg/mystery-man.svg",
            "name": "Crafting",
            "sort": 600000,
            "type": "lore"
        },
        {
            "_id": "ykZmrp8hxM6nyrX1",
            "data": {
                "description": {
                    "chat": "",
                    "unidentified": "",
                    "value": ""
                },
                "featType": "",
                "item": {
                    "value": 0
                },
                "mod": {
                    "value": 5
                },
                "proficient": {
                    "value": 0
                },
                "rarity": {
                    "value": "common"
                },
                "rules": [],
                "source": {
                    "value": ""
                },
                "traits": {
                    "value": []
                },
                "usage": {
                    "value": "held-in-one-hand"
                }
            },
            "flags": {},
            "img": "icons/svg/mystery-man.svg",
            "name": "Deception",
            "sort": 700000,
            "type": "lore"
        },
        {
            "_id": "vzzOkvfjSFuQEp0o",
            "data": {
                "description": {
                    "chat": "",
                    "unidentified": "",
                    "value": ""
                },
                "featType": "",
                "item": {
                    "value": 0
                },
                "mod": {
                    "value": 5
                },
                "proficient": {
                    "value": 0
                },
                "rarity": {
                    "value": "common"
                },
                "rules": [],
                "source": {
                    "value": ""
                },
                "traits": {
                    "value": []
                },
                "usage": {
                    "value": "held-in-one-hand"
                }
            },
            "flags": {},
            "img": "icons/svg/mystery-man.svg",
            "name": "Diplomacy",
            "sort": 800000,
            "type": "lore"
        },
        {
            "_id": "Y8pIX1GwOGIxZtV6",
            "data": {
                "description": {
                    "chat": "",
                    "unidentified": "",
                    "value": ""
                },
                "featType": "",
                "item": {
                    "value": 0
                },
                "mod": {
                    "value": 5
                },
                "proficient": {
                    "value": 0
                },
                "rarity": {
                    "value": "common"
                },
                "rules": [],
                "source": {
                    "value": ""
                },
                "traits": {
                    "value": []
                },
                "usage": {
                    "value": "held-in-one-hand"
                }
            },
            "flags": {},
            "img": "icons/svg/mystery-man.svg",
            "name": "Intimidate",
            "sort": 900000,
            "type": "lore"
        }
    ],
    "name": "Crowd Leader",
    "permission": {
        "default": 0
    },
    "token": {
        "actorData": {},
        "actorId": "ySXw00WW2LJoDhZ6",
        "actorLink": false,
        "bar1": {
            "attribute": "attributes.hp"
        },
        "bar2": {},
        "brightLight": 0,
        "brightSight": 0,
        "dimLight": 0,
        "dimSight": 0,
        "displayBars": 20,
        "displayName": 20,
        "disposition": -1,
        "flags": {},
        "height": 1,
        "img": "icons/svg/mystery-man.svg",
        "lightAlpha": 1,
        "lightAngle": 360,
        "lockRotation": false,
        "name": "Crowd Leader",
        "randomImg": false,
        "rotation": 0,
        "scale": 1,
        "sightAngle": 360,
        "tint": null,
        "vision": false,
        "width": 1
    },
    "type": "npc"
}
